what,kind,bundleId,bundleVersion,description,time
activated,workbench,org.eclipse.ui.workbench,3.6.0.I20100603-1100,"",1334335930038
deactivated,workbench,org.eclipse.ui.workbench,3.6.0.I20100603-1100,"",1334335967137
activated,workbench,org.eclipse.ui.workbench,3.6.0.I20100603-1100,"",1334335967179
deactivated,workbench,org.eclipse.ui.workbench,3.6.0.I20100603-1100,"",1334335967314
activated,workbench,org.eclipse.ui.workbench,3.6.0.I20100603-1100,"",1334335967324
executed,command,org.eclipse.ui,3.6.0.I20100603-1100,"org.eclipse.ui.edit.undo",1334335991418
deactivated,workbench,org.eclipse.ui.workbench,3.6.0.I20100603-1100,"",1334336071520
activated,workbench,org.eclipse.ui.workbench,3.6.0.I20100603-1100,"",1334336079807
activated,view,org.eclipse.jdt.ui,3.6.0.v20100602-1600,"org.eclipse.jdt.ui.PackageExplorer",1334336098254
activated,editor,org.eclipse.jdt.ui,3.6.0.v20100602-1600,"org.eclipse.jdt.ui.CompilationUnitEditor",1334336103653
deactivated,workbench,org.eclipse.ui.workbench,3.6.0.I20100603-1100,"",1334336130137
activated,workbench,org.eclipse.ui.workbench,3.6.0.I20100603-1100,"",1334336137193
started,bundle,org.python.pydev.core,2.1.0.2011052613,"org.python.pydev.core",1334336145192
started,bundle,org.python.pydev.debug,2.1.0.2011052613,"org.python.pydev.debug",1334336145193
started,bundle,org.eclipse.cdt.debug.mi.ui,6.1.0.201006141710,"org.eclipse.cdt.debug.mi.ui",1334336147954
started,bundle,org.eclipse.cdt.dsf,2.1.0.201006141710,"org.eclipse.cdt.dsf",1334336149204
started,bundle,org.eclipse.cdt.dsf.gdb,3.0.0.201006141710,"org.eclipse.cdt.dsf.gdb",1334336149323
started,bundle,org.eclipse.cdt.dsf.gdb.ui,2.1.0.201006141710,"org.eclipse.cdt.dsf.gdb.ui",1334336149434
started,bundle,com.python.pydev.analysis,2.1.0.2011052613,"com.python.pydev.analysis",1334336153143
started,bundle,org.python.pydev,2.1.0.2011052613,"org.python.pydev",1334336154394
started,bundle,org.eclipse.cdt.debug.mi.core,7.0.0.201006141710,"org.eclipse.cdt.debug.mi.core",1334336155320
deactivated,workbench,org.eclipse.ui.workbench,3.6.0.I20100603-1100,"",1334336162596
error,log,,,"Server returned HTTP response code: 500 for URL: https://ping.aptana.com/ping.php",1334336166979
activated,workbench,org.eclipse.ui.workbench,3.6.0.I20100603-1100,"",1334336197085
started,bundle,org.eclipse.mylyn.java.tasks,3.4.0.v20100608-0100-e3x,"org.eclipse.mylyn.java.tasks",1334336202676
activated,perspective,org.eclipse.jdt.ui,,"org.eclipse.jdt.ui.JavaPerspective",1334596054387
started,bundle,org.eclipse.osgi,3.6.0.v20100517,"org.eclipse.osgi",1334596054389
started,bundle,org.eclipse.equinox.simpleconfigurator,1.0.200.v20100503,"org.eclipse.equinox.simpleconfigurator",1334596054390
started,bundle,com.ibm.icu,4.2.1.v20100412,"com.ibm.icu",1334596054390
started,bundle,org.eclipse.compare,3.5.100.I20100526-0800,"org.eclipse.compare",1334596054391
started,bundle,org.eclipse.compare.core,3.5.100.I20100526-0800,"org.eclipse.compare.core",1334596054391
started,bundle,org.eclipse.core.contenttype,3.4.100.v20100505-1235,"org.eclipse.core.contenttype",1334596054391
started,bundle,org.eclipse.core.databinding.observable,1.3.0.I20100601-0800,"org.eclipse.core.databinding.observable",1334596054392
started,bundle,org.eclipse.core.expressions,3.4.200.v20100505,"org.eclipse.core.expressions",1334596054393
started,bundle,org.eclipse.core.filebuffers,3.5.100.v20100520-0800,"org.eclipse.core.filebuffers",1334596054393
started,bundle,org.eclipse.core.filesystem,1.3.0.v20100526-0737,"org.eclipse.core.filesystem",1334596054393
started,bundle,org.eclipse.core.net,1.2.100.I20100511-0800,"org.eclipse.core.net",1334596054393
started,bundle,org.eclipse.core.resources,3.6.0.v20100526-0737,"org.eclipse.core.resources",1334596054393
started,bundle,org.eclipse.core.runtime,3.6.0.v20100505,"org.eclipse.core.runtime",1334596054393
started,bundle,org.eclipse.core.runtime.compatibility,3.2.100.v20100505,"org.eclipse.core.runtime.compatibility",1334596054394
started,bundle,org.eclipse.core.runtime.compatibility.auth,3.2.200.v20100517,"org.eclipse.core.runtime.compatibility.auth",1334596054395
started,bundle,org.eclipse.core.variables,3.2.400.v20100505,"org.eclipse.core.variables",1334596054395
started,bundle,org.eclipse.debug.core,3.6.0.v20100519,"org.eclipse.debug.core",1334596054395
started,bundle,org.eclipse.epp.usagedata.gathering,1.3.0.R201005261100,"org.eclipse.epp.usagedata.gathering",1334596054395
started,bundle,org.eclipse.epp.usagedata.recording,1.3.0.R201005261100,"org.eclipse.epp.usagedata.recording",1334596054395
started,bundle,org.eclipse.equinox.app,1.3.0.v20100512,"org.eclipse.equinox.app",1334596054395
started,bundle,org.eclipse.equinox.common,3.6.0.v20100503,"org.eclipse.equinox.common",1334596054396
started,bundle,org.eclipse.equinox.ds,1.2.0.v20100507,"org.eclipse.equinox.ds",1334596054397
started,bundle,org.eclipse.equinox.event,1.2.0.v20100503,"org.eclipse.equinox.event",1334596054398
started,bundle,org.eclipse.equinox.p2.core,2.0.0.v20100510,"org.eclipse.equinox.p2.core",1334596054398
started,bundle,org.eclipse.equinox.p2.directorywatcher,1.0.200.v20100601,"org.eclipse.equinox.p2.directorywatcher",1334596054399
started,bundle,org.eclipse.equinox.p2.engine,2.0.0.v20100606,"org.eclipse.equinox.p2.engine",1334596054399
started,bundle,org.eclipse.equinox.p2.metadata,2.0.0.v20100601,"org.eclipse.equinox.p2.metadata",1334596054399
started,bundle,org.eclipse.equinox.p2.metadata.repository,1.1.0.v20100513,"org.eclipse.equinox.p2.metadata.repository",1334596054400
started,bundle,org.eclipse.equinox.p2.operations,2.0.0.v20100510,"org.eclipse.equinox.p2.operations",1334596054400
started,bundle,org.eclipse.equinox.p2.reconciler.dropins,1.1.0.v20100525,"org.eclipse.equinox.p2.reconciler.dropins",1334596054400
started,bundle,org.eclipse.equinox.p2.repository,2.0.0.v20100519,"org.eclipse.equinox.p2.repository",1334596054401
started,bundle,org.eclipse.equinox.p2.ui.sdk.scheduler,1.0.0.v20100507-1815,"org.eclipse.equinox.p2.ui.sdk.scheduler",1334596054401
started,bundle,org.eclipse.equinox.p2.updatechecker,1.1.100.v20100503a,"org.eclipse.equinox.p2.updatechecker",1334596054401
started,bundle,org.eclipse.equinox.preferences,3.3.0.v20100503,"org.eclipse.equinox.preferences",1334596054401
started,bundle,org.eclipse.equinox.registry,3.5.0.v20100503,"org.eclipse.equinox.registry",1334596054401
started,bundle,org.eclipse.equinox.security,1.0.200.v20100503,"org.eclipse.equinox.security",1334596054401
started,bundle,org.eclipse.equinox.util,1.0.200.v20100503,"org.eclipse.equinox.util",1334596054402
started,bundle,org.eclipse.help,3.5.0.v20100524,"org.eclipse.help",1334596054402
started,bundle,org.eclipse.jdt.apt.core,3.3.400.v20100513-0845,"org.eclipse.jdt.apt.core",1334596054402
started,bundle,org.eclipse.jdt.apt.pluggable.core,1.0.300.v20100513-0845,"org.eclipse.jdt.apt.pluggable.core",1334596054402
started,bundle,org.eclipse.jdt.core,3.6.0.v_A58,"org.eclipse.jdt.core",1334596054403
started,bundle,org.eclipse.jdt.core.manipulation,1.3.0.v20100520-0800,"org.eclipse.jdt.core.manipulation",1334596054403
started,bundle,org.eclipse.jdt.launching,3.5.100.v20100526,"org.eclipse.jdt.launching",1334596054403
started,bundle,org.eclipse.jdt.ui,3.6.0.v20100602-1600,"org.eclipse.jdt.ui",1334596054403
started,bundle,org.eclipse.jface,3.6.0.I20100601-0800,"org.eclipse.jface",1334596054403
started,bundle,org.eclipse.jsch.core,1.1.200.I20100505-1245,"org.eclipse.jsch.core",1334596054403
started,bundle,org.eclipse.ltk.core.refactoring,3.5.100.v20100526-0800,"org.eclipse.ltk.core.refactoring",1334596054403
started,bundle,org.eclipse.ltk.ui.refactoring,3.5.0.v20100526-0800,"org.eclipse.ltk.ui.refactoring",1334596054403
started,bundle,org.eclipse.mylyn.commons.ui,3.4.0.v20100608-0100-e3x,"org.eclipse.mylyn.commons.ui",1334596054404
started,bundle,org.eclipse.mylyn.context.core,3.4.0.v20100608-0100-e3x,"org.eclipse.mylyn.context.core",1334596054404
started,bundle,org.eclipse.mylyn.monitor.ui,3.4.0.v20100608-0100-e3x,"org.eclipse.mylyn.monitor.ui",1334596054404
started,bundle,org.eclipse.mylyn.team.ui,3.4.0.v20100608-0100-e3x,"org.eclipse.mylyn.team.ui",1334596054404
started,bundle,org.eclipse.team.core,3.5.100.I20100527-0800,"org.eclipse.team.core",1334596054404
started,bundle,org.eclipse.team.cvs.core,3.3.300.I20100526-0800,"org.eclipse.team.cvs.core",1334596054404
started,bundle,org.eclipse.team.cvs.ui,3.3.300.I20100526-0800,"org.eclipse.team.cvs.ui",1334596054404
started,bundle,org.eclipse.team.ui,3.5.100.I20100527-0800,"org.eclipse.team.ui",1334596054404
started,bundle,org.eclipse.ui,3.6.0.I20100603-1100,"org.eclipse.ui",1334596054405
started,bundle,org.eclipse.ui.console,3.5.0.v20100526,"org.eclipse.ui.console",1334596054405
started,bundle,org.eclipse.ui.editors,3.6.0.v20100520-0800,"org.eclipse.ui.editors",1334596054405
started,bundle,org.eclipse.ui.forms,3.5.0.v20100427,"org.eclipse.ui.forms",1334596054405
started,bundle,org.eclipse.ui.ide,3.6.0.I20100601-0800,"org.eclipse.ui.ide",1334596054405
started,bundle,org.eclipse.ui.navigator,3.5.0.I20100601-0800,"org.eclipse.ui.navigator",1334596054405
started,bundle,org.eclipse.ui.net,1.2.100.I20100505-1245,"org.eclipse.ui.net",1334596054405
started,bundle,org.eclipse.ui.views,3.5.0.I20100527-0800,"org.eclipse.ui.views",1334596054405
started,bundle,org.eclipse.ui.workbench,3.6.0.I20100603-1100,"org.eclipse.ui.workbench",1334596054405
started,bundle,org.eclipse.ui.workbench.texteditor,3.6.0.v20100520-0800,"org.eclipse.ui.workbench.texteditor",1334596054405
started,bundle,org.eclipse.update.configurator,3.3.100.v20100512,"org.eclipse.update.configurator",1334596054406
started,bundle,org.eclipse.update.core,3.2.400.v20100512,"org.eclipse.update.core",1334596054406
started,bundle,org.eclipse.update.scheduler,3.2.300.v20100512,"org.eclipse.update.scheduler",1334596054406
started,bundle,com.collabnet.subversion.merge,2.1.0,"com.collabnet.subversion.merge",1334596054406
started,bundle,org.eclipse.mylyn.bugzilla.core,3.4.0.v20100730-0100-e3x,"org.eclipse.mylyn.bugzilla.core",1334596054406
started,bundle,org.eclipse.mylyn.bugzilla.ui,3.4.0.v20100730-0100-e3x,"org.eclipse.mylyn.bugzilla.ui",1334596054406
started,bundle,org.eclipse.mylyn.commons.net,3.4.1.v20100625-2100-e3x,"org.eclipse.mylyn.commons.net",1334596054406
started,bundle,org.eclipse.mylyn.context.ui,3.4.0.v20100730-0100-e3x,"org.eclipse.mylyn.context.ui",1334596054406
started,bundle,org.eclipse.mylyn.tasks.ui,3.4.1.v20100730-0100-e3x,"org.eclipse.mylyn.tasks.ui",1334596054406
started,bundle,org.tigris.subversion.clientadapter,1.6.12,"org.tigris.subversion.clientadapter",1334596054406
started,bundle,org.tigris.subversion.subclipse.core,1.6.13,"org.tigris.subversion.subclipse.core",1334596054406
started,bundle,org.tigris.subversion.subclipse.mylyn,3.0.0,"org.tigris.subversion.subclipse.mylyn",1334596054406
started,bundle,org.tigris.subversion.subclipse.ui,1.6.13,"org.tigris.subversion.subclipse.ui",1334596054406
started,bundle,org.eclipse.cdt.codan.core,1.0.0.201006141710,"org.eclipse.cdt.codan.core",1334596054407
started,bundle,org.eclipse.cdt.codan.core.cxx,1.0.0.201006141710,"org.eclipse.cdt.codan.core.cxx",1334596054407
started,bundle,org.eclipse.cdt.codan.ui.cxx,1.0.0.201006141710,"org.eclipse.cdt.codan.ui.cxx",1334596054407
started,bundle,org.eclipse.cdt.core,5.2.0.201006141710,"org.eclipse.cdt.core",1334596054407
started,bundle,org.eclipse.cdt.core.tests,5.1.0.201006141710,"org.eclipse.cdt.core.tests",1334596054407
started,bundle,org.eclipse.cdt.make.core,7.0.0.201006141710,"org.eclipse.cdt.make.core",1334596054407
started,bundle,org.eclipse.cdt.make.ui,7.0.0.201006141710,"org.eclipse.cdt.make.ui",1334596054407
started,bundle,org.eclipse.cdt.managedbuilder.core,7.0.0.201006141710,"org.eclipse.cdt.managedbuilder.core",1334596054407
started,bundle,org.eclipse.cdt.scripting,1.0.0.201006141710,"org.eclipse.cdt.scripting",1334596054407
started,bundle,org.eclipse.cdt.ui,5.2.0.201006141710,"org.eclipse.cdt.ui",1334596054407
started,bundle,org.eclipse.cdt.ui.tests,5.1.0.201006141710,"org.eclipse.cdt.ui.tests",1334596054407
started,bundle,edu.buffalo.cse.jive.console,1.9.1.v20111117b,"edu.buffalo.cse.jive.console",1334596054407
started,bundle,oracle.eclipse.tools.envcheck,3.2.3.201107052022,"oracle.eclipse.tools.envcheck",1334596054408
started,bundle,org.eclipse.core.jobs,3.5.0.v20100515-p002,"org.eclipse.core.jobs",1334596054408
os,sysinfo,,,"linux",1334596054412
arch,sysinfo,,,"x86_64",1334596054412
ws,sysinfo,,,"gtk",1334596054412
locale,sysinfo,,,"en_US",1334596054412
processors,sysinfo,,,"16",1334596054413
java.runtime.name,sysinfo,,,"Java(TM) SE Runtime Environment",1334596054413
java.runtime.version,sysinfo,,,"1.7.0_03-b04",1334596054413
java.specification.name,sysinfo,,,"Java Platform API Specification",1334596054413
java.specification.vendor,sysinfo,,,"Oracle Corporation",1334596054413
java.specification.version,sysinfo,,,"1.7",1334596054413
java.vendor,sysinfo,,,"Oracle Corporation",1334596054413
java.version,sysinfo,,,"1.7.0_03",1334596054413
java.vm.info,sysinfo,,,"mixed mode",1334596054413
java.vm.name,sysinfo,,,"Java HotSpot(TM) 64-Bit Server VM",1334596054413
java.vm.specification.name,sysinfo,,,"Java Virtual Machine Specification",1334596054413
java.vm.specification.vendor,sysinfo,,,"Oracle Corporation",1334596054413
java.vm.specification.version,sysinfo,,,"1.7",1334596054413
java.vm.vendor,sysinfo,,,"Oracle Corporation",1334596054413
java.vm.version,sysinfo,,,"22.1-b02",1334596054413
started,bundle,org.springframework.ide.eclipse.ui,2.7.0.201107040453-RELEASE,"org.springframework.ide.eclipse.ui",1334596054426
started,bundle,org.springframework.ide.eclipse.beans.ui,2.7.0.201107040453-RELEASE,"org.springframework.ide.eclipse.beans.ui",1334596054430
started,bundle,org.springframework.ide.eclipse.core,2.7.0.201107040453-RELEASE,"org.springframework.ide.eclipse.core",1334596054594
started,bundle,org.eclipse.wst.common.project.facet.core,1.4.100.v201005190114,"org.eclipse.wst.common.project.facet.core",1334596054611
started,bundle,org.springframework.ide.eclipse.beans.core,2.7.0.201107040453-RELEASE,"org.springframework.ide.eclipse.beans.core",1334596054622
started,bundle,org.eclipse.team.cvs.ssh2,3.2.300.I20100526-0800,"org.eclipse.team.cvs.ssh2",1334596054841
activated,editor,org.eclipse.jdt.ui,3.6.0.v20100602-1600,"org.eclipse.jdt.ui.CompilationUnitEditor",1334596070124
started,bundle,org.eclipse.debug.ui,3.6.0.v20100601-1530,"org.eclipse.debug.ui",1334596170332
started,bundle,org.eclipse.cdt.debug.core,7.0.0.201006141710,"org.eclipse.cdt.debug.core",1334596170801
started,bundle,org.eclipse.cdt.debug.ui,7.0.0.201006141710,"org.eclipse.cdt.debug.ui",1334596170810
started,bundle,org.eclipse.jdt.debug,3.6.0.v20100526,"org.eclipse.jdt.debug",1334596170849
started,bundle,org.eclipse.jdt.debug.ui,3.5.0.v20100602-0830,"org.eclipse.jdt.debug.ui",1334596170922
started,bundle,org.python.pydev.core,2.1.0.2011052613,"org.python.pydev.core",1334596171712
started,bundle,org.python.pydev.debug,2.1.0.2011052613,"org.python.pydev.debug",1334596171714
started,bundle,org.eclipse.cdt.debug.mi.ui,6.1.0.201006141710,"org.eclipse.cdt.debug.mi.ui",1334596172458
started,bundle,org.eclipse.cdt.dsf,2.1.0.201006141710,"org.eclipse.cdt.dsf",1334596172471
started,bundle,org.eclipse.cdt.dsf.gdb,3.0.0.201006141710,"org.eclipse.cdt.dsf.gdb",1334596172472
started,bundle,org.eclipse.cdt.dsf.gdb.ui,2.1.0.201006141710,"org.eclipse.cdt.dsf.gdb.ui",1334596172472
started,bundle,com.python.pydev.analysis,2.1.0.2011052613,"com.python.pydev.analysis",1334596172575
started,bundle,org.python.pydev,2.1.0.2011052613,"org.python.pydev",1334596172615
started,bundle,org.eclipse.cdt.debug.mi.core,7.0.0.201006141710,"org.eclipse.cdt.debug.mi.core",1334596172636
error,log,,,"Server returned HTTP response code: 500 for URL: https://ping.aptana.com/ping.php",1334596173419
deactivated,workbench,org.eclipse.ui.workbench,3.6.0.I20100603-1100,"",1334596174942
activated,workbench,org.eclipse.ui.workbench,3.6.0.I20100603-1100,"",1334596190600
deactivated,workbench,org.eclipse.ui.workbench,3.6.0.I20100603-1100,"",1334596194223
activated,workbench,org.eclipse.ui.workbench,3.6.0.I20100603-1100,"",1334596201866
started,bundle,org.eclipse.draw2d,3.6.0.v20100525-1225,"org.eclipse.draw2d",1334596276577
started,bundle,edu.buffalo.cse.jive.ui,1.9.1.v20111117b,"edu.buffalo.cse.jive.ui",1334596276584
started,bundle,org.eclipse.gef,3.6.0.v20100525-1225,"org.eclipse.gef",1334596277219
started,bundle,edu.buffalo.cse.jive.debug,1.9.1.v20111117b,"edu.buffalo.cse.jive.debug",1334596278581
opened,view,edu.buffalo.cse.jive.ui,1.9.1.v20111117b,"edu.buffalo.cse.jive.ui.contourDiagramView",1334596278603
opened,view,edu.buffalo.cse.jive.ui,1.9.1.v20111117b,"edu.buffalo.cse.jive.ui.sequenceDiagramView",1334596279560
started,bundle,org.eclipse.cdt.dsf.ui,2.1.0.201006141710,"org.eclipse.cdt.dsf.ui",1334596280616
opened,view,org.eclipse.debug.ui,3.6.0.v20100601-1530,"org.eclipse.debug.ui.DebugView",1334596281311
activated,perspective,edu.buffalo.cse.jive.ui,1.9.1.v20111117b,"edu.buffalo.cse.jive.ui.jivePerspective",1334596283717
executed,command,org.eclipse.ui,3.6.0.I20100603-1100,"org.eclipse.ui.perspectives.showPerspective",1334596283723
executed,command,,,"edu.buffalo.cse.jive.ui.jivePerspective",1334596283723
deactivated,workbench,org.eclipse.ui.workbench,3.6.0.I20100603-1100,"",1334596296720
activated,workbench,org.eclipse.ui.workbench,3.6.0.I20100603-1100,"",1334596300993
activated,view,org.eclipse.debug.ui,3.6.0.v20100601-1530,"org.eclipse.debug.ui.DebugView",1334596312004
deactivated,workbench,org.eclipse.ui.workbench,3.6.0.I20100603-1100,"",1334596322519
activated,workbench,org.eclipse.ui.workbench,3.6.0.I20100603-1100,"",1334596325924
opened,view,edu.buffalo.cse.jive.ui,1.9.1.v20111117b,"edu.buffalo.cse.jive.ui.contourModelView",1334596326852
activated,view,edu.buffalo.cse.jive.ui,1.9.1.v20111117b,"edu.buffalo.cse.jive.ui.contourModelView",1334596327151
activated,view,edu.buffalo.cse.jive.ui,1.9.1.v20111117b,"edu.buffalo.cse.jive.ui.contourDiagramView",1334596331639
deactivated,workbench,org.eclipse.ui.workbench,3.6.0.I20100603-1100,"",1334596334139
activated,workbench,org.eclipse.ui.workbench,3.6.0.I20100603-1100,"",1334596336020
deactivated,workbench,org.eclipse.ui.workbench,3.6.0.I20100603-1100,"",1334596337261
activated,workbench,org.eclipse.ui.workbench,3.6.0.I20100603-1100,"",1334596337872
deactivated,workbench,org.eclipse.ui.workbench,3.6.0.I20100603-1100,"",1334596337877
activated,workbench,org.eclipse.ui.workbench,3.6.0.I20100603-1100,"",1334596337887
deactivated,workbench,org.eclipse.ui.workbench,3.6.0.I20100603-1100,"",1334596354075
activated,workbench,org.eclipse.ui.workbench,3.6.0.I20100603-1100,"",1334596362334
activated,perspective,org.eclipse.jdt.ui,3.6.0.v20100602-1600,"org.eclipse.jdt.ui.JavaPerspective",1334596368393
activated,editor,org.eclipse.jdt.ui,3.6.0.v20100602-1600,"org.eclipse.jdt.ui.CompilationUnitEditor",1334596369074
executed,command,org.eclipse.ui,3.6.0.I20100603-1100,"org.eclipse.ui.perspectives.showPerspective",1334596369307
executed,command,org.eclipse.jdt.ui,3.6.0.v20100602-1600,"org.eclipse.jdt.ui.JavaPerspective",1334596369307
activated,view,org.eclipse.jdt.ui,3.6.0.v20100602-1600,"org.eclipse.jdt.ui.PackageExplorer",1334596439571
opened,editor,org.eclipse.jdt.ui,3.6.0.v20100602-1600,"org.eclipse.jdt.ui.CompilationUnitEditor",1334596440909
activated,editor,org.eclipse.jdt.ui,3.6.0.v20100602-1600,"org.eclipse.jdt.ui.CompilationUnitEditor",1334596442418
activated,view,org.eclipse.jdt.ui,3.6.0.v20100602-1600,"org.eclipse.jdt.ui.PackageExplorer",1334596445504
opened,editor,org.eclipse.jdt.ui,3.6.0.v20100602-1600,"org.eclipse.jdt.ui.CompilationUnitEditor",1334596446959
activated,editor,org.eclipse.jdt.ui,3.6.0.v20100602-1600,"org.eclipse.jdt.ui.CompilationUnitEditor",1334596447932
activated,view,org.eclipse.jdt.ui,3.6.0.v20100602-1600,"org.eclipse.jdt.ui.PackageExplorer",1334596448823
opened,editor,org.eclipse.jdt.ui,3.6.0.v20100602-1600,"org.eclipse.jdt.ui.CompilationUnitEditor",1334596451670
activated,editor,org.eclipse.jdt.ui,3.6.0.v20100602-1600,"org.eclipse.jdt.ui.CompilationUnitEditor",1334596452992
started,bundle,org.eclipse.jdt.junit,3.6.0.v20100526-0800,"org.eclipse.jdt.junit",1334596453427
activated,view,org.eclipse.jdt.ui,3.6.0.v20100602-1600,"org.eclipse.jdt.ui.PackageExplorer",1334596471326
opened,editor,org.eclipse.jdt.ui,3.6.0.v20100602-1600,"org.eclipse.jdt.ui.CompilationUnitEditor",1334596472782
activated,editor,org.eclipse.jdt.ui,3.6.0.v20100602-1600,"org.eclipse.jdt.ui.CompilationUnitEditor",1334596473795
activated,view,org.eclipse.jdt.ui,3.6.0.v20100602-1600,"org.eclipse.jdt.ui.PackageExplorer",1334596489191
opened,editor,org.eclipse.jdt.ui,3.6.0.v20100602-1600,"org.eclipse.jdt.ui.CompilationUnitEditor",1334596490414
activated,editor,org.eclipse.jdt.ui,3.6.0.v20100602-1600,"org.eclipse.jdt.ui.CompilationUnitEditor",1334596491383
deactivated,workbench,org.eclipse.ui.workbench,3.6.0.I20100603-1100,"",1334596505418
activated,workbench,org.eclipse.ui.workbench,3.6.0.I20100603-1100,"",1334596509981
deactivated,workbench,org.eclipse.ui.workbench,3.6.0.I20100603-1100,"",1334596519798
activated,workbench,org.eclipse.ui.workbench,3.6.0.I20100603-1100,"",1334596523892
opened,view,org.eclipse.ui.ide,3.6.0.I20100601-0800,"org.eclipse.ui.views.ProblemView",1334596530632
executed,command,org.eclipse.ui,3.6.0.I20100603-1100,"org.eclipse.ui.edit.undo",1334596550254
executed,command,org.eclipse.ui,3.6.0.I20100603-1100,"org.eclipse.ui.edit.undo",1334596551143
executed,command,org.eclipse.ui,3.6.0.I20100603-1100,"org.eclipse.ui.edit.undo",1334596552295
executed,command,org.eclipse.ui,3.6.0.I20100603-1100,"org.eclipse.ui.edit.undo",1334596553765
activated,editor,org.eclipse.jdt.ui,3.6.0.v20100602-1600,"org.eclipse.jdt.ui.CompilationUnitEditor",1334596569635
deactivated,workbench,org.eclipse.ui.workbench,3.6.0.I20100603-1100,"",1334596695325
activated,workbench,org.eclipse.ui.workbench,3.6.0.I20100603-1100,"",1334596702660
activated,editor,org.eclipse.jdt.ui,3.6.0.v20100602-1600,"org.eclipse.jdt.ui.CompilationUnitEditor",1334596706705
deactivated,workbench,org.eclipse.ui.workbench,3.6.0.I20100603-1100,"",1334596711279
activated,workbench,org.eclipse.ui.workbench,3.6.0.I20100603-1100,"",1334596713245
activated,editor,org.eclipse.jdt.ui,3.6.0.v20100602-1600,"org.eclipse.jdt.ui.CompilationUnitEditor",1334596713658
deactivated,workbench,org.eclipse.ui.workbench,3.6.0.I20100603-1100,"",1334596716174
activated,workbench,org.eclipse.ui.workbench,3.6.0.I20100603-1100,"",1334596725983
deactivated,workbench,org.eclipse.ui.workbench,3.6.0.I20100603-1100,"",1334596746765
activated,workbench,org.eclipse.ui.workbench,3.6.0.I20100603-1100,"",1334596753503
deactivated,workbench,org.eclipse.ui.workbench,3.6.0.I20100603-1100,"",1334596767401
activated,workbench,org.eclipse.ui.workbench,3.6.0.I20100603-1100,"",1334596775375
executed,command,org.eclipse.ui,3.6.0.I20100603-1100,"org.eclipse.ui.edit.undo",1334596849575
executed,command,org.eclipse.ui,3.6.0.I20100603-1100,"org.eclipse.ui.edit.copy",1334596876233
executed,command,org.eclipse.ui,3.6.0.I20100603-1100,"org.eclipse.ui.edit.paste",1334596878514
deactivated,workbench,org.eclipse.ui.workbench,3.6.0.I20100603-1100,"",1334596908655
activated,workbench,org.eclipse.ui.workbench,3.6.0.I20100603-1100,"",1334596913875
deactivated,workbench,org.eclipse.ui.workbench,3.6.0.I20100603-1100,"",1334596918174
activated,workbench,org.eclipse.ui.workbench,3.6.0.I20100603-1100,"",1334596918499
deactivated,workbench,org.eclipse.ui.workbench,3.6.0.I20100603-1100,"",1334596923665
activated,workbench,org.eclipse.ui.workbench,3.6.0.I20100603-1100,"",1334596938622
executed,command,org.eclipse.ui,3.6.0.I20100603-1100,"org.eclipse.ui.edit.cut",1334597062933
executed,command,org.eclipse.ui,3.6.0.I20100603-1100,"org.eclipse.ui.edit.paste",1334597067675
deactivated,workbench,org.eclipse.ui.workbench,3.6.0.I20100603-1100,"",1334597071374
activated,workbench,org.eclipse.ui.workbench,3.6.0.I20100603-1100,"",1334597075585
executed,command,,,"AUTOGEN:::org.eclipse.jdt.internal.ui.CompilationUnitEditor.ruler.actions/org.eclipse.jdt.internal.ui.javaeditor.JavaSelectRulerAction",1334597075932
deactivated,workbench,org.eclipse.ui.workbench,3.6.0.I20100603-1100,"",1334597076028
activated,workbench,org.eclipse.ui.workbench,3.6.0.I20100603-1100,"",1334597077696
deactivated,workbench,org.eclipse.ui.workbench,3.6.0.I20100603-1100,"",1334597081606
activated,workbench,org.eclipse.ui.workbench,3.6.0.I20100603-1100,"",1334597086455
deactivated,workbench,org.eclipse.ui.workbench,3.6.0.I20100603-1100,"",1334597091113
activated,workbench,org.eclipse.ui.workbench,3.6.0.I20100603-1100,"",1334597095436
deactivated,workbench,org.eclipse.ui.workbench,3.6.0.I20100603-1100,"",1334597099265
activated,workbench,org.eclipse.ui.workbench,3.6.0.I20100603-1100,"",1334597106711
deactivated,workbench,org.eclipse.ui.workbench,3.6.0.I20100603-1100,"",1334597112651
activated,workbench,org.eclipse.ui.workbench,3.6.0.I20100603-1100,"",1334597116140
deactivated,workbench,org.eclipse.ui.workbench,3.6.0.I20100603-1100,"",1334597139978
activated,workbench,org.eclipse.ui.workbench,3.6.0.I20100603-1100,"",1334597150515
executed,command,org.eclipse.ui,3.6.0.I20100603-1100,"org.eclipse.ui.edit.copy",1334597273410
started,bundle,org.eclipse.mylyn.java.tasks,3.4.0.v20100608-0100-e3x,"org.eclipse.mylyn.java.tasks",1334597273476
started,bundle,org.tigris.subversion.clientadapter.javahl,1.6.12,"org.tigris.subversion.clientadapter.javahl",1334597273492
started,bundle,org.tigris.subversion.clientadapter.svnkit,1.6.12,"org.tigris.subversion.clientadapter.svnkit",1334597273495
deactivated,workbench,org.eclipse.ui.workbench,3.6.0.I20100603-1100,"",1334597277040
started,bundle,org.tmatesoft.svnkit,1.3.3.6648,"org.tmatesoft.svnkit",1334597282609
started,bundle,com.sun.jna,3.2.3,"com.sun.jna",1334597283132
activated,workbench,org.eclipse.ui.workbench,3.6.0.I20100603-1100,"",1334597285536
executed,command,org.eclipse.ui,3.6.0.I20100603-1100,"org.eclipse.ui.edit.copy",1334597285631
executed,command,org.eclipse.ui,3.6.0.I20100603-1100,"org.eclipse.ui.edit.paste",1334597287960
deactivated,workbench,org.eclipse.ui.workbench,3.6.0.I20100603-1100,"",1334597298322
activated,workbench,org.eclipse.ui.workbench,3.6.0.I20100603-1100,"",1334597303007
deactivated,workbench,org.eclipse.ui.workbench,3.6.0.I20100603-1100,"",1334597308027
activated,workbench,org.eclipse.ui.workbench,3.6.0.I20100603-1100,"",1334597319827
deactivated,workbench,org.eclipse.ui.workbench,3.6.0.I20100603-1100,"",1334597455351
activated,workbench,org.eclipse.ui.workbench,3.6.0.I20100603-1100,"",1334597461148
