what,kind,bundleId,bundleVersion,description,time
deactivated,workbench,org.eclipse.ui.workbench,3.6.0.I20100603-1100,"",1335573056294
activated,workbench,org.eclipse.ui.workbench,3.6.0.I20100603-1100,"",1335573058433
deactivated,workbench,org.eclipse.ui.workbench,3.6.0.I20100603-1100,"",1335573059238
closed,workbench,org.eclipse.ui.workbench,3.6.0.I20100603-1100,"",1335573065567
stopped,bundle,org.eclipse.mylyn.ide.ant,3.4.0.v20100608-0100-e3x,"org.eclipse.mylyn.ide.ant",1335573070687
stopped,bundle,org.eclipse.ant.ui,3.5.0.v20100427,"org.eclipse.ant.ui",1335573070688
stopped,bundle,org.eclipse.ant.launching,1.0.0.v20100427,"org.eclipse.ant.launching",1335573070690
stopped,bundle,org.eclipse.equinox.p2.ui.sdk,1.0.100.v20100513,"org.eclipse.equinox.p2.ui.sdk",1335573070691
stopped,bundle,org.eclipse.mylyn.java.tasks,3.4.0.v20100608-0100-e3x,"org.eclipse.mylyn.java.tasks",1335573070692
stopped,bundle,org.eclipse.mylyn.java.ui,3.4.0.v20100608-0100-e3x,"org.eclipse.mylyn.java.ui",1335573070692
stopped,bundle,edu.buffalo.cse.jive.launching,1.9.1.v20111117b,"edu.buffalo.cse.jive.launching",1335573070693
stopped,bundle,edu.buffalo.cse.jive.console,1.9.1.v20111117b,"edu.buffalo.cse.jive.console",1335573070693
stopped,bundle,edu.buffalo.cse.jive.ui,1.9.1.v20111117b,"edu.buffalo.cse.jive.ui",1335573070700
stopped,bundle,org.eclipse.jdt.junit,3.6.0.v20100526-0800,"org.eclipse.jdt.junit",1335573070700
stopped,bundle,org.eclipse.jdt.apt.ui,3.3.300.v20100513-0845,"org.eclipse.jdt.apt.ui",1335573070702
stopped,bundle,edu.rice.cs.drjava,0.9.8,"edu.rice.cs.drjava",1335573070704
stopped,bundle,oracle.eclipse.tools.envcheck,3.2.3.201107052022,"oracle.eclipse.tools.envcheck",1335573070705
stopped,bundle,org.eclipse.jdt.debug.ui,3.5.0.v20100602-0830,"org.eclipse.jdt.debug.ui",1335573070785
stopped,bundle,edu.buffalo.cse.green.relationship.association,3.5.0,"edu.buffalo.cse.green.relationship.association",1335573070791
stopped,bundle,edu.buffalo.cse.green.relationship.composition,3.5.0,"edu.buffalo.cse.green.relationship.composition",1335573070794
stopped,bundle,edu.buffalo.cse.green.relationship.dependency,3.5.0,"edu.buffalo.cse.green.relationship.dependency",1335573070796
stopped,bundle,edu.buffalo.cse.green.relationship.generalization,3.5.0,"edu.buffalo.cse.green.relationship.generalization",1335573070799
stopped,bundle,edu.buffalo.cse.green.relationship.realization,3.5.0,"edu.buffalo.cse.green.relationship.realization",1335573070801
stopped,bundle,edu.buffalo.cse.green.save.svg,3.5.0,"edu.buffalo.cse.green.save.svg",1335573070804
stopped,bundle,edu.buffalo.cse.green,3.5.0,"edu.buffalo.cse.green",1335573070807
stopped,bundle,org.eclipse.gmf.bridge,1.1.100.v20100309-2359,"org.eclipse.gmf.bridge",1335573070809
stopped,bundle,org.eclipse.gmf.codegen.edit,2.2.100.v20100309-2359,"org.eclipse.gmf.codegen.edit",1335573070813
stopped,bundle,org.eclipse.gmf.codegen,2.2.100.v20100518-2359,"org.eclipse.gmf.codegen",1335573070815
stopped,bundle,org.eclipse.gmf.graphdef.codegen,2.0.100.v20100421-2359,"org.eclipse.gmf.graphdef.codegen",1335573070816
stopped,bundle,org.eclipse.gmf.map.edit,2.2.100.v20100309-2359,"org.eclipse.gmf.map.edit",1335573070818
stopped,bundle,org.eclipse.gmf.graphdef.edit,2.0.200.v20090216-1925,"org.eclipse.gmf.graphdef.edit",1335573070821
stopped,bundle,org.eclipse.gmf.map,2.2.100.v20100309-2359,"org.eclipse.gmf.map",1335573070822
stopped,bundle,org.eclipse.gmf.tooldef.edit,2.0.100.v20090114-0940,"org.eclipse.gmf.tooldef.edit",1335573070824
stopped,bundle,org.eclipse.gmf.tooldef,2.0.0.v20090114-0940,"org.eclipse.gmf.tooldef",1335573070826
stopped,bundle,org.eclipse.gmf.common,1.2.0.v20100226-2359,"org.eclipse.gmf.common",1335573070828
stopped,bundle,com.collabnet.subversion.merge,2.1.0,"com.collabnet.subversion.merge",1335573070828
stopped,bundle,org.tigris.subversion.subclipse.graph,1.0.8,"org.tigris.subversion.subclipse.graph",1335573070829
stopped,bundle,org.tigris.subversion.subclipse.mylyn,3.0.0,"org.tigris.subversion.subclipse.mylyn",1335573070829
stopped,bundle,org.tigris.subversion.subclipse.ui,1.6.13,"org.tigris.subversion.subclipse.ui",1335573070829
stopped,bundle,com.python.pydev.codecompletion,2.1.0.2011052613,"com.python.pydev.codecompletion",1335573070832
stopped,bundle,com.python.pydev.refactoring,2.1.0.2011052613,"com.python.pydev.refactoring",1335573070835
stopped,bundle,org.eclipse.pde.runtime,3.4.200.v20100601,"org.eclipse.pde.runtime",1335573070837
stopped,bundle,com.python.pydev.analysis,2.1.0.2011052613,"com.python.pydev.analysis",1335573070837
stopped,bundle,com.python.pydev.debug,2.1.0.2011052613,"com.python.pydev.debug",1335573070839
stopped,bundle,com.python.pydev.fastparser,2.1.0.2011052613,"com.python.pydev.fastparser",1335573070842
stopped,bundle,com.python.pydev,2.1.0.2011052613,"com.python.pydev",1335573070845
stopped,bundle,org.python.pydev.django,2.1.0.2011052613,"org.python.pydev.django",1335573070848
stopped,bundle,org.python.pydev.customizations,2.1.0.2011052613,"org.python.pydev.customizations",1335573070851
stopped,bundle,org.python.pydev.red_core,2.1.0.2011052613,"org.python.pydev.red_core",1335573070854
stopped,bundle,org.python.pydev.debug,2.1.0.2011052613,"org.python.pydev.debug",1335573070854
stopped,bundle,org.python.pydev.refactoring,2.1.0.2011052613,"org.python.pydev.refactoring",1335573070858
stopped,bundle,org.python.pydev,2.1.0.2011052613,"org.python.pydev",1335573070874
stopped,bundle,org.springframework.ide.eclipse.beans.ui.refactoring,2.7.0.201107040453-RELEASE,"org.springframework.ide.eclipse.beans.ui.refactoring",1335573070878
stopped,bundle,org.springframework.ide.eclipse.beans.ui.editor,2.7.0.201107040453-RELEASE,"org.springframework.ide.eclipse.beans.ui.editor",1335573070879
stopped,bundle,org.springframework.ide.eclipse.beans.ui.graph,2.7.0.201107040453-RELEASE,"org.springframework.ide.eclipse.beans.ui.graph",1335573070881
stopped,bundle,org.springframework.ide.eclipse.beans.ui.search,2.7.0.201107040453-RELEASE,"org.springframework.ide.eclipse.beans.ui.search",1335573070883
stopped,bundle,org.springframework.ide.eclipse.beans.ui,2.7.0.201107040453-RELEASE,"org.springframework.ide.eclipse.beans.ui",1335573070883
stopped,bundle,org.springframework.ide.eclipse.ui,2.7.0.201107040453-RELEASE,"org.springframework.ide.eclipse.ui",1335573070883
stopped,bundle,org.eclipse.jdt.ui,3.6.0.v20100602-1600,"org.eclipse.jdt.ui",1335573071610
stopped,bundle,org.eclipse.wst.dtd.ui,1.0.500.v201004290328,"org.eclipse.wst.dtd.ui",1335573071611
stopped,bundle,org.eclipse.wst.xsd.ui,1.2.303.v201004290328,"org.eclipse.wst.xsd.ui",1335573071616
stopped,bundle,org.eclipse.wst.xml.ui,1.1.100.v201006030742,"org.eclipse.wst.xml.ui",1335573071617
stopped,bundle,org.eclipse.wst.common.ui,1.1.500.v200911190730,"org.eclipse.wst.common.ui",1335573071619
stopped,bundle,org.eclipse.wst.sse.ui,1.2.0.v201006030742,"org.eclipse.wst.sse.ui",1335573071622
stopped,bundle,org.eclipse.cdt.debug.ui.memory.search,1.2.0.201006141710,"org.eclipse.cdt.debug.ui.memory.search",1335573071623
stopped,bundle,org.eclipse.cdt.debug.ui.memory.traditional,1.2.0.201006141710,"org.eclipse.cdt.debug.ui.memory.traditional",1335573071625
stopped,bundle,org.eclipse.cdt.codan.checkers.ui,1.0.0.201006141710,"org.eclipse.cdt.codan.checkers.ui",1335573071626
stopped,bundle,org.eclipse.cdt.codan.ui.cxx,1.0.0.201006141710,"org.eclipse.cdt.codan.ui.cxx",1335573071626
stopped,bundle,org.eclipse.cdt.codan.ui,1.0.0.201006141710,"org.eclipse.cdt.codan.ui",1335573071628
stopped,bundle,org.eclipse.cdt.core.lrparser.xlc,1.0.0.201006141710,"org.eclipse.cdt.core.lrparser.xlc",1335573071629
stopped,bundle,org.eclipse.cdt.debug.edc.linux.x86,1.0.0.201006141710,"org.eclipse.cdt.debug.edc.linux.x86",1335573071632
stopped,bundle,org.eclipse.cdt.debug.edc.windows.ui,1.0.0.201006141710,"org.eclipse.cdt.debug.edc.windows.ui",1335573071633
stopped,bundle,org.eclipse.cdt.debug.edc.windows,1.0.0.201006141710,"org.eclipse.cdt.debug.edc.windows",1335573071636
stopped,bundle,org.eclipse.cdt.debug.edc.ui,1.0.0.201006141710,"org.eclipse.cdt.debug.edc.ui",1335573071637
stopped,bundle,org.eclipse.cdt.launch.remote,2.2.0.201006141710,"org.eclipse.cdt.launch.remote",1335573071639
stopped,bundle,org.eclipse.cdt.debug.mi.ui,6.1.0.201006141710,"org.eclipse.cdt.debug.mi.ui",1335573071639
stopped,bundle,org.eclipse.cdt.debug.ui.memory.memorybrowser,1.2.0.201006141710,"org.eclipse.cdt.debug.ui.memory.memorybrowser",1335573071640
stopped,bundle,org.eclipse.cdt.debug.gdbjtag.ui,7.0.0.201006141710,"org.eclipse.cdt.debug.gdbjtag.ui",1335573071645
stopped,bundle,org.eclipse.cdt.dsf.gdb.ui,2.1.0.201006141710,"org.eclipse.cdt.dsf.gdb.ui",1335573071645
stopped,bundle,org.eclipse.cdt.examples.dsf,2.1.0.201006141710,"org.eclipse.cdt.examples.dsf",1335573071646
stopped,bundle,org.eclipse.cdt.examples.dsf.pda.ui,2.1.0.201006141710,"org.eclipse.cdt.examples.dsf.pda.ui",1335573071648
stopped,bundle,org.eclipse.cdt.dsf.ui,2.1.0.201006141710,"org.eclipse.cdt.dsf.ui",1335573071648
stopped,bundle,org.eclipse.cdt.gdb.ui,7.0.0.201006141710,"org.eclipse.cdt.gdb.ui",1335573071652
stopped,bundle,org.eclipse.cdt.debug.edc.x86,1.0.0.201006141710,"org.eclipse.cdt.debug.edc.x86",1335573071654
stopped,bundle,org.eclipse.cdt.debug.edc,1.0.0.201006141710,"org.eclipse.cdt.debug.edc",1335573071656
stopped,bundle,org.eclipse.cdt.debug.gdbjtag.core,7.0.0.201006141710,"org.eclipse.cdt.debug.gdbjtag.core",1335573071657
stopped,bundle,org.eclipse.cdt.dsf.gdb,3.0.0.201006141710,"org.eclipse.cdt.dsf.gdb",1335573071657
stopped,bundle,org.eclipse.cdt.launch,6.1.0.201006141710,"org.eclipse.cdt.launch",1335573071661
stopped,bundle,org.eclipse.cdt.debug.ui,7.0.0.201006141710,"org.eclipse.cdt.debug.ui",1335573071661
stopped,bundle,org.eclipse.cdt.managedbuilder.ui.tests,7.0.0.201006141710,"org.eclipse.cdt.managedbuilder.ui.tests",1335573071664
stopped,bundle,org.eclipse.cdt.managedbuilder.xlupc.ui,1.1.0.201006141710,"org.eclipse.cdt.managedbuilder.xlupc.ui",1335573071666
stopped,bundle,org.eclipse.cdt.managedbuilder.xlc.ui,6.1.0.201006141710,"org.eclipse.cdt.managedbuilder.xlc.ui",1335573071668
stopped,bundle,org.eclipse.cdt.managedbuilder.ui,7.0.0.201006141710,"org.eclipse.cdt.managedbuilder.ui",1335573071670
stopped,bundle,org.eclipse.cdt.make.ui,7.0.0.201006141710,"org.eclipse.cdt.make.ui",1335573071670
stopped,bundle,org.eclipse.cdt.managedbuilder.bupc.ui,1.0.3.201006141710,"org.eclipse.cdt.managedbuilder.bupc.ui",1335573071674
stopped,bundle,org.eclipse.cdt.ui.tests,5.1.0.201006141710,"org.eclipse.cdt.ui.tests",1335573071674
stopped,bundle,org.eclipse.cdt.ui,5.2.0.201006141710,"org.eclipse.cdt.ui",1335573071674
stopped,bundle,org.eclipse.rse.files.ui,3.1.100.v201005221100,"org.eclipse.rse.files.ui",1335573071676
stopped,bundle,org.eclipse.search,3.6.0.v20100520-0800,"org.eclipse.search",1335573071677
stopped,bundle,org.eclipse.mylyn.team.ui,3.4.0.v20100608-0100-e3x,"org.eclipse.mylyn.team.ui",1335573071677
stopped,bundle,org.eclipse.gmf.ecore.editor,2.2.0.v20100315-2359,"org.eclipse.gmf.ecore.editor",1335573071680
stopped,bundle,org.eclipse.ui.navigator.resources,3.4.200.I20100601-0800,"org.eclipse.ui.navigator.resources",1335573071681
stopped,bundle,org.eclipse.ltk.ui.refactoring,3.5.0.v20100526-0800,"org.eclipse.ltk.ui.refactoring",1335573071681
stopped,bundle,org.eclipse.team.cvs.ui,3.3.300.I20100526-0800,"org.eclipse.team.cvs.ui",1335573071870
stopped,bundle,org.eclipse.team.ui,3.5.100.I20100527-0800,"org.eclipse.team.ui",1335573071870
stopped,bundle,org.eclipse.mylyn.bugzilla.ui,3.4.0.v20100730-0100-e3x,"org.eclipse.mylyn.bugzilla.ui",1335573071870
stopped,bundle,org.eclipse.mylyn.ide.ui,3.4.0.v20100608-0100-e3x,"org.eclipse.mylyn.ide.ui",1335573071871
stopped,bundle,org.eclipse.mylyn.resources.ui,3.4.0.v20100730-0100-e3x,"org.eclipse.mylyn.resources.ui",1335573071873
stopped,bundle,org.eclipse.mylyn.wikitext.tasks.ui,1.3.0.v20100608-0100-e3x,"org.eclipse.mylyn.wikitext.tasks.ui",1335573071874
stopped,bundle,org.eclipse.mylyn.context.ui,3.4.0.v20100730-0100-e3x,"org.eclipse.mylyn.context.ui",1335573071874
stopped,bundle,org.eclipse.mylyn.help.ui,3.4.0.v20100730-0100-e3x,"org.eclipse.mylyn.help.ui",1335573071876
stopped,bundle,org.eclipse.mylyn.tasks.bugs,3.4.0.v20100804-0100-e3x,"org.eclipse.mylyn.tasks.bugs",1335573071878
stopped,bundle,org.eclipse.mylyn.tasks.ui,3.4.1.v20100730-0100-e3x,"org.eclipse.mylyn.tasks.ui",1335573071879
stopped,bundle,org.eclipse.compare,3.5.100.I20100526-0800,"org.eclipse.compare",1335573071879
stopped,bundle,org.eclipse.ui.externaltools,3.2.0.v20100427,"org.eclipse.ui.externaltools",1335573071881
activated,perspective,org.eclipse.jdt.ui,,"org.eclipse.jdt.ui.JavaPerspective",1335573139243
started,bundle,org.eclipse.osgi,3.6.0.v20100517,"org.eclipse.osgi",1335573139245
started,bundle,org.eclipse.equinox.simpleconfigurator,1.0.200.v20100503,"org.eclipse.equinox.simpleconfigurator",1335573139246
started,bundle,com.ibm.icu,4.2.1.v20100412,"com.ibm.icu",1335573139246
started,bundle,org.eclipse.compare,3.5.100.I20100526-0800,"org.eclipse.compare",1335573139248
started,bundle,org.eclipse.compare.core,3.5.100.I20100526-0800,"org.eclipse.compare.core",1335573139249
started,bundle,org.eclipse.core.contenttype,3.4.100.v20100505-1235,"org.eclipse.core.contenttype",1335573139250
started,bundle,org.eclipse.core.databinding.observable,1.3.0.I20100601-0800,"org.eclipse.core.databinding.observable",1335573139251
started,bundle,org.eclipse.core.expressions,3.4.200.v20100505,"org.eclipse.core.expressions",1335573139251
started,bundle,org.eclipse.core.filebuffers,3.5.100.v20100520-0800,"org.eclipse.core.filebuffers",1335573139252
started,bundle,org.eclipse.core.filesystem,1.3.0.v20100526-0737,"org.eclipse.core.filesystem",1335573139254
started,bundle,org.eclipse.core.net,1.2.100.I20100511-0800,"org.eclipse.core.net",1335573139255
started,bundle,org.eclipse.core.resources,3.6.0.v20100526-0737,"org.eclipse.core.resources",1335573139255
started,bundle,org.eclipse.core.runtime,3.6.0.v20100505,"org.eclipse.core.runtime",1335573139256
started,bundle,org.eclipse.core.runtime.compatibility,3.2.100.v20100505,"org.eclipse.core.runtime.compatibility",1335573139257
started,bundle,org.eclipse.core.runtime.compatibility.auth,3.2.200.v20100517,"org.eclipse.core.runtime.compatibility.auth",1335573139258
started,bundle,org.eclipse.core.variables,3.2.400.v20100505,"org.eclipse.core.variables",1335573139259
started,bundle,org.eclipse.debug.core,3.6.0.v20100519,"org.eclipse.debug.core",1335573139261
started,bundle,org.eclipse.epp.usagedata.gathering,1.3.0.R201005261100,"org.eclipse.epp.usagedata.gathering",1335573139261
started,bundle,org.eclipse.epp.usagedata.recording,1.3.0.R201005261100,"org.eclipse.epp.usagedata.recording",1335573139262
started,bundle,org.eclipse.equinox.app,1.3.0.v20100512,"org.eclipse.equinox.app",1335573139263
started,bundle,org.eclipse.equinox.common,3.6.0.v20100503,"org.eclipse.equinox.common",1335573139264
started,bundle,org.eclipse.equinox.ds,1.2.0.v20100507,"org.eclipse.equinox.ds",1335573139265
started,bundle,org.eclipse.equinox.event,1.2.0.v20100503,"org.eclipse.equinox.event",1335573139266
started,bundle,org.eclipse.equinox.p2.core,2.0.0.v20100510,"org.eclipse.equinox.p2.core",1335573139266
started,bundle,org.eclipse.equinox.p2.directorywatcher,1.0.200.v20100601,"org.eclipse.equinox.p2.directorywatcher",1335573139267
started,bundle,org.eclipse.equinox.p2.engine,2.0.0.v20100606,"org.eclipse.equinox.p2.engine",1335573139269
started,bundle,org.eclipse.equinox.p2.metadata,2.0.0.v20100601,"org.eclipse.equinox.p2.metadata",1335573139270
started,bundle,org.eclipse.equinox.p2.metadata.repository,1.1.0.v20100513,"org.eclipse.equinox.p2.metadata.repository",1335573139271
started,bundle,org.eclipse.equinox.p2.operations,2.0.0.v20100510,"org.eclipse.equinox.p2.operations",1335573139273
started,bundle,org.eclipse.equinox.p2.reconciler.dropins,1.1.0.v20100525,"org.eclipse.equinox.p2.reconciler.dropins",1335573139274
started,bundle,org.eclipse.equinox.p2.repository,2.0.0.v20100519,"org.eclipse.equinox.p2.repository",1335573139275
started,bundle,org.eclipse.equinox.p2.ui.sdk.scheduler,1.0.0.v20100507-1815,"org.eclipse.equinox.p2.ui.sdk.scheduler",1335573139276
started,bundle,org.eclipse.equinox.p2.updatechecker,1.1.100.v20100503a,"org.eclipse.equinox.p2.updatechecker",1335573139277
started,bundle,org.eclipse.equinox.preferences,3.3.0.v20100503,"org.eclipse.equinox.preferences",1335573139278
started,bundle,org.eclipse.equinox.registry,3.5.0.v20100503,"org.eclipse.equinox.registry",1335573139279
started,bundle,org.eclipse.equinox.security,1.0.200.v20100503,"org.eclipse.equinox.security",1335573139280
started,bundle,org.eclipse.equinox.util,1.0.200.v20100503,"org.eclipse.equinox.util",1335573139281
started,bundle,org.eclipse.help,3.5.0.v20100524,"org.eclipse.help",1335573139282
started,bundle,org.eclipse.jdt.apt.core,3.3.400.v20100513-0845,"org.eclipse.jdt.apt.core",1335573139283
started,bundle,org.eclipse.jdt.apt.pluggable.core,1.0.300.v20100513-0845,"org.eclipse.jdt.apt.pluggable.core",1335573139285
started,bundle,org.eclipse.jdt.core,3.6.0.v_A58,"org.eclipse.jdt.core",1335573139291
started,bundle,org.eclipse.jdt.core.manipulation,1.3.0.v20100520-0800,"org.eclipse.jdt.core.manipulation",1335573139292
started,bundle,org.eclipse.jdt.launching,3.5.100.v20100526,"org.eclipse.jdt.launching",1335573139293
started,bundle,org.eclipse.jdt.ui,3.6.0.v20100602-1600,"org.eclipse.jdt.ui",1335573139293
started,bundle,org.eclipse.jface,3.6.0.I20100601-0800,"org.eclipse.jface",1335573139294
started,bundle,org.eclipse.jsch.core,1.1.200.I20100505-1245,"org.eclipse.jsch.core",1335573139295
started,bundle,org.eclipse.ltk.core.refactoring,3.5.100.v20100526-0800,"org.eclipse.ltk.core.refactoring",1335573139296
started,bundle,org.eclipse.ltk.ui.refactoring,3.5.0.v20100526-0800,"org.eclipse.ltk.ui.refactoring",1335573139297
started,bundle,org.eclipse.mylyn.commons.ui,3.4.0.v20100608-0100-e3x,"org.eclipse.mylyn.commons.ui",1335573139297
started,bundle,org.eclipse.mylyn.context.core,3.4.0.v20100608-0100-e3x,"org.eclipse.mylyn.context.core",1335573139299
started,bundle,org.eclipse.mylyn.monitor.ui,3.4.0.v20100608-0100-e3x,"org.eclipse.mylyn.monitor.ui",1335573139299
started,bundle,org.eclipse.mylyn.team.ui,3.4.0.v20100608-0100-e3x,"org.eclipse.mylyn.team.ui",1335573139300
started,bundle,org.eclipse.team.core,3.5.100.I20100527-0800,"org.eclipse.team.core",1335573139301
started,bundle,org.eclipse.team.cvs.core,3.3.300.I20100526-0800,"org.eclipse.team.cvs.core",1335573139301
started,bundle,org.eclipse.team.cvs.ui,3.3.300.I20100526-0800,"org.eclipse.team.cvs.ui",1335573139302
started,bundle,org.eclipse.team.ui,3.5.100.I20100527-0800,"org.eclipse.team.ui",1335573139584
started,bundle,org.eclipse.ui,3.6.0.I20100603-1100,"org.eclipse.ui",1335573139586
started,bundle,org.eclipse.ui.console,3.5.0.v20100526,"org.eclipse.ui.console",1335573139587
started,bundle,org.eclipse.ui.editors,3.6.0.v20100520-0800,"org.eclipse.ui.editors",1335573139587
started,bundle,org.eclipse.ui.forms,3.5.0.v20100427,"org.eclipse.ui.forms",1335573139588
started,bundle,org.eclipse.ui.ide,3.6.0.I20100601-0800,"org.eclipse.ui.ide",1335573139589
started,bundle,org.eclipse.ui.navigator,3.5.0.I20100601-0800,"org.eclipse.ui.navigator",1335573139590
started,bundle,org.eclipse.ui.net,1.2.100.I20100505-1245,"org.eclipse.ui.net",1335573139591
started,bundle,org.eclipse.ui.views,3.5.0.I20100527-0800,"org.eclipse.ui.views",1335573139592
started,bundle,org.eclipse.ui.workbench,3.6.0.I20100603-1100,"org.eclipse.ui.workbench",1335573139592
started,bundle,org.eclipse.ui.workbench.texteditor,3.6.0.v20100520-0800,"org.eclipse.ui.workbench.texteditor",1335573139594
started,bundle,org.eclipse.update.configurator,3.3.100.v20100512,"org.eclipse.update.configurator",1335573139595
started,bundle,org.eclipse.update.core,3.2.400.v20100512,"org.eclipse.update.core",1335573139596
started,bundle,org.eclipse.update.scheduler,3.2.300.v20100512,"org.eclipse.update.scheduler",1335573139597
started,bundle,com.collabnet.subversion.merge,2.1.0,"com.collabnet.subversion.merge",1335573139598
started,bundle,org.eclipse.mylyn.bugzilla.core,3.4.0.v20100730-0100-e3x,"org.eclipse.mylyn.bugzilla.core",1335573139599
started,bundle,org.eclipse.mylyn.bugzilla.ui,3.4.0.v20100730-0100-e3x,"org.eclipse.mylyn.bugzilla.ui",1335573139600
started,bundle,org.eclipse.mylyn.commons.net,3.4.1.v20100625-2100-e3x,"org.eclipse.mylyn.commons.net",1335573139600
started,bundle,org.eclipse.mylyn.context.ui,3.4.0.v20100730-0100-e3x,"org.eclipse.mylyn.context.ui",1335573139602
started,bundle,org.eclipse.mylyn.tasks.ui,3.4.1.v20100730-0100-e3x,"org.eclipse.mylyn.tasks.ui",1335573139603
started,bundle,org.tigris.subversion.clientadapter,1.6.12,"org.tigris.subversion.clientadapter",1335573139603
started,bundle,org.tigris.subversion.subclipse.core,1.6.13,"org.tigris.subversion.subclipse.core",1335573139604
started,bundle,org.tigris.subversion.subclipse.mylyn,3.0.0,"org.tigris.subversion.subclipse.mylyn",1335573139605
started,bundle,org.tigris.subversion.subclipse.ui,1.6.13,"org.tigris.subversion.subclipse.ui",1335573139607
started,bundle,org.eclipse.cdt.codan.core,1.0.0.201006141710,"org.eclipse.cdt.codan.core",1335573139608
started,bundle,org.eclipse.cdt.codan.core.cxx,1.0.0.201006141710,"org.eclipse.cdt.codan.core.cxx",1335573139608
started,bundle,org.eclipse.cdt.codan.ui.cxx,1.0.0.201006141710,"org.eclipse.cdt.codan.ui.cxx",1335573139609
started,bundle,org.eclipse.cdt.core,5.2.0.201006141710,"org.eclipse.cdt.core",1335573139611
started,bundle,org.eclipse.cdt.core.tests,5.1.0.201006141710,"org.eclipse.cdt.core.tests",1335573139613
started,bundle,org.eclipse.cdt.make.core,7.0.0.201006141710,"org.eclipse.cdt.make.core",1335573139617
started,bundle,org.eclipse.cdt.make.ui,7.0.0.201006141710,"org.eclipse.cdt.make.ui",1335573139617
started,bundle,org.eclipse.cdt.managedbuilder.core,7.0.0.201006141710,"org.eclipse.cdt.managedbuilder.core",1335573139619
started,bundle,org.eclipse.cdt.scripting,1.0.0.201006141710,"org.eclipse.cdt.scripting",1335573139619
started,bundle,org.eclipse.cdt.ui,5.2.0.201006141710,"org.eclipse.cdt.ui",1335573139622
started,bundle,org.eclipse.cdt.ui.tests,5.1.0.201006141710,"org.eclipse.cdt.ui.tests",1335573139625
started,bundle,edu.buffalo.cse.jive.console,1.9.1.v20111117b,"edu.buffalo.cse.jive.console",1335573139626
started,bundle,oracle.eclipse.tools.envcheck,3.2.3.201107052022,"oracle.eclipse.tools.envcheck",1335573139627
started,bundle,org.eclipse.core.jobs,3.5.0.v20100515-p002,"org.eclipse.core.jobs",1335573139628
started,bundle,org.springframework.ide.eclipse.beans.core,2.7.0.201107040453-RELEASE,"org.springframework.ide.eclipse.beans.core",1335573139629
started,bundle,org.springframework.ide.eclipse.beans.ui,2.7.0.201107040453-RELEASE,"org.springframework.ide.eclipse.beans.ui",1335573139630
started,bundle,org.springframework.ide.eclipse.core,2.7.0.201107040453-RELEASE,"org.springframework.ide.eclipse.core",1335573139631
started,bundle,org.springframework.ide.eclipse.ui,2.7.0.201107040453-RELEASE,"org.springframework.ide.eclipse.ui",1335573139632
os,sysinfo,,,"linux",1335573139636
arch,sysinfo,,,"x86_64",1335573139636
ws,sysinfo,,,"gtk",1335573139636
locale,sysinfo,,,"en_US",1335573139636
processors,sysinfo,,,"16",1335573139637
java.runtime.name,sysinfo,,,"Java(TM) SE Runtime Environment",1335573139637
java.runtime.version,sysinfo,,,"1.7.0_03-b04",1335573139637
java.specification.name,sysinfo,,,"Java Platform API Specification",1335573139637
java.specification.vendor,sysinfo,,,"Oracle Corporation",1335573139637
java.specification.version,sysinfo,,,"1.7",1335573139637
java.vendor,sysinfo,,,"Oracle Corporation",1335573139637
java.version,sysinfo,,,"1.7.0_03",1335573139637
java.vm.info,sysinfo,,,"mixed mode",1335573139637
java.vm.name,sysinfo,,,"Java HotSpot(TM) 64-Bit Server VM",1335573139637
java.vm.specification.name,sysinfo,,,"Java Virtual Machine Specification",1335573139637
java.vm.specification.vendor,sysinfo,,,"Oracle Corporation",1335573139637
java.vm.specification.version,sysinfo,,,"1.7",1335573139637
java.vm.vendor,sysinfo,,,"Oracle Corporation",1335573139637
java.vm.version,sysinfo,,,"22.1-b02",1335573139637
started,bundle,org.eclipse.team.cvs.ssh2,3.2.300.I20100526-0800,"org.eclipse.team.cvs.ssh2",1335573140023
activated,view,org.eclipse.jdt.ui,3.6.0.v20100602-1600,"org.eclipse.jdt.ui.PackageExplorer",1335573149901
started,bundle,org.eclipse.debug.ui,3.6.0.v20100601-1530,"org.eclipse.debug.ui",1335573154647
started,bundle,org.eclipse.cdt.debug.core,7.0.0.201006141710,"org.eclipse.cdt.debug.core",1335573154725
started,bundle,org.eclipse.cdt.debug.ui,7.0.0.201006141710,"org.eclipse.cdt.debug.ui",1335573154735
started,bundle,org.eclipse.jdt.debug,3.6.0.v20100526,"org.eclipse.jdt.debug",1335573155030
started,bundle,net.sf.webcat.eclipse.submitter.ui,1.3.0,"net.sf.webcat.eclipse.submitter.ui",1335573156484
started,bundle,net.sf.webcat.eclipse.submitter,1.3.0,"net.sf.webcat.eclipse.submitter",1335573156495
