what,kind,bundleId,bundleVersion,description,time
activated,workbench,org.eclipse.ui.workbench,3.6.0.I20100603-1100,"",1335492814641
deactivated,workbench,org.eclipse.ui.workbench,3.6.0.I20100603-1100,"",1335492874137
activated,workbench,org.eclipse.ui.workbench,3.6.0.I20100603-1100,"",1335492885652
executed,command,org.eclipse.ui,3.6.0.I20100603-1100,"org.eclipse.ui.edit.copy",1335492920816
executed,command,org.eclipse.ui,3.6.0.I20100603-1100,"org.eclipse.ui.edit.paste",1335492926881
executed,command,org.eclipse.ui,3.6.0.I20100603-1100,"org.eclipse.ui.edit.copy",1335492951838
executed,command,org.eclipse.ui,3.6.0.I20100603-1100,"org.eclipse.ui.edit.paste",1335492964654
executed,command,org.eclipse.jdt.ui,3.6.0.v20100602-1600,"org.eclipse.jdt.ui.edit.text.java.toggle.comment",1335492985179
executed,command,org.eclipse.jdt.ui,3.6.0.v20100602-1600,"org.eclipse.jdt.ui.edit.text.java.toggle.comment",1335492995888
deactivated,workbench,org.eclipse.ui.workbench,3.6.0.I20100603-1100,"",1335493001711
activated,workbench,org.eclipse.ui.workbench,3.6.0.I20100603-1100,"",1335493003057
deactivated,workbench,org.eclipse.ui.workbench,3.6.0.I20100603-1100,"",1335493003439
activated,workbench,org.eclipse.ui.workbench,3.6.0.I20100603-1100,"",1335493022297
deactivated,workbench,org.eclipse.ui.workbench,3.6.0.I20100603-1100,"",1335493024923
activated,workbench,org.eclipse.ui.workbench,3.6.0.I20100603-1100,"",1335493220606
deactivated,workbench,org.eclipse.ui.workbench,3.6.0.I20100603-1100,"",1335493222236
activated,workbench,org.eclipse.ui.workbench,3.6.0.I20100603-1100,"",1335493224367
deactivated,workbench,org.eclipse.ui.workbench,3.6.0.I20100603-1100,"",1335493227280
activated,workbench,org.eclipse.ui.workbench,3.6.0.I20100603-1100,"",1335493278478
deactivated,workbench,org.eclipse.ui.workbench,3.6.0.I20100603-1100,"",1335493280241
activated,workbench,org.eclipse.ui.workbench,3.6.0.I20100603-1100,"",1335493292548
deactivated,workbench,org.eclipse.ui.workbench,3.6.0.I20100603-1100,"",1335493335598
activated,workbench,org.eclipse.ui.workbench,3.6.0.I20100603-1100,"",1335493336859
deactivated,workbench,org.eclipse.ui.workbench,3.6.0.I20100603-1100,"",1335493337217
activated,workbench,org.eclipse.ui.workbench,3.6.0.I20100603-1100,"",1335493354316
deactivated,workbench,org.eclipse.ui.workbench,3.6.0.I20100603-1100,"",1335493392423
activated,workbench,org.eclipse.ui.workbench,3.6.0.I20100603-1100,"",1335493393514
deactivated,workbench,org.eclipse.ui.workbench,3.6.0.I20100603-1100,"",1335493393940
activated,workbench,org.eclipse.ui.workbench,3.6.0.I20100603-1100,"",1335493400054
activated,view,org.eclipse.ui.console,3.5.0.v20100526,"org.eclipse.ui.console.ConsoleView",1335493401441
activated,editor,org.eclipse.jdt.ui,3.6.0.v20100602-1600,"org.eclipse.jdt.ui.CompilationUnitEditor",1335493403519
deactivated,workbench,org.eclipse.ui.workbench,3.6.0.I20100603-1100,"",1335493406442
activated,workbench,org.eclipse.ui.workbench,3.6.0.I20100603-1100,"",1335493411074
activated,view,org.eclipse.ui.console,3.5.0.v20100526,"org.eclipse.ui.console.ConsoleView",1335493411091
activated,editor,org.eclipse.jdt.ui,3.6.0.v20100602-1600,"org.eclipse.jdt.ui.CompilationUnitEditor",1335493411973
deactivated,workbench,org.eclipse.ui.workbench,3.6.0.I20100603-1100,"",1335493574741
activated,workbench,org.eclipse.ui.workbench,3.6.0.I20100603-1100,"",1335493576212
deactivated,workbench,org.eclipse.ui.workbench,3.6.0.I20100603-1100,"",1335493576663
activated,workbench,org.eclipse.ui.workbench,3.6.0.I20100603-1100,"",1335493584248
deactivated,workbench,org.eclipse.ui.workbench,3.6.0.I20100603-1100,"",1335493586421
activated,workbench,org.eclipse.ui.workbench,3.6.0.I20100603-1100,"",1335493601644
deactivated,workbench,org.eclipse.ui.workbench,3.6.0.I20100603-1100,"",1335493604013
activated,workbench,org.eclipse.ui.workbench,3.6.0.I20100603-1100,"",1335493632689
deactivated,workbench,org.eclipse.ui.workbench,3.6.0.I20100603-1100,"",1335493662136
activated,workbench,org.eclipse.ui.workbench,3.6.0.I20100603-1100,"",1335493667806
activated,editor,org.eclipse.jdt.ui,3.6.0.v20100602-1600,"org.eclipse.jdt.ui.CompilationUnitEditor",1335493668014
deactivated,workbench,org.eclipse.ui.workbench,3.6.0.I20100603-1100,"",1335493813995
activated,workbench,org.eclipse.ui.workbench,3.6.0.I20100603-1100,"",1335493816952
deactivated,workbench,org.eclipse.ui.workbench,3.6.0.I20100603-1100,"",1335493817883
activated,workbench,org.eclipse.ui.workbench,3.6.0.I20100603-1100,"",1335493820291
deactivated,workbench,org.eclipse.ui.workbench,3.6.0.I20100603-1100,"",1335493823445
activated,workbench,org.eclipse.ui.workbench,3.6.0.I20100603-1100,"",1335493835439
deactivated,workbench,org.eclipse.ui.workbench,3.6.0.I20100603-1100,"",1335493839806
activated,workbench,org.eclipse.ui.workbench,3.6.0.I20100603-1100,"",1335493863855
activated,editor,org.eclipse.jdt.ui,3.6.0.v20100602-1600,"org.eclipse.jdt.ui.CompilationUnitEditor",1335493869771
executed,command,org.eclipse.ui,3.6.0.I20100603-1100,"org.eclipse.ui.edit.copy",1335493901007
executed,command,org.eclipse.ui,3.6.0.I20100603-1100,"org.eclipse.ui.edit.paste",1335493939258
deactivated,workbench,org.eclipse.ui.workbench,3.6.0.I20100603-1100,"",1335493941413
activated,workbench,org.eclipse.ui.workbench,3.6.0.I20100603-1100,"",1335493942594
deactivated,workbench,org.eclipse.ui.workbench,3.6.0.I20100603-1100,"",1335493942964
activated,workbench,org.eclipse.ui.workbench,3.6.0.I20100603-1100,"",1335493959898
deactivated,workbench,org.eclipse.ui.workbench,3.6.0.I20100603-1100,"",1335493969245
activated,workbench,org.eclipse.ui.workbench,3.6.0.I20100603-1100,"",1335493970787
deactivated,workbench,org.eclipse.ui.workbench,3.6.0.I20100603-1100,"",1335493970951
activated,workbench,org.eclipse.ui.workbench,3.6.0.I20100603-1100,"",1335493972546
executed,command,org.eclipse.ui,3.6.0.I20100603-1100,"org.eclipse.ui.edit.undo",1335493975275
executed,command,org.eclipse.ui,3.6.0.I20100603-1100,"org.eclipse.ui.edit.copy",1335493984127
executed,command,org.eclipse.ui,3.6.0.I20100603-1100,"org.eclipse.ui.edit.paste",1335493988502
executed,command,org.eclipse.ui,3.6.0.I20100603-1100,"org.eclipse.ui.edit.copy",1335494044081
executed,command,org.eclipse.jdt.ui,3.6.0.v20100602-1600,"org.eclipse.jdt.ui.edit.text.java.toggle.comment",1335494056437
executed,command,org.eclipse.ui,3.6.0.I20100603-1100,"org.eclipse.ui.edit.paste",1335494076806
deactivated,workbench,org.eclipse.ui.workbench,3.6.0.I20100603-1100,"",1335494079958
activated,workbench,org.eclipse.ui.workbench,3.6.0.I20100603-1100,"",1335494081419
deactivated,workbench,org.eclipse.ui.workbench,3.6.0.I20100603-1100,"",1335494081872
activated,workbench,org.eclipse.ui.workbench,3.6.0.I20100603-1100,"",1335494098850
deactivated,workbench,org.eclipse.ui.workbench,3.6.0.I20100603-1100,"",1335494100123
activated,workbench,org.eclipse.ui.workbench,3.6.0.I20100603-1100,"",1335494126652
executed,command,org.eclipse.jdt.ui,3.6.0.v20100602-1600,"org.eclipse.jdt.ui.edit.text.java.toggle.comment",1335494228491
deactivated,workbench,org.eclipse.ui.workbench,3.6.0.I20100603-1100,"",1335494784487
activated,workbench,org.eclipse.ui.workbench,3.6.0.I20100603-1100,"",1335494894081
executed,command,org.eclipse.ui,3.6.0.I20100603-1100,"org.eclipse.ui.edit.copy",1335494950186
executed,command,org.eclipse.ui,3.6.0.I20100603-1100,"org.eclipse.ui.edit.paste",1335494952493
executed,command,org.eclipse.ui,3.6.0.I20100603-1100,"org.eclipse.ui.edit.copy",1335494964806
executed,command,org.eclipse.ui,3.6.0.I20100603-1100,"org.eclipse.ui.edit.paste",1335494965936
executed,command,org.eclipse.ui,3.6.0.I20100603-1100,"org.eclipse.ui.edit.copy",1335494974824
executed,command,org.eclipse.ui,3.6.0.I20100603-1100,"org.eclipse.ui.edit.paste",1335494976720
executed,command,org.eclipse.ui,3.6.0.I20100603-1100,"org.eclipse.ui.edit.copy",1335495209046
executed,command,org.eclipse.ui,3.6.0.I20100603-1100,"org.eclipse.ui.edit.paste",1335495209830
executed,command,org.eclipse.ui,3.6.0.I20100603-1100,"org.eclipse.ui.edit.copy",1335495228895
executed,command,org.eclipse.ui,3.6.0.I20100603-1100,"org.eclipse.ui.edit.paste",1335495232054
executed,command,org.eclipse.ui,3.6.0.I20100603-1100,"org.eclipse.ui.edit.paste",1335495233367
executed,command,org.eclipse.ui,3.6.0.I20100603-1100,"org.eclipse.ui.edit.copy",1335495306769
executed,command,org.eclipse.ui,3.6.0.I20100603-1100,"org.eclipse.ui.edit.paste",1335495309236
executed,command,org.eclipse.ui,3.6.0.I20100603-1100,"org.eclipse.ui.edit.copy",1335495335582
executed,command,org.eclipse.ui,3.6.0.I20100603-1100,"org.eclipse.ui.edit.paste",1335495349763
deactivated,workbench,org.eclipse.ui.workbench,3.6.0.I20100603-1100,"",1335495478190
activated,workbench,org.eclipse.ui.workbench,3.6.0.I20100603-1100,"",1335495479739
deactivated,workbench,org.eclipse.ui.workbench,3.6.0.I20100603-1100,"",1335495480434
activated,workbench,org.eclipse.ui.workbench,3.6.0.I20100603-1100,"",1335495487979
executed,command,org.eclipse.jdt.ui,3.6.0.v20100602-1600,"org.eclipse.jdt.ui.edit.text.java.toggle.comment",1335495499370
executed,command,org.eclipse.jdt.ui,3.6.0.v20100602-1600,"org.eclipse.jdt.ui.edit.text.java.toggle.comment",1335495505472
deactivated,workbench,org.eclipse.ui.workbench,3.6.0.I20100603-1100,"",1335495506755
activated,workbench,org.eclipse.ui.workbench,3.6.0.I20100603-1100,"",1335495507844
deactivated,workbench,org.eclipse.ui.workbench,3.6.0.I20100603-1100,"",1335495507951
activated,workbench,org.eclipse.ui.workbench,3.6.0.I20100603-1100,"",1335495509621
activated,view,org.eclipse.jdt.ui,3.6.0.v20100602-1600,"org.eclipse.jdt.ui.PackageExplorer",1335495512019
activated,editor,org.eclipse.jdt.ui,3.6.0.v20100602-1600,"org.eclipse.jdt.ui.CompilationUnitEditor",1335495513603
deactivated,workbench,org.eclipse.ui.workbench,3.6.0.I20100603-1100,"",1335495530480
activated,workbench,org.eclipse.ui.workbench,3.6.0.I20100603-1100,"",1335495532334
executed,command,org.eclipse.jdt.ui,3.6.0.v20100602-1600,"org.eclipse.jdt.ui.edit.text.java.toggle.comment",1335495542041
deactivated,workbench,org.eclipse.ui.workbench,3.6.0.I20100603-1100,"",1335495595752
activated,workbench,org.eclipse.ui.workbench,3.6.0.I20100603-1100,"",1335495596816
deactivated,workbench,org.eclipse.ui.workbench,3.6.0.I20100603-1100,"",1335495597256
activated,workbench,org.eclipse.ui.workbench,3.6.0.I20100603-1100,"",1335495613309
executed,command,org.eclipse.jdt.ui,3.6.0.v20100602-1600,"org.eclipse.jdt.ui.edit.text.java.toggle.comment",1335495619793
executed,command,org.eclipse.jdt.ui,3.6.0.v20100602-1600,"org.eclipse.jdt.ui.edit.text.java.toggle.comment",1335495622072
deactivated,workbench,org.eclipse.ui.workbench,3.6.0.I20100603-1100,"",1335495708810
activated,workbench,org.eclipse.ui.workbench,3.6.0.I20100603-1100,"",1335495709976
deactivated,workbench,org.eclipse.ui.workbench,3.6.0.I20100603-1100,"",1335495710097
activated,workbench,org.eclipse.ui.workbench,3.6.0.I20100603-1100,"",1335495711407
deactivated,workbench,org.eclipse.ui.workbench,3.6.0.I20100603-1100,"",1335495726220
activated,workbench,org.eclipse.ui.workbench,3.6.0.I20100603-1100,"",1335495727239
deactivated,workbench,org.eclipse.ui.workbench,3.6.0.I20100603-1100,"",1335495727627
activated,workbench,org.eclipse.ui.workbench,3.6.0.I20100603-1100,"",1335495739311
executed,command,org.eclipse.jdt.ui,3.6.0.v20100602-1600,"org.eclipse.jdt.ui.edit.text.java.toggle.comment",1335495747995
deactivated,workbench,org.eclipse.ui.workbench,3.6.0.I20100603-1100,"",1335495752338
activated,workbench,org.eclipse.ui.workbench,3.6.0.I20100603-1100,"",1335495753803
deactivated,workbench,org.eclipse.ui.workbench,3.6.0.I20100603-1100,"",1335495754137
activated,workbench,org.eclipse.ui.workbench,3.6.0.I20100603-1100,"",1335495777045
deactivated,workbench,org.eclipse.ui.workbench,3.6.0.I20100603-1100,"",1335495778523
activated,workbench,org.eclipse.ui.workbench,3.6.0.I20100603-1100,"",1335495792623
activated,editor,org.eclipse.jdt.ui,3.6.0.v20100602-1600,"org.eclipse.jdt.ui.CompilationUnitEditor",1335495809619
activated,editor,org.eclipse.jdt.ui,3.6.0.v20100602-1600,"org.eclipse.jdt.ui.CompilationUnitEditor",1335495834259
deactivated,workbench,org.eclipse.ui.workbench,3.6.0.I20100603-1100,"",1335495861268
activated,workbench,org.eclipse.ui.workbench,3.6.0.I20100603-1100,"",1335495862950
deactivated,workbench,org.eclipse.ui.workbench,3.6.0.I20100603-1100,"",1335495863310
activated,workbench,org.eclipse.ui.workbench,3.6.0.I20100603-1100,"",1335495874025
deactivated,workbench,org.eclipse.ui.workbench,3.6.0.I20100603-1100,"",1335495875485
activated,workbench,org.eclipse.ui.workbench,3.6.0.I20100603-1100,"",1335495884875
deactivated,workbench,org.eclipse.ui.workbench,3.6.0.I20100603-1100,"",1335496171710
closed,workbench,org.eclipse.ui.workbench,3.6.0.I20100603-1100,"",1335496173464
stopped,bundle,org.eclipse.mylyn.ide.ant,3.4.0.v20100608-0100-e3x,"org.eclipse.mylyn.ide.ant",1335496175193
stopped,bundle,org.eclipse.ant.ui,3.5.0.v20100427,"org.eclipse.ant.ui",1335496175195
stopped,bundle,org.eclipse.ant.launching,1.0.0.v20100427,"org.eclipse.ant.launching",1335496175196
stopped,bundle,org.eclipse.equinox.p2.ui.sdk,1.0.100.v20100513,"org.eclipse.equinox.p2.ui.sdk",1335496175198
stopped,bundle,org.eclipse.mylyn.java.tasks,3.4.0.v20100608-0100-e3x,"org.eclipse.mylyn.java.tasks",1335496175198
stopped,bundle,org.eclipse.mylyn.java.ui,3.4.0.v20100608-0100-e3x,"org.eclipse.mylyn.java.ui",1335496175198
stopped,bundle,edu.buffalo.cse.jive.launching,1.9.1.v20111117b,"edu.buffalo.cse.jive.launching",1335496175198
stopped,bundle,edu.buffalo.cse.jive.console,1.9.1.v20111117b,"edu.buffalo.cse.jive.console",1335496175198
stopped,bundle,edu.buffalo.cse.jive.ui,1.9.1.v20111117b,"edu.buffalo.cse.jive.ui",1335496175198
stopped,bundle,org.eclipse.jdt.junit,3.6.0.v20100526-0800,"org.eclipse.jdt.junit",1335496175198
stopped,bundle,org.eclipse.jdt.apt.ui,3.3.300.v20100513-0845,"org.eclipse.jdt.apt.ui",1335496175200
stopped,bundle,edu.rice.cs.drjava,0.9.8,"edu.rice.cs.drjava",1335496175203
stopped,bundle,oracle.eclipse.tools.envcheck,3.2.3.201107052022,"oracle.eclipse.tools.envcheck",1335496175203
stopped,bundle,org.eclipse.jdt.debug.ui,3.5.0.v20100602-0830,"org.eclipse.jdt.debug.ui",1335496175203
stopped,bundle,edu.buffalo.cse.green.relationship.association,3.5.0,"edu.buffalo.cse.green.relationship.association",1335496175207
stopped,bundle,edu.buffalo.cse.green.relationship.composition,3.5.0,"edu.buffalo.cse.green.relationship.composition",1335496175209
stopped,bundle,edu.buffalo.cse.green.relationship.dependency,3.5.0,"edu.buffalo.cse.green.relationship.dependency",1335496175212
stopped,bundle,edu.buffalo.cse.green.relationship.generalization,3.5.0,"edu.buffalo.cse.green.relationship.generalization",1335496175214
stopped,bundle,edu.buffalo.cse.green.relationship.realization,3.5.0,"edu.buffalo.cse.green.relationship.realization",1335496175217
stopped,bundle,edu.buffalo.cse.green.save.svg,3.5.0,"edu.buffalo.cse.green.save.svg",1335496175220
stopped,bundle,edu.buffalo.cse.green,3.5.0,"edu.buffalo.cse.green",1335496175222
stopped,bundle,org.eclipse.gmf.bridge,1.1.100.v20100309-2359,"org.eclipse.gmf.bridge",1335496175224
stopped,bundle,org.eclipse.gmf.codegen.edit,2.2.100.v20100309-2359,"org.eclipse.gmf.codegen.edit",1335496175227
stopped,bundle,org.eclipse.gmf.codegen,2.2.100.v20100518-2359,"org.eclipse.gmf.codegen",1335496175228
stopped,bundle,org.eclipse.gmf.graphdef.codegen,2.0.100.v20100421-2359,"org.eclipse.gmf.graphdef.codegen",1335496175230
stopped,bundle,org.eclipse.gmf.map.edit,2.2.100.v20100309-2359,"org.eclipse.gmf.map.edit",1335496175232
stopped,bundle,org.eclipse.gmf.graphdef.edit,2.0.200.v20090216-1925,"org.eclipse.gmf.graphdef.edit",1335496175234
stopped,bundle,org.eclipse.gmf.map,2.2.100.v20100309-2359,"org.eclipse.gmf.map",1335496175235
stopped,bundle,org.eclipse.gmf.tooldef.edit,2.0.100.v20090114-0940,"org.eclipse.gmf.tooldef.edit",1335496175237
stopped,bundle,org.eclipse.gmf.tooldef,2.0.0.v20090114-0940,"org.eclipse.gmf.tooldef",1335496175239
stopped,bundle,org.eclipse.gmf.common,1.2.0.v20100226-2359,"org.eclipse.gmf.common",1335496175240
stopped,bundle,com.collabnet.subversion.merge,2.1.0,"com.collabnet.subversion.merge",1335496175240
stopped,bundle,org.tigris.subversion.subclipse.graph,1.0.8,"org.tigris.subversion.subclipse.graph",1335496175241
stopped,bundle,org.tigris.subversion.subclipse.mylyn,3.0.0,"org.tigris.subversion.subclipse.mylyn",1335496175241
stopped,bundle,org.tigris.subversion.subclipse.ui,1.6.13,"org.tigris.subversion.subclipse.ui",1335496175241
stopped,bundle,com.python.pydev.codecompletion,2.1.0.2011052613,"com.python.pydev.codecompletion",1335496175244
stopped,bundle,com.python.pydev.refactoring,2.1.0.2011052613,"com.python.pydev.refactoring",1335496175247
stopped,bundle,org.eclipse.pde.runtime,3.4.200.v20100601,"org.eclipse.pde.runtime",1335496175248
stopped,bundle,com.python.pydev.analysis,2.1.0.2011052613,"com.python.pydev.analysis",1335496175249
stopped,bundle,com.python.pydev.debug,2.1.0.2011052613,"com.python.pydev.debug",1335496175251
stopped,bundle,com.python.pydev.fastparser,2.1.0.2011052613,"com.python.pydev.fastparser",1335496175254
stopped,bundle,com.python.pydev,2.1.0.2011052613,"com.python.pydev",1335496175258
stopped,bundle,org.python.pydev.django,2.1.0.2011052613,"org.python.pydev.django",1335496175261
stopped,bundle,org.python.pydev.customizations,2.1.0.2011052613,"org.python.pydev.customizations",1335496175264
stopped,bundle,org.python.pydev.red_core,2.1.0.2011052613,"org.python.pydev.red_core",1335496175266
stopped,bundle,org.python.pydev.debug,2.1.0.2011052613,"org.python.pydev.debug",1335496175267
stopped,bundle,org.python.pydev.refactoring,2.1.0.2011052613,"org.python.pydev.refactoring",1335496175270
stopped,bundle,org.python.pydev,2.1.0.2011052613,"org.python.pydev",1335496175270
stopped,bundle,org.springframework.ide.eclipse.beans.ui.refactoring,2.7.0.201107040453-RELEASE,"org.springframework.ide.eclipse.beans.ui.refactoring",1335496175272
stopped,bundle,org.springframework.ide.eclipse.beans.ui.editor,2.7.0.201107040453-RELEASE,"org.springframework.ide.eclipse.beans.ui.editor",1335496175274
stopped,bundle,org.springframework.ide.eclipse.beans.ui.graph,2.7.0.201107040453-RELEASE,"org.springframework.ide.eclipse.beans.ui.graph",1335496175275
stopped,bundle,org.springframework.ide.eclipse.beans.ui.search,2.7.0.201107040453-RELEASE,"org.springframework.ide.eclipse.beans.ui.search",1335496175277
stopped,bundle,org.springframework.ide.eclipse.beans.ui,2.7.0.201107040453-RELEASE,"org.springframework.ide.eclipse.beans.ui",1335496175277
stopped,bundle,org.springframework.ide.eclipse.ui,2.7.0.201107040453-RELEASE,"org.springframework.ide.eclipse.ui",1335496175277
stopped,bundle,org.eclipse.jdt.ui,3.6.0.v20100602-1600,"org.eclipse.jdt.ui",1335496175360
stopped,bundle,org.eclipse.wst.dtd.ui,1.0.500.v201004290328,"org.eclipse.wst.dtd.ui",1335496175363
stopped,bundle,org.eclipse.wst.xsd.ui,1.2.303.v201004290328,"org.eclipse.wst.xsd.ui",1335496175366
stopped,bundle,org.eclipse.wst.xml.ui,1.1.100.v201006030742,"org.eclipse.wst.xml.ui",1335496175368
stopped,bundle,org.eclipse.wst.common.ui,1.1.500.v200911190730,"org.eclipse.wst.common.ui",1335496175370
stopped,bundle,org.eclipse.wst.sse.ui,1.2.0.v201006030742,"org.eclipse.wst.sse.ui",1335496175372
stopped,bundle,org.eclipse.cdt.debug.ui.memory.search,1.2.0.201006141710,"org.eclipse.cdt.debug.ui.memory.search",1335496175374
stopped,bundle,org.eclipse.cdt.debug.ui.memory.traditional,1.2.0.201006141710,"org.eclipse.cdt.debug.ui.memory.traditional",1335496175376
stopped,bundle,org.eclipse.cdt.codan.checkers.ui,1.0.0.201006141710,"org.eclipse.cdt.codan.checkers.ui",1335496175378
stopped,bundle,org.eclipse.cdt.codan.ui.cxx,1.0.0.201006141710,"org.eclipse.cdt.codan.ui.cxx",1335496175378
stopped,bundle,org.eclipse.cdt.codan.ui,1.0.0.201006141710,"org.eclipse.cdt.codan.ui",1335496175379
stopped,bundle,org.eclipse.cdt.core.lrparser.xlc,1.0.0.201006141710,"org.eclipse.cdt.core.lrparser.xlc",1335496175381
stopped,bundle,org.eclipse.cdt.debug.edc.linux.x86,1.0.0.201006141710,"org.eclipse.cdt.debug.edc.linux.x86",1335496175384
stopped,bundle,org.eclipse.cdt.debug.edc.windows.ui,1.0.0.201006141710,"org.eclipse.cdt.debug.edc.windows.ui",1335496175385
stopped,bundle,org.eclipse.cdt.debug.edc.windows,1.0.0.201006141710,"org.eclipse.cdt.debug.edc.windows",1335496175388
stopped,bundle,org.eclipse.cdt.debug.edc.ui,1.0.0.201006141710,"org.eclipse.cdt.debug.edc.ui",1335496175389
stopped,bundle,org.eclipse.cdt.launch.remote,2.2.0.201006141710,"org.eclipse.cdt.launch.remote",1335496175390
stopped,bundle,org.eclipse.cdt.debug.mi.ui,6.1.0.201006141710,"org.eclipse.cdt.debug.mi.ui",1335496175390
stopped,bundle,org.eclipse.cdt.debug.ui.memory.memorybrowser,1.2.0.201006141710,"org.eclipse.cdt.debug.ui.memory.memorybrowser",1335496175391
stopped,bundle,org.eclipse.cdt.debug.gdbjtag.ui,7.0.0.201006141710,"org.eclipse.cdt.debug.gdbjtag.ui",1335496175392
stopped,bundle,org.eclipse.cdt.dsf.gdb.ui,2.1.0.201006141710,"org.eclipse.cdt.dsf.gdb.ui",1335496175392
stopped,bundle,org.eclipse.cdt.examples.dsf,2.1.0.201006141710,"org.eclipse.cdt.examples.dsf",1335496175394
stopped,bundle,org.eclipse.cdt.examples.dsf.pda.ui,2.1.0.201006141710,"org.eclipse.cdt.examples.dsf.pda.ui",1335496175396
stopped,bundle,org.eclipse.cdt.dsf.ui,2.1.0.201006141710,"org.eclipse.cdt.dsf.ui",1335496175397
stopped,bundle,org.eclipse.cdt.gdb.ui,7.0.0.201006141710,"org.eclipse.cdt.gdb.ui",1335496175399
stopped,bundle,org.eclipse.cdt.debug.edc.x86,1.0.0.201006141710,"org.eclipse.cdt.debug.edc.x86",1335496175401
stopped,bundle,org.eclipse.cdt.debug.edc,1.0.0.201006141710,"org.eclipse.cdt.debug.edc",1335496175402
stopped,bundle,org.eclipse.cdt.debug.gdbjtag.core,7.0.0.201006141710,"org.eclipse.cdt.debug.gdbjtag.core",1335496175404
stopped,bundle,org.eclipse.cdt.dsf.gdb,3.0.0.201006141710,"org.eclipse.cdt.dsf.gdb",1335496175404
stopped,bundle,org.eclipse.cdt.launch,6.1.0.201006141710,"org.eclipse.cdt.launch",1335496175406
stopped,bundle,org.eclipse.cdt.debug.ui,7.0.0.201006141710,"org.eclipse.cdt.debug.ui",1335496175408
stopped,bundle,org.eclipse.cdt.managedbuilder.ui.tests,7.0.0.201006141710,"org.eclipse.cdt.managedbuilder.ui.tests",1335496175411
stopped,bundle,org.eclipse.cdt.managedbuilder.xlupc.ui,1.1.0.201006141710,"org.eclipse.cdt.managedbuilder.xlupc.ui",1335496175413
stopped,bundle,org.eclipse.cdt.managedbuilder.xlc.ui,6.1.0.201006141710,"org.eclipse.cdt.managedbuilder.xlc.ui",1335496175415
stopped,bundle,org.eclipse.cdt.managedbuilder.ui,7.0.0.201006141710,"org.eclipse.cdt.managedbuilder.ui",1335496175417
stopped,bundle,org.eclipse.cdt.make.ui,7.0.0.201006141710,"org.eclipse.cdt.make.ui",1335496175417
stopped,bundle,org.eclipse.cdt.managedbuilder.bupc.ui,1.0.3.201006141710,"org.eclipse.cdt.managedbuilder.bupc.ui",1335496175421
stopped,bundle,org.eclipse.cdt.ui.tests,5.1.0.201006141710,"org.eclipse.cdt.ui.tests",1335496175421
stopped,bundle,org.eclipse.cdt.ui,5.2.0.201006141710,"org.eclipse.cdt.ui",1335496175421
stopped,bundle,org.eclipse.rse.files.ui,3.1.100.v201005221100,"org.eclipse.rse.files.ui",1335496175423
stopped,bundle,org.eclipse.search,3.6.0.v20100520-0800,"org.eclipse.search",1335496175426
stopped,bundle,org.eclipse.mylyn.team.ui,3.4.0.v20100608-0100-e3x,"org.eclipse.mylyn.team.ui",1335496175426
stopped,bundle,org.eclipse.gmf.ecore.editor,2.2.0.v20100315-2359,"org.eclipse.gmf.ecore.editor",1335496175427
stopped,bundle,org.eclipse.ui.navigator.resources,3.4.200.I20100601-0800,"org.eclipse.ui.navigator.resources",1335496175429
stopped,bundle,org.eclipse.ltk.ui.refactoring,3.5.0.v20100526-0800,"org.eclipse.ltk.ui.refactoring",1335496175429
stopped,bundle,org.eclipse.team.cvs.ui,3.3.300.I20100526-0800,"org.eclipse.team.cvs.ui",1335496175458
stopped,bundle,org.eclipse.team.ui,3.5.100.I20100527-0800,"org.eclipse.team.ui",1335496175459
stopped,bundle,org.eclipse.mylyn.bugzilla.ui,3.4.0.v20100730-0100-e3x,"org.eclipse.mylyn.bugzilla.ui",1335496175459
stopped,bundle,org.eclipse.mylyn.ide.ui,3.4.0.v20100608-0100-e3x,"org.eclipse.mylyn.ide.ui",1335496175459
stopped,bundle,org.eclipse.mylyn.resources.ui,3.4.0.v20100730-0100-e3x,"org.eclipse.mylyn.resources.ui",1335496175461
stopped,bundle,org.eclipse.mylyn.wikitext.tasks.ui,1.3.0.v20100608-0100-e3x,"org.eclipse.mylyn.wikitext.tasks.ui",1335496175463
stopped,bundle,org.eclipse.mylyn.context.ui,3.4.0.v20100730-0100-e3x,"org.eclipse.mylyn.context.ui",1335496175463
stopped,bundle,org.eclipse.mylyn.help.ui,3.4.0.v20100730-0100-e3x,"org.eclipse.mylyn.help.ui",1335496175465
stopped,bundle,org.eclipse.mylyn.tasks.bugs,3.4.0.v20100804-0100-e3x,"org.eclipse.mylyn.tasks.bugs",1335496175466
stopped,bundle,org.eclipse.mylyn.tasks.ui,3.4.1.v20100730-0100-e3x,"org.eclipse.mylyn.tasks.ui",1335496175466
stopped,bundle,org.eclipse.compare,3.5.100.I20100526-0800,"org.eclipse.compare",1335496175466
stopped,bundle,org.eclipse.ui.externaltools,3.2.0.v20100427,"org.eclipse.ui.externaltools",1335496175468
stopped,bundle,org.eclipse.cdt.debug.ui.memory.transport,2.1.0.201006141710,"org.eclipse.cdt.debug.ui.memory.transport",1335496175470
stopped,bundle,org.eclipse.debug.ui,3.6.0.v20100601-1530,"org.eclipse.debug.ui",1335496175470
stopped,bundle,org.eclipse.mylyn.wikitext.ui,1.3.0.v20100608-0100-e3x,"org.eclipse.mylyn.wikitext.ui",1335496175473
stopped,bundle,org.eclipse.gmf.runtime.diagram.ui.providers.ide,1.2.0.v20090403-1720,"org.eclipse.gmf.runtime.diagram.ui.providers.ide",1335496175474
