what,kind,bundleId,bundleVersion,description,time
stopped,bundle,oracle.eclipse.tools.webservices,4.2.0.201112072225,"oracle.eclipse.tools.webservices",1346202959124
stopped,bundle,oracle.eclipse.tools.adf.appgen.ui,4.2.0.201112072225,"oracle.eclipse.tools.adf.appgen.ui",1346202959125
stopped,bundle,oracle.eclipse.tools.adf.appgen,4.2.0.201112072225,"oracle.eclipse.tools.adf.appgen",1346202959125
stopped,bundle,oracle.eclipse.tools.webtier.jsf.ui,4.2.0.201112072225,"oracle.eclipse.tools.webtier.jsf.ui",1346202959125
stopped,bundle,oracle.eclipse.tools.webtier.jsf,4.2.0.201112072225,"oracle.eclipse.tools.webtier.jsf",1346202959125
stopped,bundle,oracle.eclipse.tools.webtier.html.ui,4.2.0.201112072225,"oracle.eclipse.tools.webtier.html.ui",1346202959125
stopped,bundle,oracle.eclipse.tools.webtier.jstl.ui,4.2.0.201112072225,"oracle.eclipse.tools.webtier.jstl.ui",1346202959125
stopped,bundle,oracle.eclipse.tools.webtier.jsp.ui,4.2.0.201112072225,"oracle.eclipse.tools.webtier.jsp.ui",1346202959125
stopped,bundle,oracle.eclipse.tools.webtier.ui,4.2.0.201112072225,"oracle.eclipse.tools.webtier.ui",1346202959126
stopped,bundle,oracle.eclipse.tools.weblogic,4.2.0.201112072225,"oracle.eclipse.tools.weblogic",1346202959126
stopped,bundle,overlay.com.android.ide.eclipse.adt.overlay,16.0.1.v201112150204-238534,"overlay.com.android.ide.eclipse.adt.overlay",1346202959126
stopped,bundle,com.android.ide.eclipse.adt,16.0.1.v201112150204-238534,"com.android.ide.eclipse.adt",1346202959155
stopped,bundle,oracle.eclipse.tools.webtier.trinidad,4.2.0.201112072225,"oracle.eclipse.tools.webtier.trinidad",1346202959155
stopped,bundle,org.eclipse.jst.jsf.apache.trinidad.tagsupport,1.1.200.v201104061711,"org.eclipse.jst.jsf.apache.trinidad.tagsupport",1346202959155
stopped,bundle,org.eclipse.jst.jsf.facesconfig.ui,1.2.2.v201103292152,"org.eclipse.jst.jsf.facesconfig.ui",1346202959155
stopped,bundle,org.eclipse.jst.jsf.ui,1.3.2.v201104251204,"org.eclipse.jst.jsf.ui",1346202959156
stopped,bundle,oracle.eclipse.tools.webtier.jstl,4.2.0.201112072225,"oracle.eclipse.tools.webtier.jstl",1346202959156
stopped,bundle,oracle.eclipse.tools.xml.edit.ui,4.2.0.201112072225,"oracle.eclipse.tools.xml.edit.ui",1346202959156
stopped,bundle,org.eclipse.jst.pagedesigner.jsf.ui,1.2.100.v201104061711,"org.eclipse.jst.pagedesigner.jsf.ui",1346202959156
stopped,bundle,org.eclipse.jst.pagedesigner,1.3.103.v201109010833-p001,"org.eclipse.jst.pagedesigner",1346202959156
stopped,bundle,org.eclipse.jst.jsf.common.ui,1.2.100.v201104061711,"org.eclipse.jst.jsf.common.ui",1346202959156
stopped,bundle,org.eclipse.pde.ua.ui,1.0.100.v20110516,"org.eclipse.pde.ua.ui",1346202959156
stopped,bundle,org.eclipse.datatools.connectivity.oda.template.ui,3.2.2.v201108260345,"org.eclipse.datatools.connectivity.oda.template.ui",1346202959156
stopped,bundle,org.eclipse.pde.api.tools.ui,1.0.301.v20110803_r371,"org.eclipse.pde.api.tools.ui",1346202959157
stopped,bundle,org.eclipse.pde.ds.ui,1.0.100.v20110516,"org.eclipse.pde.ds.ui",1346202959157
stopped,bundle,org.eclipse.pde.runtime,3.4.201.v20110819-0851,"org.eclipse.pde.runtime",1346202959157
stopped,bundle,org.eclipse.pde.ui.templates,3.4.400.v20110516,"org.eclipse.pde.ui.templates",1346202959157
stopped,bundle,org.scala-ide.sdt.core,2.0.0.v-2_09-201112200102-82421c5,"org.scala-ide.sdt.core",1346202959157
stopped,bundle,org.scala-ide.sdt.aspects,2.0.0.v-2_09-201112200102-82421c5,"org.scala-ide.sdt.aspects",1346202959157
stopped,bundle,org.eclipse.pde.ui,3.6.100.v20110603,"org.eclipse.pde.ui",1346202959164
stopped,bundle,org.eclipse.cdt,8.0.0.201109151620,"org.eclipse.cdt",1346202959164
stopped,bundle,org.eclipse.cdt.doc.user,5.1.0.201109151620,"org.eclipse.cdt.doc.user",1346202959164
stopped,bundle,org.eclipse.ui.cheatsheets,3.4.100.v20110425,"org.eclipse.ui.cheatsheets",1346202959164
stopped,bundle,org.eclipse.help.ui,3.5.101.r37_20110819,"org.eclipse.help.ui",1346202959164
stopped,bundle,org.eclipse.help.webapp,3.6.0.v20110518,"org.eclipse.help.webapp",1346202959164
stopped,bundle,org.eclipse.epp.mpc.ui,1.1.1.I20110907-0947,"org.eclipse.epp.mpc.ui",1346202959164
stopped,bundle,org.eclipse.epp.usagedata.ui,1.3.1.R201106061540,"org.eclipse.epp.usagedata.ui",1346202959165
stopped,bundle,org.eclipse.ui.intro.universal,3.2.500.v20110510,"org.eclipse.ui.intro.universal",1346202959165
stopped,bundle,org.eclipse.ui.intro,3.4.100.v20110425,"org.eclipse.ui.intro",1346202959165
stopped,bundle,org.eclipse.jpt.jpa.ui,3.0.1.v201108080010,"org.eclipse.jpt.jpa.ui",1346202959165
stopped,bundle,org.eclipse.datatools.connectivity.db.generic.ui,1.0.1.v201004070709,"org.eclipse.datatools.connectivity.db.generic.ui",1346202959165
stopped,bundle,oracle.eclipse.tools.database.ui,4.2.0.201112072225,"oracle.eclipse.tools.database.ui",1346202959165
stopped,bundle,oracle.eclipse.tools.database.sqltools,4.2.0.201112072225,"oracle.eclipse.tools.database.sqltools",1346202959165
stopped,bundle,oracle.eclipse.tools.database.connectivity,4.2.0.201112072225,"oracle.eclipse.tools.database.connectivity",1346202959165
stopped,bundle,org.eclipse.datatools.sqltools.data.ui,1.2.1.v201010270945,"org.eclipse.datatools.sqltools.data.ui",1346202959165
stopped,bundle,org.eclipse.datatools.connectivity.sqm.server.ui,1.1.100.v201009280455,"org.eclipse.datatools.connectivity.sqm.server.ui",1346202959165
stopped,bundle,org.eclipse.datatools.sqltools.ddlgen.ui,1.0.1.v201002270530,"org.eclipse.datatools.sqltools.ddlgen.ui",1346202959165
stopped,bundle,org.eclipse.datatools.sqltools.routineeditor.ui,1.0.1.v201004060545,"org.eclipse.datatools.sqltools.routineeditor.ui",1346202959165
stopped,bundle,org.eclipse.datatools.sqltools.sqlscrapbook,1.0.1.v201005250945,"org.eclipse.datatools.sqltools.sqlscrapbook",1346202959165
stopped,bundle,org.eclipse.datatools.sqltools.sqleditor,1.0.2.v201009230800,"org.eclipse.datatools.sqltools.sqleditor",1346202959165
stopped,bundle,org.eclipse.datatools.sqltools.editor.core.ui,1.0.0.v201001150815,"org.eclipse.datatools.sqltools.editor.core.ui",1346202959165
stopped,bundle,org.eclipse.datatools.sqltools.tabledataeditor,1.0.1.v201005250945,"org.eclipse.datatools.sqltools.tabledataeditor",1346202959166
stopped,bundle,org.eclipse.datatools.connectivity.sqm.core.ui,1.2.0.v201002281800,"org.eclipse.datatools.connectivity.sqm.core.ui",1346202959166
stopped,bundle,org.eclipse.datatools.connectivity.ui.dse,1.1.4.v201004270430,"org.eclipse.datatools.connectivity.ui.dse",1346202959166
stopped,bundle,org.eclipse.help.base,3.6.1.v201109091335,"org.eclipse.help.base",1346202959166
stopped,bundle,org.eclipse.equinox.http.jetty,2.0.100.v20110502,"org.eclipse.equinox.http.jetty",1346202959166
stopped,bundle,org.eclipse.m2e.core.ui,1.0.100.20110804-1717,"org.eclipse.m2e.core.ui",1346202959166
stopped,bundle,org.eclipse.m2e.core,1.0.100.20110804-1717,"org.eclipse.m2e.core",1346202959197
stopped,bundle,org.eclipse.mylyn.ide.ant,3.6.0.v20110608-1400,"org.eclipse.mylyn.ide.ant",1346202959198
stopped,bundle,oracle.eclipse.tools.glassfish,4.2.0.201111040904,"oracle.eclipse.tools.glassfish",1346202959246
stopped,bundle,org.eclipse.jst.server.generic.ui,1.0.505.v20100428,"org.eclipse.jst.server.generic.ui",1346202959246
stopped,bundle,org.eclipse.jst.server.generic.core,1.0.700.v20101219,"org.eclipse.jst.server.generic.core",1346202959246
stopped,bundle,org.eclipse.ant.ui,3.5.100.v20110510,"org.eclipse.ant.ui",1346202959246
stopped,bundle,org.eclipse.ant.launching,1.0.100.v20110506,"org.eclipse.ant.launching",1346202959246
stopped,bundle,org.eclipse.egit.mylyn.ui,1.1.0.201109151100-r,"org.eclipse.egit.mylyn.ui",1346202959246
stopped,bundle,org.eclipse.egit.ui,1.1.0.201109151100-r,"org.eclipse.egit.ui",1346202959248
stopped,bundle,org.eclipse.equinox.p2.ui.sdk,1.0.200.v20110502-1955,"org.eclipse.equinox.p2.ui.sdk",1346202959248
stopped,bundle,org.eclipse.mylyn.java.tasks,3.6.0.v20110608-1400,"org.eclipse.mylyn.java.tasks",1346202959248
stopped,bundle,org.eclipse.mylyn.java.ui,3.6.0.v20110608-1400,"org.eclipse.mylyn.java.ui",1346202959248
stopped,bundle,org.eclipse.jst.server.ui,1.1.202.v20110419,"org.eclipse.jst.server.ui",1346202959248
stopped,bundle,org.eclipse.jdt.junit,3.7.0.v20110505-0800,"org.eclipse.jdt.junit",1346202959248
stopped,bundle,org.eclipse.jdt.apt.ui,3.3.300.v20110305-1450,"org.eclipse.jdt.apt.ui",1346202959248
stopped,bundle,oracle.eclipse.tools.adf.sd.ui,4.2.0.201112072225,"oracle.eclipse.tools.adf.sd.ui",1346202959249
stopped,bundle,oracle.eclipse.tools.adf.sd,4.2.0.201112072225,"oracle.eclipse.tools.adf.sd",1346202959249
stopped,bundle,org.eclipse.xtext.ui.codetemplates.ui,2.0.1.v201108020636,"org.eclipse.xtext.ui.codetemplates.ui",1346202959249
stopped,bundle,org.eclipse.xtext.ui.codetemplates,2.0.1.v201108020636,"org.eclipse.xtext.ui.codetemplates",1346202959249
stopped,bundle,gov.sandia.jess.debug,7.1.0,"gov.sandia.jess.debug",1346202959249
stopped,bundle,oracle.eclipse.tools.envcheck,4.2.1.201203120349,"oracle.eclipse.tools.envcheck",1346202959249
stopped,bundle,ccw.debug,1.0.6.STABLE,"ccw.debug",1346202959249
stopped,bundle,ccw.core,0.8.0.STABLE001,"ccw.core",1346202959249
stopped,bundle,org.eclipse.jdt.debug.ui,3.6.1.v20110803_r371,"org.eclipse.jdt.debug.ui",1346202959249
stopped,bundle,org.eclipse.wb.swing.databinding,1.1.0.r37x201109091143,"org.eclipse.wb.swing.databinding",1346202959249
stopped,bundle,org.eclipse.wb.core.databinding,1.1.0.r37x201109091012,"org.eclipse.wb.core.databinding",1346202959249
stopped,bundle,org.eclipse.wb.swing.FormLayout,1.1.0.r37x201109091143,"org.eclipse.wb.swing.FormLayout",1346202959249
stopped,bundle,org.eclipse.wb.swing.MigLayout,1.1.0.r37x201109091143,"org.eclipse.wb.swing.MigLayout",1346202959249
stopped,bundle,org.eclipse.wb.swing.java6,1.1.0.r37x201109091143,"org.eclipse.wb.swing.java6",1346202959250
stopped,bundle,org.eclipse.wb.swing.jsr296,1.1.0.r37x201109091143,"org.eclipse.wb.swing.jsr296",1346202959250
stopped,bundle,org.eclipse.wb.swing,1.1.0.r37x201109091143,"org.eclipse.wb.swing",1346202959250
stopped,bundle,org.eclipse.wb.core.ui,1.1.0.r37x201109091028,"org.eclipse.wb.core.ui",1346202959250
stopped,bundle,org.eclipse.wb.layout.group,1.1.0.r37x201109091112,"org.eclipse.wb.layout.group",1346202959250
stopped,bundle,org.eclipse.wb.os.linux,1.1.0.r37x201109091012,"org.eclipse.wb.os.linux",1346202959250
stopped,bundle,org.eclipse.wb.core,1.1.0.r37x201109091012,"org.eclipse.wb.core",1346202959250
stopped,bundle,com.python.pydev.codecompletion,2.2.3.2011100616,"com.python.pydev.codecompletion",1346202959250
stopped,bundle,com.python.pydev.refactoring,2.2.3.2011100616,"com.python.pydev.refactoring",1346202959250
stopped,bundle,oracle.eclipse.tools.webtier.struts.ui,4.2.0.201112072225,"oracle.eclipse.tools.webtier.struts.ui",1346202959250
stopped,bundle,oracle.eclipse.tools.common.services.ui,4.2.0.201112072225,"oracle.eclipse.tools.common.services.ui",1346202959250
stopped,bundle,oracle.eclipse.tools.xmlbeans.ui,4.2.0.201112072225,"oracle.eclipse.tools.xmlbeans.ui",1346202959251
stopped,bundle,oracle.eclipse.tools.xmlbeans,4.2.0.201112072225,"oracle.eclipse.tools.xmlbeans",1346202959251
stopped,bundle,org.eclipse.jpt.jpa.eclipselink.core,2.0.1.v201108303010,"org.eclipse.jpt.jpa.eclipselink.core",1346202959251
stopped,bundle,org.eclipse.jpt.jpa.core,3.0.1.v201109073010,"org.eclipse.jpt.jpa.core",1346202959256
stopped,bundle,org.eclipse.jpt.jpa.db,2.0.0.v201105030000,"org.eclipse.jpt.jpa.db",1346202959256
stopped,bundle,org.eclipse.datatools.enablement.jdt.classpath,1.0.1.v201004070709,"org.eclipse.datatools.enablement.jdt.classpath",1346202959256
stopped,bundle,org.eclipse.jpt.common.ui,1.0.0.v201104120000,"org.eclipse.jpt.common.ui",1346202959256
stopped,bundle,oracle.eclipse.tools.webtier.trinidad.ui,4.2.0.201112072225,"oracle.eclipse.tools.webtier.trinidad.ui",1346202959256
stopped,bundle,org.eclipse.jst.ejb.ui,1.1.600.v201104261451,"org.eclipse.jst.ejb.ui",1346202959256
stopped,bundle,org.eclipse.jst.servlet.ui,1.1.501.v201108220630,"org.eclipse.jst.servlet.ui",1346202959256
stopped,bundle,org.eclipse.jst.jee.ui,1.0.400.v201105122000,"org.eclipse.jst.jee.ui",1346202959256
stopped,bundle,org.eclipse.jst.j2ee.navigator.ui,1.1.501.v201107261503,"org.eclipse.jst.j2ee.navigator.ui",1346202959256
stopped,bundle,org.eclipse.jst.j2ee.jca.ui,1.1.400.v201004150700,"org.eclipse.jst.j2ee.jca.ui",1346202959256
stopped,bundle,oracle.eclipse.tools.common.upgrade,4.2.1.201203120349,"oracle.eclipse.tools.common.upgrade",1346202959256
stopped,bundle,oracle.eclipse.tools.common.ui,4.2.1.201203120349,"oracle.eclipse.tools.common.ui",1346202959256
stopped,bundle,org.eclipse.jst.j2ee.ui,1.1.501.v201108231700,"org.eclipse.jst.j2ee.ui",1346202959256
stopped,bundle,org.eclipse.jst.ws.jaxrs.ui,1.0.401.v201108230518,"org.eclipse.jst.ws.jaxrs.ui",1346202959256
stopped,bundle,org.eclipse.jst.common.project.facet.ui,1.4.200.v201008182133,"org.eclipse.jst.common.project.facet.ui",1346202959257
stopped,bundle,org.eclipse.jst.common.ui,1.0.100.v201105030440,"org.eclipse.jst.common.ui",1346202959257
stopped,bundle,oracle.eclipse.tools.webtier.jsp,4.2.0.201112072225,"oracle.eclipse.tools.webtier.jsp",1346202959257
stopped,bundle,oracle.eclipse.tools.webtier.javawebapp,4.2.0.201112072225,"oracle.eclipse.tools.webtier.javawebapp",1346202959257
stopped,bundle,oracle.eclipse.tools.webtier.struts,4.2.0.201112072225,"oracle.eclipse.tools.webtier.struts",1346202959257
stopped,bundle,oracle.eclipse.tools.webtier.common.services,4.2.0.201112072225,"oracle.eclipse.tools.webtier.common.services",1346202959257
stopped,bundle,oracle.eclipse.tools.webtier.html,4.2.0.201112072225,"oracle.eclipse.tools.webtier.html",1346202959257
stopped,bundle,oracle.eclipse.tools.application.common.services,4.2.0.201112072225,"oracle.eclipse.tools.application.common.services",1346202959257
stopped,bundle,oracle.eclipse.tools.xml.model,4.2.0.201112072225,"oracle.eclipse.tools.xml.model",1346202959257
stopped,bundle,oracle.eclipse.tools.common.services,4.2.0.201112072225,"oracle.eclipse.tools.common.services",1346202959261
stopped,bundle,org.eclipse.jst.jsf.facelet.core,1.0.100.v201104191527,"org.eclipse.jst.jsf.facelet.core",1346202959261
stopped,bundle,org.eclipse.jst.jsf.core,1.3.105.v201108261005,"org.eclipse.jst.jsf.core",1346202959261
stopped,bundle,org.eclipse.jst.pagedesigner.jsp.core,1.2.0.v20100308,"org.eclipse.jst.pagedesigner.jsp.core",1346202959261
stopped,bundle,oracle.eclipse.tools.cloud.doc,4.2.0.201112072225,"oracle.eclipse.tools.cloud.doc",1346202959261
stopped,bundle,oracle.eclipse.tools.coherence.doc,4.2.0.201112072225,"oracle.eclipse.tools.coherence.doc",1346202959262
stopped,bundle,oracle.eclipse.tools.database.doc,4.2.0.201112072225,"oracle.eclipse.tools.database.doc",1346202959262
stopped,bundle,oracle.eclipse.tools.weblogic.doc,4.2.0.201112072225,"oracle.eclipse.tools.weblogic.doc",1346202959262
stopped,bundle,oracle.eclipse.tools.webtier.doc,4.2.0.201112072225,"oracle.eclipse.tools.webtier.doc",1346202959262
stopped,bundle,oracle.eclipse.tools.common.doc,4.2.1.201203120349,"oracle.eclipse.tools.common.doc",1346202959262
stopped,bundle,oracle.eclipse.tools.common.templating,4.2.1.201203120349,"oracle.eclipse.tools.common.templating",1346202959262
stopped,bundle,oracle.eclipse.tools.common,4.2.1.201203120349,"oracle.eclipse.tools.common",1346202959262
stopped,bundle,org.eclipse.jst.jsf.common,1.2.3.v201104061039,"org.eclipse.jst.jsf.common",1346202959262
stopped,bundle,org.springframework.ide.eclipse.beans.ui.refactoring,2.8.0.201110170010-RELEASE,"org.springframework.ide.eclipse.beans.ui.refactoring",1346202959262
stopped,bundle,org.springframework.ide.eclipse.beans.ui.editor,2.8.0.201110170010-RELEASE,"org.springframework.ide.eclipse.beans.ui.editor",1346202959262
stopped,bundle,org.eclipse.jst.jsp.ui,1.1.601.v201108151912,"org.eclipse.jst.jsp.ui",1346202959262
stopped,bundle,org.eclipse.sapphire.java.jdt.ui,0.4.0.201112010656,"org.eclipse.sapphire.java.jdt.ui",1346202959262
stopped,bundle,org.eclipse.xtext.ui.shared,2.0.1.v201108020636,"org.eclipse.xtext.ui.shared",1346202959262
stopped,bundle,org.eclipse.xtext.builder,2.0.1.v201108020636,"org.eclipse.xtext.builder",1346202959262
stopped,bundle,org.eclipse.xtext.common.types.ui,2.0.1.v201108020636,"org.eclipse.xtext.common.types.ui",1346202959262
stopped,bundle,com.python.pydev.analysis,2.2.3.2011100616,"com.python.pydev.analysis",1346202959263
stopped,bundle,com.python.pydev.debug,2.2.3.2011100616,"com.python.pydev.debug",1346202959263
stopped,bundle,com.python.pydev.fastparser,2.2.3.2011100616,"com.python.pydev.fastparser",1346202959263
stopped,bundle,org.python.pydev.red_core,2.2.3.2011100616,"org.python.pydev.red_core",1346202959263
stopped,bundle,com.python.pydev,2.2.3.2011100616,"com.python.pydev",1346202959263
stopped,bundle,org.python.pydev.django,2.2.3.2011100616,"org.python.pydev.django",1346202959263
stopped,bundle,org.python.pydev.customizations,2.2.3.2011100616,"org.python.pydev.customizations",1346202959263
stopped,bundle,org.python.pydev.debug,2.2.3.2011100616,"org.python.pydev.debug",1346202959266
stopped,bundle,org.python.pydev.refactoring,2.2.3.2011100616,"org.python.pydev.refactoring",1346202959266
stopped,bundle,org.python.pydev,2.2.3.2011100616,"org.python.pydev",1346202959302
stopped,bundle,org.springframework.ide.eclipse.beans.ui.graph,2.8.0.201110170010-RELEASE,"org.springframework.ide.eclipse.beans.ui.graph",1346202959302
stopped,bundle,org.springframework.ide.eclipse.beans.ui.search,2.8.0.201110170010-RELEASE,"org.springframework.ide.eclipse.beans.ui.search",1346202959303
stopped,bundle,org.springframework.ide.eclipse.beans.ui,2.8.0.201110170010-RELEASE,"org.springframework.ide.eclipse.beans.ui",1346202959303
stopped,bundle,org.springframework.ide.eclipse.ui,2.8.0.201110170010-RELEASE,"org.springframework.ide.eclipse.ui",1346202959303
stopped,bundle,edu.rice.cs.drjava,0.9.9.20090115-r4708,"edu.rice.cs.drjava",1346202959303
stopped,bundle,gov.sandia.jess.reteview,7.1.0,"gov.sandia.jess.reteview",1346202959303
stopped,bundle,gov.sandia.jess.editor,7.1.0,"gov.sandia.jess.editor",1346202959303
stopped,bundle,com.mountainminds.eclemma.ui,1.5.1,"com.mountainminds.eclemma.ui",1346202959303
stopped,bundle,net.sf.eclipsecs.ui,5.1.1.201008161956,"net.sf.eclipsecs.ui",1346202959305
stopped,bundle,net.sf.eclipsecs.core,5.1.1.201008161956,"net.sf.eclipsecs.core",1346202959305
stopped,bundle,net.sf.webcat.eclipse.perspective.java,1.5.0.201101121126,"net.sf.webcat.eclipse.perspective.java",1346202959305
stopped,bundle,edu.buffalo.cse.green.relationship.association,3.5.0,"edu.buffalo.cse.green.relationship.association",1346202959305
stopped,bundle,edu.buffalo.cse.green.relationship.composition,3.5.0,"edu.buffalo.cse.green.relationship.composition",1346202959305
stopped,bundle,edu.buffalo.cse.green.relationship.dependency,3.5.0,"edu.buffalo.cse.green.relationship.dependency",1346202959305
stopped,bundle,edu.buffalo.cse.green.relationship.generalization,3.5.0,"edu.buffalo.cse.green.relationship.generalization",1346202959305
stopped,bundle,edu.buffalo.cse.green.relationship.realization,3.5.0,"edu.buffalo.cse.green.relationship.realization",1346202959305
stopped,bundle,edu.buffalo.cse.green.save.svg,3.5.0,"edu.buffalo.cse.green.save.svg",1346202959305
stopped,bundle,edu.buffalo.cse.green,3.5.0,"edu.buffalo.cse.green",1346202959305
stopped,bundle,org.eclipse.gmf.bridge,1.1.0.v20090528-1000,"org.eclipse.gmf.bridge",1346202959306
stopped,bundle,org.eclipse.gmf.codegen.edit,2.2.100.v20100309-2359,"org.eclipse.gmf.codegen.edit",1346202959306
stopped,bundle,org.eclipse.gmf.codegen,2.1.1.v20090212-1755,"org.eclipse.gmf.codegen",1346202959306
stopped,bundle,org.eclipse.gmf.graphdef.codegen,2.0.100.v20080528-1052,"org.eclipse.gmf.graphdef.codegen",1346202959306
stopped,bundle,org.eclipse.gmf.map.edit,2.2.0.v20090114-1925,"org.eclipse.gmf.map.edit",1346202959306
stopped,bundle,org.eclipse.gmf.graphdef.edit,2.0.200.v20090216-1925,"org.eclipse.gmf.graphdef.edit",1346202959306
stopped,bundle,org.eclipse.gmf.map,2.2.0.v20090520-1343,"org.eclipse.gmf.map",1346202959306
stopped,bundle,org.eclipse.gmf.tooldef.edit,2.0.100.v20090114-0940,"org.eclipse.gmf.tooldef.edit",1346202959306
stopped,bundle,org.eclipse.gmf.tooldef,2.0.0.v20090114-0940,"org.eclipse.gmf.tooldef",1346202959306
stopped,bundle,org.eclipse.gmf.common,1.1.1.v20080610-1132,"org.eclipse.gmf.common",1346202959306
stopped,bundle,com.android.ide.eclipse.traceview,16.0.1.v201112150204-238534,"com.android.ide.eclipse.traceview",1346202959306
stopped,bundle,com.collabnet.subversion.merge,2.2.4,"com.collabnet.subversion.merge",1346202959307
stopped,bundle,org.tigris.subversion.subclipse.graph,1.0.9,"org.tigris.subversion.subclipse.graph",1346202959307
stopped,bundle,org.tigris.subversion.subclipse.mylyn,3.0.0,"org.tigris.subversion.subclipse.mylyn",1346202959307
stopped,bundle,org.tigris.subversion.subclipse.tools.usage,1.0.1,"org.tigris.subversion.subclipse.tools.usage",1346202959309
stopped,bundle,org.tigris.subversion.subclipse.ui,1.6.18,"org.tigris.subversion.subclipse.ui",1346202959309
stopped,bundle,oracle.eclipse.tools.sapphire.ui.legacy,4.2.1.201203120349,"oracle.eclipse.tools.sapphire.ui.legacy",1346202959309
stopped,bundle,edu.buffalo.cse.jive.ui,1.9.23.v20120413b,"edu.buffalo.cse.jive.ui",1346202959310
stopped,bundle,org.eclipse.jdt.ui,3.7.1.r371_v20110824-0800,"org.eclipse.jdt.ui",1346202959382
stopped,bundle,org.eclipse.wst.dtd.ui,1.0.600.v201103171359,"org.eclipse.wst.dtd.ui",1346202959382
stopped,bundle,org.eclipse.wst.xsd.ui,1.2.404.v201105050216,"org.eclipse.wst.xsd.ui",1346202959383
stopped,bundle,org.eclipse.sapphire.ui.swt.xml.editor,0.4.0.201112010656,"org.eclipse.sapphire.ui.swt.xml.editor",1346202959383
stopped,bundle,org.eclipse.wst.web.ui,1.1.400.v201004141630,"org.eclipse.wst.web.ui",1346202959383
stopped,bundle,org.eclipse.wst.html.ui,1.0.601.v201108152113,"org.eclipse.wst.html.ui",1346202959383
stopped,bundle,org.eclipse.wst.css.ui,1.0.600.v201103022054,"org.eclipse.wst.css.ui",1346202959383
stopped,bundle,org.eclipse.wst.xml.ui,1.1.201.v201108151912,"org.eclipse.wst.xml.ui",1346202959383
stopped,bundle,org.eclipse.wst.common.ui,1.1.500.v200911190730,"org.eclipse.wst.common.ui",1346202959383
stopped,bundle,org.eclipse.wst.sse.ui,1.3.1.v201108191312,"org.eclipse.wst.sse.ui",1346202959383
stopped,bundle,org.eclipse.wst.jsdt.ui,1.1.101.v201108151912,"org.eclipse.wst.jsdt.ui",1346202959383
stopped,bundle,org.eclipse.xtext.ui,2.0.1.v201108020636,"org.eclipse.xtext.ui",1346202959383
stopped,bundle,org.eclipse.cdt.codan.checkers.ui,1.0.0.201109151620,"org.eclipse.cdt.codan.checkers.ui",1346202959383
stopped,bundle,org.eclipse.cdt.codan.ui.cxx,2.0.0.201109151620,"org.eclipse.cdt.codan.ui.cxx",1346202959383
stopped,bundle,org.eclipse.cdt.codan.ui,2.0.0.201109151620,"org.eclipse.cdt.codan.ui",1346202959383
stopped,bundle,org.eclipse.cdt.debug.mi.ui,6.1.0.201109151620,"org.eclipse.cdt.debug.mi.ui",1346202959383
stopped,bundle,org.eclipse.cdt.dsf.gdb.ui,2.2.1.201109151620,"org.eclipse.cdt.dsf.gdb.ui",1346202959383
stopped,bundle,org.eclipse.cdt.dsf.ui,2.2.0.201109151620,"org.eclipse.cdt.dsf.ui",1346202959384
stopped,bundle,org.eclipse.cdt.gdb.ui,7.0.0.201109151620,"org.eclipse.cdt.gdb.ui",1346202959384
stopped,bundle,org.eclipse.cdt.dsf.gdb,4.0.1.201109151620,"org.eclipse.cdt.dsf.gdb",1346202959384
stopped,bundle,org.eclipse.cdt.launch,7.0.0.201109151620,"org.eclipse.cdt.launch",1346202959384
stopped,bundle,org.eclipse.cdt.debug.ui,7.1.1.201109151620,"org.eclipse.cdt.debug.ui",1346202959384
stopped,bundle,org.eclipse.cdt.managedbuilder.ui,8.0.0.201109151620,"org.eclipse.cdt.managedbuilder.ui",1346202959384
stopped,bundle,org.eclipse.cdt.make.ui,7.1.1.201109151620,"org.eclipse.cdt.make.ui",1346202959384
stopped,bundle,org.eclipse.cdt.ui,5.3.1.201109151620,"org.eclipse.cdt.ui",1346202959447
stopped,bundle,org.eclipse.search,3.7.0.v20110505-0800,"org.eclipse.search",1346202959455
stopped,bundle,org.eclipse.mylyn.commons.team,0.8.0.v20110608-1400,"org.eclipse.mylyn.commons.team",1346202959455
stopped,bundle,org.eclipse.mylyn.team.ui,3.6.1.v20110825-0100,"org.eclipse.mylyn.team.ui",1346202959456
stopped,bundle,org.eclipse.gmf.ecore.editor,2.1.0.v20090529-1925,"org.eclipse.gmf.ecore.editor",1346202959456
stopped,bundle,org.eclipse.ui.navigator.resources,3.4.300.I20110421-1800,"org.eclipse.ui.navigator.resources",1346202959456
stopped,bundle,org.eclipse.ltk.ui.refactoring,3.6.0.v20110505-0800,"org.eclipse.ltk.ui.refactoring",1346202959456
stopped,bundle,org.eclipse.mylyn.bugzilla.ui,3.6.0.v20110608-1400,"org.eclipse.mylyn.bugzilla.ui",1346202959456
stopped,bundle,org.eclipse.mylyn.ide.ui,3.6.0.v20110608-1400,"org.eclipse.mylyn.ide.ui",1346202959456
stopped,bundle,org.eclipse.mylyn.resources.ui,3.6.0.v20110608-1400,"org.eclipse.mylyn.resources.ui",1346202959456
stopped,bundle,org.eclipse.team.cvs.ui,3.3.400.I20110510-0800,"org.eclipse.team.cvs.ui",1346202959457
stopped,bundle,org.eclipse.team.ui,3.6.100.I20110525-0800,"org.eclipse.team.ui",1346202959457
stopped,bundle,org.eclipse.mylyn.wikitext.tasks.ui,1.5.0.v20110608-1400,"org.eclipse.mylyn.wikitext.tasks.ui",1346202959457
