what,kind,bundleId,bundleVersion,description,time
deactivated,workbench,org.eclipse.ui.workbench,3.6.0.I20100603-1100,"",1335573157385
activated,workbench,org.eclipse.ui.workbench,3.6.0.I20100603-1100,"",1335573162494
deactivated,workbench,org.eclipse.ui.workbench,3.6.0.I20100603-1100,"",1335573164358
error,log,,,"Unhandled event loop exception",1335573192675
activated,workbench,org.eclipse.ui.workbench,3.6.0.I20100603-1100,"",1335573205181
deactivated,workbench,org.eclipse.ui.workbench,3.6.0.I20100603-1100,"",1335573221219
activated,workbench,org.eclipse.ui.workbench,3.6.0.I20100603-1100,"",1335573223583
deactivated,workbench,org.eclipse.ui.workbench,3.6.0.I20100603-1100,"",1335573223588
activated,workbench,org.eclipse.ui.workbench,3.6.0.I20100603-1100,"",1335573225025
deactivated,workbench,org.eclipse.ui.workbench,3.6.0.I20100603-1100,"",1335573225029
activated,workbench,org.eclipse.ui.workbench,3.6.0.I20100603-1100,"",1335573226345
deactivated,workbench,org.eclipse.ui.workbench,3.6.0.I20100603-1100,"",1335573232204
opened,view,org.eclipse.team.cvs.ui,3.3.300.I20100526-0800,"org.eclipse.team.ccvs.ui.RepositoriesView",1335573238746
opened,view,org.eclipse.team.ui,3.5.100.I20100527-0800,"org.eclipse.team.ui.GenericHistoryView",1335573239284
opened,view,org.eclipse.mylyn.tasks.ui,3.4.1.v20100730-0100-e3x,"org.eclipse.mylyn.tasks.ui.views.repositories",1335573239637
activated,perspective,org.eclipse.team.cvs.ui,3.3.300.I20100526-0800,"org.eclipse.team.cvs.ui.cvsPerspective",1335573240898
started,bundle,org.eclipse.jdt.debug.ui,3.5.0.v20100602-0830,"org.eclipse.jdt.debug.ui",1335573241733
activated,editor,org.eclipse.jdt.ui,3.6.0.v20100602-1600,"org.eclipse.jdt.ui.CompilationUnitEditor",1335573241748
executed,command,org.eclipse.ui,3.6.0.I20100603-1100,"org.eclipse.ui.perspectives.showPerspective",1335573241944
executed,command,org.eclipse.ui,3.6.0.I20100603-1100,"org.eclipse.ui.perspectives.showPerspective",1335573241944
activated,workbench,org.eclipse.ui.workbench,3.6.0.I20100603-1100,"",1335573242876
activated,view,org.eclipse.team.cvs.ui,3.3.300.I20100526-0800,"org.eclipse.team.ccvs.ui.RepositoriesView",1335573246632
started,bundle,org.eclipse.jsch.ui,1.1.300.I20100505-1245,"org.eclipse.jsch.ui",1335573249225
deactivated,workbench,org.eclipse.ui.workbench,3.6.0.I20100603-1100,"",1335573249903
activated,workbench,org.eclipse.ui.workbench,3.6.0.I20100603-1100,"",1335573257359
deactivated,workbench,org.eclipse.ui.workbench,3.6.0.I20100603-1100,"",1335573268750
activated,perspective,org.eclipse.jdt.ui,3.6.0.v20100602-1600,"org.eclipse.jdt.ui.JavaPerspective",1335573280964
activated,editor,org.eclipse.jdt.ui,3.6.0.v20100602-1600,"org.eclipse.jdt.ui.CompilationUnitEditor",1335573281786
executed,command,org.eclipse.ui,3.6.0.I20100603-1100,"org.eclipse.ui.perspectives.showPerspective",1335573282167
executed,command,org.eclipse.ui,3.6.0.I20100603-1100,"org.eclipse.ui.perspectives.showPerspective",1335573282167
activated,workbench,org.eclipse.ui.workbench,3.6.0.I20100603-1100,"",1335573283719
activated,view,org.eclipse.jdt.ui,3.6.0.v20100602-1600,"org.eclipse.jdt.ui.PackageExplorer",1335573289713
executed,command,org.eclipse.ui,3.6.0.I20100603-1100,"org.eclipse.ui.edit.copy",1335573362878
deactivated,workbench,org.eclipse.ui.workbench,3.6.0.I20100603-1100,"",1335573372226
activated,workbench,org.eclipse.ui.workbench,3.6.0.I20100603-1100,"",1335573385824
deactivated,workbench,org.eclipse.ui.workbench,3.6.0.I20100603-1100,"",1335573397218
executed,command,org.eclipse.ui,3.6.0.I20100603-1100,"org.eclipse.ui.edit.delete",1335573402161
activated,workbench,org.eclipse.ui.workbench,3.6.0.I20100603-1100,"",1335573402937
started,bundle,org.springframework.ide.eclipse.beans.ui.refactoring,2.7.0.201107040453-RELEASE,"org.springframework.ide.eclipse.beans.ui.refactoring",1335573419328
executed,command,org.eclipse.ui,3.6.0.I20100603-1100,"org.eclipse.ui.edit.paste",1335573420550
deactivated,workbench,org.eclipse.ui.workbench,3.6.0.I20100603-1100,"",1335573432523
activated,workbench,org.eclipse.ui.workbench,3.6.0.I20100603-1100,"",1335573439914
deactivated,workbench,org.eclipse.ui.workbench,3.6.0.I20100603-1100,"",1335573442074
activated,workbench,org.eclipse.ui.workbench,3.6.0.I20100603-1100,"",1335573444343
started,bundle,org.python.pydev.core,2.1.0.2011052613,"org.python.pydev.core",1335573445761
started,bundle,org.python.pydev.debug,2.1.0.2011052613,"org.python.pydev.debug",1335573445764
started,bundle,org.eclipse.cdt.debug.mi.ui,6.1.0.201006141710,"org.eclipse.cdt.debug.mi.ui",1335573445830
started,bundle,org.eclipse.cdt.dsf,2.1.0.201006141710,"org.eclipse.cdt.dsf",1335573445846
started,bundle,org.eclipse.cdt.dsf.gdb,3.0.0.201006141710,"org.eclipse.cdt.dsf.gdb",1335573445848
started,bundle,org.eclipse.cdt.dsf.gdb.ui,2.1.0.201006141710,"org.eclipse.cdt.dsf.gdb.ui",1335573445849
started,bundle,com.python.pydev.analysis,2.1.0.2011052613,"com.python.pydev.analysis",1335573445888
started,bundle,org.python.pydev,2.1.0.2011052613,"org.python.pydev",1335573445918
started,bundle,org.eclipse.cdt.debug.mi.core,7.0.0.201006141710,"org.eclipse.cdt.debug.mi.core",1335573445935
error,log,,,"Server returned HTTP response code: 500 for URL: https://ping.aptana.com/ping.php",1335573446238
deactivated,workbench,org.eclipse.ui.workbench,3.6.0.I20100603-1100,"",1335573448562
error,log,,,"Unhandled event loop exception",1335573453383
activated,workbench,org.eclipse.ui.workbench,3.6.0.I20100603-1100,"",1335573454157
deactivated,workbench,org.eclipse.ui.workbench,3.6.0.I20100603-1100,"",1335573456003
activated,workbench,org.eclipse.ui.workbench,3.6.0.I20100603-1100,"",1335573456005
deactivated,workbench,org.eclipse.ui.workbench,3.6.0.I20100603-1100,"",1335573456708
error,log,,,"Unhandled event loop exception",1335573460443
activated,workbench,org.eclipse.ui.workbench,3.6.0.I20100603-1100,"",1335573462786
deactivated,workbench,org.eclipse.ui.workbench,3.6.0.I20100603-1100,"",1335573464935
activated,workbench,org.eclipse.ui.workbench,3.6.0.I20100603-1100,"",1335573464937
deactivated,workbench,org.eclipse.ui.workbench,3.6.0.I20100603-1100,"",1335573465491
error,log,,,"Unhandled event loop exception",1335573469187
activated,workbench,org.eclipse.ui.workbench,3.6.0.I20100603-1100,"",1335573469787
deactivated,workbench,org.eclipse.ui.workbench,3.6.0.I20100603-1100,"",1335573469966
activated,workbench,org.eclipse.ui.workbench,3.6.0.I20100603-1100,"",1335573476028
executed,command,org.eclipse.jdt.debug.ui,3.5.0.v20100602-0830,"org.eclipse.jdt.debug.ui.localJavaShortcut.debug",1335573490755
deactivated,workbench,org.eclipse.ui.workbench,3.6.0.I20100603-1100,"",1335573492225
started,bundle,org.eclipse.cdt.dsf.ui,2.1.0.201006141710,"org.eclipse.cdt.dsf.ui",1335573501381
opened,view,org.eclipse.debug.ui,3.6.0.v20100601-1530,"org.eclipse.debug.ui.DebugView",1335573502012
activated,workbench,org.eclipse.ui.workbench,3.6.0.I20100603-1100,"",1335573504671
deactivated,workbench,org.eclipse.ui.workbench,3.6.0.I20100603-1100,"",1335573506264
activated,workbench,org.eclipse.ui.workbench,3.6.0.I20100603-1100,"",1335573506269
deactivated,workbench,org.eclipse.ui.workbench,3.6.0.I20100603-1100,"",1335573506273
error,log,,,"Unhandled event loop exception",1335573510764
activated,workbench,org.eclipse.ui.workbench,3.6.0.I20100603-1100,"",1335573512620
deactivated,workbench,org.eclipse.ui.workbench,3.6.0.I20100603-1100,"",1335573517389
error,log,,,"Unhandled event loop exception",1335573518796
activated,workbench,org.eclipse.ui.workbench,3.6.0.I20100603-1100,"",1335573521202
deactivated,workbench,org.eclipse.ui.workbench,3.6.0.I20100603-1100,"",1335573527544
activated,workbench,org.eclipse.ui.workbench,3.6.0.I20100603-1100,"",1335573537222
deactivated,workbench,org.eclipse.ui.workbench,3.6.0.I20100603-1100,"",1335573538860
activated,workbench,org.eclipse.ui.workbench,3.6.0.I20100603-1100,"",1335573540877
deactivated,workbench,org.eclipse.ui.workbench,3.6.0.I20100603-1100,"",1335573540880
activated,workbench,org.eclipse.ui.workbench,3.6.0.I20100603-1100,"",1335573544178
opened,editor,org.eclipse.jdt.ui,3.6.0.v20100602-1600,"org.eclipse.jdt.ui.CompilationUnitEditor",1335573546259
activated,editor,org.eclipse.jdt.ui,3.6.0.v20100602-1600,"org.eclipse.jdt.ui.CompilationUnitEditor",1335573547427
deactivated,workbench,org.eclipse.ui.workbench,3.6.0.I20100603-1100,"",1335573555037
activated,workbench,org.eclipse.ui.workbench,3.6.0.I20100603-1100,"",1335573561122
deactivated,workbench,org.eclipse.ui.workbench,3.6.0.I20100603-1100,"",1335573562471
error,log,,,"Unhandled event loop exception",1335573569049
activated,workbench,org.eclipse.ui.workbench,3.6.0.I20100603-1100,"",1335573570296
deactivated,workbench,org.eclipse.ui.workbench,3.6.0.I20100603-1100,"",1335573572262
closed,workbench,org.eclipse.ui.workbench,3.6.0.I20100603-1100,"",1335573580539
stopped,bundle,org.eclipse.mylyn.ide.ant,3.4.0.v20100608-0100-e3x,"org.eclipse.mylyn.ide.ant",1335573582039
stopped,bundle,org.eclipse.ant.ui,3.5.0.v20100427,"org.eclipse.ant.ui",1335573582041
stopped,bundle,org.eclipse.ant.launching,1.0.0.v20100427,"org.eclipse.ant.launching",1335573582043
stopped,bundle,org.eclipse.equinox.p2.ui.sdk,1.0.100.v20100513,"org.eclipse.equinox.p2.ui.sdk",1335573582045
stopped,bundle,org.eclipse.mylyn.java.tasks,3.4.0.v20100608-0100-e3x,"org.eclipse.mylyn.java.tasks",1335573582047
stopped,bundle,org.eclipse.mylyn.java.ui,3.4.0.v20100608-0100-e3x,"org.eclipse.mylyn.java.ui",1335573582048
stopped,bundle,edu.buffalo.cse.jive.launching,1.9.1.v20111117b,"edu.buffalo.cse.jive.launching",1335573582050
stopped,bundle,edu.buffalo.cse.jive.console,1.9.1.v20111117b,"edu.buffalo.cse.jive.console",1335573582050
stopped,bundle,edu.buffalo.cse.jive.ui,1.9.1.v20111117b,"edu.buffalo.cse.jive.ui",1335573582058
stopped,bundle,org.eclipse.jdt.junit,3.6.0.v20100526-0800,"org.eclipse.jdt.junit",1335573582060
stopped,bundle,org.eclipse.jdt.apt.ui,3.3.300.v20100513-0845,"org.eclipse.jdt.apt.ui",1335573582062
stopped,bundle,edu.rice.cs.drjava,0.9.8,"edu.rice.cs.drjava",1335573582065
stopped,bundle,oracle.eclipse.tools.envcheck,3.2.3.201107052022,"oracle.eclipse.tools.envcheck",1335573582066
stopped,bundle,org.eclipse.jdt.debug.ui,3.5.0.v20100602-0830,"org.eclipse.jdt.debug.ui",1335573582066
stopped,bundle,edu.buffalo.cse.green.relationship.association,3.5.0,"edu.buffalo.cse.green.relationship.association",1335573582072
stopped,bundle,edu.buffalo.cse.green.relationship.composition,3.5.0,"edu.buffalo.cse.green.relationship.composition",1335573582075
stopped,bundle,edu.buffalo.cse.green.relationship.dependency,3.5.0,"edu.buffalo.cse.green.relationship.dependency",1335573582078
stopped,bundle,edu.buffalo.cse.green.relationship.generalization,3.5.0,"edu.buffalo.cse.green.relationship.generalization",1335573582082
stopped,bundle,edu.buffalo.cse.green.relationship.realization,3.5.0,"edu.buffalo.cse.green.relationship.realization",1335573582085
stopped,bundle,edu.buffalo.cse.green.save.svg,3.5.0,"edu.buffalo.cse.green.save.svg",1335573582088
stopped,bundle,edu.buffalo.cse.green,3.5.0,"edu.buffalo.cse.green",1335573582091
stopped,bundle,org.eclipse.gmf.bridge,1.1.100.v20100309-2359,"org.eclipse.gmf.bridge",1335573582093
stopped,bundle,org.eclipse.gmf.codegen.edit,2.2.100.v20100309-2359,"org.eclipse.gmf.codegen.edit",1335573582100
stopped,bundle,org.eclipse.gmf.codegen,2.2.100.v20100518-2359,"org.eclipse.gmf.codegen",1335573582102
stopped,bundle,org.eclipse.gmf.graphdef.codegen,2.0.100.v20100421-2359,"org.eclipse.gmf.graphdef.codegen",1335573582104
stopped,bundle,org.eclipse.gmf.map.edit,2.2.100.v20100309-2359,"org.eclipse.gmf.map.edit",1335573582106
stopped,bundle,org.eclipse.gmf.graphdef.edit,2.0.200.v20090216-1925,"org.eclipse.gmf.graphdef.edit",1335573582109
stopped,bundle,org.eclipse.gmf.map,2.2.100.v20100309-2359,"org.eclipse.gmf.map",1335573582111
stopped,bundle,org.eclipse.gmf.tooldef.edit,2.0.100.v20090114-0940,"org.eclipse.gmf.tooldef.edit",1335573582114
stopped,bundle,org.eclipse.gmf.tooldef,2.0.0.v20090114-0940,"org.eclipse.gmf.tooldef",1335573582116
stopped,bundle,org.eclipse.gmf.common,1.2.0.v20100226-2359,"org.eclipse.gmf.common",1335573582118
stopped,bundle,com.collabnet.subversion.merge,2.1.0,"com.collabnet.subversion.merge",1335573582118
stopped,bundle,org.tigris.subversion.subclipse.graph,1.0.8,"org.tigris.subversion.subclipse.graph",1335573582120
stopped,bundle,org.tigris.subversion.subclipse.mylyn,3.0.0,"org.tigris.subversion.subclipse.mylyn",1335573582120
stopped,bundle,org.tigris.subversion.subclipse.ui,1.6.13,"org.tigris.subversion.subclipse.ui",1335573582121
stopped,bundle,com.python.pydev.codecompletion,2.1.0.2011052613,"com.python.pydev.codecompletion",1335573582124
stopped,bundle,com.python.pydev.refactoring,2.1.0.2011052613,"com.python.pydev.refactoring",1335573582128
stopped,bundle,org.eclipse.pde.runtime,3.4.200.v20100601,"org.eclipse.pde.runtime",1335573582130
stopped,bundle,com.python.pydev.analysis,2.1.0.2011052613,"com.python.pydev.analysis",1335573582130
activated,perspective,org.eclipse.jdt.ui,,"org.eclipse.jdt.ui.JavaPerspective",1335573628030
started,bundle,org.eclipse.osgi,3.6.0.v20100517,"org.eclipse.osgi",1335573628032
started,bundle,org.eclipse.equinox.simpleconfigurator,1.0.200.v20100503,"org.eclipse.equinox.simpleconfigurator",1335573628033
started,bundle,com.ibm.icu,4.2.1.v20100412,"com.ibm.icu",1335573628034
started,bundle,org.eclipse.compare,3.5.100.I20100526-0800,"org.eclipse.compare",1335573628035
started,bundle,org.eclipse.compare.core,3.5.100.I20100526-0800,"org.eclipse.compare.core",1335573628036
started,bundle,org.eclipse.core.contenttype,3.4.100.v20100505-1235,"org.eclipse.core.contenttype",1335573628037
started,bundle,org.eclipse.core.databinding.observable,1.3.0.I20100601-0800,"org.eclipse.core.databinding.observable",1335573628038
started,bundle,org.eclipse.core.expressions,3.4.200.v20100505,"org.eclipse.core.expressions",1335573628039
started,bundle,org.eclipse.core.filebuffers,3.5.100.v20100520-0800,"org.eclipse.core.filebuffers",1335573628041
started,bundle,org.eclipse.core.filesystem,1.3.0.v20100526-0737,"org.eclipse.core.filesystem",1335573628042
started,bundle,org.eclipse.core.net,1.2.100.I20100511-0800,"org.eclipse.core.net",1335573628043
started,bundle,org.eclipse.core.resources,3.6.0.v20100526-0737,"org.eclipse.core.resources",1335573628044
started,bundle,org.eclipse.core.runtime,3.6.0.v20100505,"org.eclipse.core.runtime",1335573628045
started,bundle,org.eclipse.core.runtime.compatibility,3.2.100.v20100505,"org.eclipse.core.runtime.compatibility",1335573628045
started,bundle,org.eclipse.core.runtime.compatibility.auth,3.2.200.v20100517,"org.eclipse.core.runtime.compatibility.auth",1335573628048
started,bundle,org.eclipse.core.variables,3.2.400.v20100505,"org.eclipse.core.variables",1335573628049
started,bundle,org.eclipse.debug.core,3.6.0.v20100519,"org.eclipse.debug.core",1335573628051
started,bundle,org.eclipse.debug.ui,3.6.0.v20100601-1530,"org.eclipse.debug.ui",1335573628052
started,bundle,org.eclipse.epp.usagedata.gathering,1.3.0.R201005261100,"org.eclipse.epp.usagedata.gathering",1335573628053
started,bundle,org.eclipse.epp.usagedata.recording,1.3.0.R201005261100,"org.eclipse.epp.usagedata.recording",1335573628054
started,bundle,org.eclipse.equinox.app,1.3.0.v20100512,"org.eclipse.equinox.app",1335573628055
started,bundle,org.eclipse.equinox.common,3.6.0.v20100503,"org.eclipse.equinox.common",1335573628055
started,bundle,org.eclipse.equinox.ds,1.2.0.v20100507,"org.eclipse.equinox.ds",1335573628056
started,bundle,org.eclipse.equinox.event,1.2.0.v20100503,"org.eclipse.equinox.event",1335573628057
started,bundle,org.eclipse.equinox.p2.core,2.0.0.v20100510,"org.eclipse.equinox.p2.core",1335573628058
started,bundle,org.eclipse.equinox.p2.directorywatcher,1.0.200.v20100601,"org.eclipse.equinox.p2.directorywatcher",1335573628059
started,bundle,org.eclipse.equinox.p2.engine,2.0.0.v20100606,"org.eclipse.equinox.p2.engine",1335573628060
started,bundle,org.eclipse.equinox.p2.metadata,2.0.0.v20100601,"org.eclipse.equinox.p2.metadata",1335573628061
started,bundle,org.eclipse.equinox.p2.metadata.repository,1.1.0.v20100513,"org.eclipse.equinox.p2.metadata.repository",1335573628064
started,bundle,org.eclipse.equinox.p2.operations,2.0.0.v20100510,"org.eclipse.equinox.p2.operations",1335573628065
started,bundle,org.eclipse.equinox.p2.reconciler.dropins,1.1.0.v20100525,"org.eclipse.equinox.p2.reconciler.dropins",1335573628066
started,bundle,org.eclipse.equinox.p2.repository,2.0.0.v20100519,"org.eclipse.equinox.p2.repository",1335573628067
started,bundle,org.eclipse.equinox.p2.ui.sdk.scheduler,1.0.0.v20100507-1815,"org.eclipse.equinox.p2.ui.sdk.scheduler",1335573628068
started,bundle,org.eclipse.equinox.p2.updatechecker,1.1.100.v20100503a,"org.eclipse.equinox.p2.updatechecker",1335573628069
started,bundle,org.eclipse.equinox.preferences,3.3.0.v20100503,"org.eclipse.equinox.preferences",1335573628070
started,bundle,org.eclipse.equinox.registry,3.5.0.v20100503,"org.eclipse.equinox.registry",1335573628071
started,bundle,org.eclipse.equinox.security,1.0.200.v20100503,"org.eclipse.equinox.security",1335573628072
started,bundle,org.eclipse.equinox.util,1.0.200.v20100503,"org.eclipse.equinox.util",1335573628073
started,bundle,org.eclipse.help,3.5.0.v20100524,"org.eclipse.help",1335573628074
started,bundle,org.eclipse.jdt.apt.core,3.3.400.v20100513-0845,"org.eclipse.jdt.apt.core",1335573628075
started,bundle,org.eclipse.jdt.apt.pluggable.core,1.0.300.v20100513-0845,"org.eclipse.jdt.apt.pluggable.core",1335573628076
started,bundle,org.eclipse.jdt.core,3.6.0.v_A58,"org.eclipse.jdt.core",1335573628076
started,bundle,org.eclipse.jdt.core.manipulation,1.3.0.v20100520-0800,"org.eclipse.jdt.core.manipulation",1335573628077
started,bundle,org.eclipse.jdt.debug,3.6.0.v20100526,"org.eclipse.jdt.debug",1335573628082
started,bundle,org.eclipse.jdt.debug.ui,3.5.0.v20100602-0830,"org.eclipse.jdt.debug.ui",1335573628082
started,bundle,org.eclipse.jdt.launching,3.5.100.v20100526,"org.eclipse.jdt.launching",1335573628083
started,bundle,org.eclipse.jdt.ui,3.6.0.v20100602-1600,"org.eclipse.jdt.ui",1335573628083
started,bundle,org.eclipse.jface,3.6.0.I20100601-0800,"org.eclipse.jface",1335573628083
started,bundle,org.eclipse.jsch.core,1.1.200.I20100505-1245,"org.eclipse.jsch.core",1335573628084
started,bundle,org.eclipse.ltk.core.refactoring,3.5.100.v20100526-0800,"org.eclipse.ltk.core.refactoring",1335573628084
started,bundle,org.eclipse.ltk.ui.refactoring,3.5.0.v20100526-0800,"org.eclipse.ltk.ui.refactoring",1335573628086
started,bundle,org.eclipse.mylyn.commons.ui,3.4.0.v20100608-0100-e3x,"org.eclipse.mylyn.commons.ui",1335573628086
started,bundle,org.eclipse.mylyn.context.core,3.4.0.v20100608-0100-e3x,"org.eclipse.mylyn.context.core",1335573628087
started,bundle,org.eclipse.mylyn.monitor.ui,3.4.0.v20100608-0100-e3x,"org.eclipse.mylyn.monitor.ui",1335573628088
started,bundle,org.eclipse.mylyn.team.ui,3.4.0.v20100608-0100-e3x,"org.eclipse.mylyn.team.ui",1335573628088
started,bundle,org.eclipse.team.core,3.5.100.I20100527-0800,"org.eclipse.team.core",1335573628089
started,bundle,org.eclipse.team.cvs.core,3.3.300.I20100526-0800,"org.eclipse.team.cvs.core",1335573628089
started,bundle,org.eclipse.team.cvs.ui,3.3.300.I20100526-0800,"org.eclipse.team.cvs.ui",1335573628091
started,bundle,org.eclipse.team.ui,3.5.100.I20100527-0800,"org.eclipse.team.ui",1335573628091
started,bundle,org.eclipse.ui,3.6.0.I20100603-1100,"org.eclipse.ui",1335573628094
started,bundle,org.eclipse.ui.console,3.5.0.v20100526,"org.eclipse.ui.console",1335573628095
started,bundle,org.eclipse.ui.editors,3.6.0.v20100520-0800,"org.eclipse.ui.editors",1335573628095
started,bundle,org.eclipse.ui.forms,3.5.0.v20100427,"org.eclipse.ui.forms",1335573628096
started,bundle,org.eclipse.ui.ide,3.6.0.I20100601-0800,"org.eclipse.ui.ide",1335573628097
started,bundle,org.eclipse.ui.navigator,3.5.0.I20100601-0800,"org.eclipse.ui.navigator",1335573628098
started,bundle,org.eclipse.ui.net,1.2.100.I20100505-1245,"org.eclipse.ui.net",1335573628099
started,bundle,org.eclipse.ui.views,3.5.0.I20100527-0800,"org.eclipse.ui.views",1335573628099
started,bundle,org.eclipse.ui.workbench,3.6.0.I20100603-1100,"org.eclipse.ui.workbench",1335573628100
started,bundle,org.eclipse.ui.workbench.texteditor,3.6.0.v20100520-0800,"org.eclipse.ui.workbench.texteditor",1335573628102
started,bundle,org.eclipse.update.configurator,3.3.100.v20100512,"org.eclipse.update.configurator",1335573628103
started,bundle,org.eclipse.update.core,3.2.400.v20100512,"org.eclipse.update.core",1335573628104
started,bundle,org.eclipse.update.scheduler,3.2.300.v20100512,"org.eclipse.update.scheduler",1335573628105
started,bundle,com.collabnet.subversion.merge,2.1.0,"com.collabnet.subversion.merge",1335573628106
started,bundle,org.eclipse.mylyn.bugzilla.core,3.4.0.v20100730-0100-e3x,"org.eclipse.mylyn.bugzilla.core",1335573628107
started,bundle,org.eclipse.mylyn.bugzilla.ui,3.4.0.v20100730-0100-e3x,"org.eclipse.mylyn.bugzilla.ui",1335573628108
started,bundle,org.eclipse.mylyn.commons.net,3.4.1.v20100625-2100-e3x,"org.eclipse.mylyn.commons.net",1335573628108
started,bundle,org.eclipse.mylyn.context.ui,3.4.0.v20100730-0100-e3x,"org.eclipse.mylyn.context.ui",1335573628109
started,bundle,org.eclipse.mylyn.tasks.ui,3.4.1.v20100730-0100-e3x,"org.eclipse.mylyn.tasks.ui",1335573628110
started,bundle,org.tigris.subversion.clientadapter,1.6.12,"org.tigris.subversion.clientadapter",1335573628111
started,bundle,org.tigris.subversion.subclipse.core,1.6.13,"org.tigris.subversion.subclipse.core",1335573628112
started,bundle,org.tigris.subversion.subclipse.mylyn,3.0.0,"org.tigris.subversion.subclipse.mylyn",1335573628112
started,bundle,org.tigris.subversion.subclipse.ui,1.6.13,"org.tigris.subversion.subclipse.ui",1335573628114
started,bundle,org.eclipse.cdt.codan.core,1.0.0.201006141710,"org.eclipse.cdt.codan.core",1335573628115
started,bundle,org.eclipse.cdt.codan.core.cxx,1.0.0.201006141710,"org.eclipse.cdt.codan.core.cxx",1335573628115
started,bundle,org.eclipse.cdt.codan.ui.cxx,1.0.0.201006141710,"org.eclipse.cdt.codan.ui.cxx",1335573628116
started,bundle,org.eclipse.cdt.core,5.2.0.201006141710,"org.eclipse.cdt.core",1335573628118
started,bundle,org.eclipse.cdt.core.tests,5.1.0.201006141710,"org.eclipse.cdt.core.tests",1335573628120
started,bundle,org.eclipse.cdt.make.core,7.0.0.201006141710,"org.eclipse.cdt.make.core",1335573628120
started,bundle,org.eclipse.cdt.make.ui,7.0.0.201006141710,"org.eclipse.cdt.make.ui",1335573628121
started,bundle,org.eclipse.cdt.managedbuilder.core,7.0.0.201006141710,"org.eclipse.cdt.managedbuilder.core",1335573628122
started,bundle,org.eclipse.cdt.scripting,1.0.0.201006141710,"org.eclipse.cdt.scripting",1335573628123
started,bundle,org.eclipse.cdt.ui,5.2.0.201006141710,"org.eclipse.cdt.ui",1335573628124
started,bundle,org.eclipse.cdt.ui.tests,5.1.0.201006141710,"org.eclipse.cdt.ui.tests",1335573628126
started,bundle,edu.buffalo.cse.jive.console,1.9.1.v20111117b,"edu.buffalo.cse.jive.console",1335573628127
started,bundle,oracle.eclipse.tools.envcheck,3.2.3.201107052022,"oracle.eclipse.tools.envcheck",1335573628128
started,bundle,org.eclipse.core.jobs,3.5.0.v20100515-p002,"org.eclipse.core.jobs",1335573628129
os,sysinfo,,,"linux",1335573628134
arch,sysinfo,,,"x86_64",1335573628134
ws,sysinfo,,,"gtk",1335573628134
locale,sysinfo,,,"en_US",1335573628134
processors,sysinfo,,,"16",1335573628134
java.runtime.name,sysinfo,,,"Java(TM) SE Runtime Environment",1335573628134
java.runtime.version,sysinfo,,,"1.7.0_03-b04",1335573628134
java.specification.name,sysinfo,,,"Java Platform API Specification",1335573628134
java.specification.vendor,sysinfo,,,"Oracle Corporation",1335573628134
java.specification.version,sysinfo,,,"1.7",1335573628134
java.vendor,sysinfo,,,"Oracle Corporation",1335573628134
java.version,sysinfo,,,"1.7.0_03",1335573628134
java.vm.info,sysinfo,,,"mixed mode",1335573628134
java.vm.name,sysinfo,,,"Java HotSpot(TM) 64-Bit Server VM",1335573628134
java.vm.specification.name,sysinfo,,,"Java Virtual Machine Specification",1335573628134
java.vm.specification.vendor,sysinfo,,,"Oracle Corporation",1335573628134
java.vm.specification.version,sysinfo,,,"1.7",1335573628134
java.vm.vendor,sysinfo,,,"Oracle Corporation",1335573628134
java.vm.version,sysinfo,,,"22.1-b02",1335573628134
started,bundle,org.springframework.ide.eclipse.ui,2.7.0.201107040453-RELEASE,"org.springframework.ide.eclipse.ui",1335573628484
started,bundle,org.springframework.ide.eclipse.beans.ui,2.7.0.201107040453-RELEASE,"org.springframework.ide.eclipse.beans.ui",1335573628489
started,bundle,org.springframework.ide.eclipse.core,2.7.0.201107040453-RELEASE,"org.springframework.ide.eclipse.core",1335573628529
started,bundle,org.eclipse.wst.common.project.facet.core,1.4.100.v201005190114,"org.eclipse.wst.common.project.facet.core",1335573628544
started,bundle,org.springframework.ide.eclipse.beans.core,2.7.0.201107040453-RELEASE,"org.springframework.ide.eclipse.beans.core",1335573628555
started,bundle,org.eclipse.team.cvs.ssh2,3.2.300.I20100526-0800,"org.eclipse.team.cvs.ssh2",1335573629543
started,bundle,org.eclipse.cdt.debug.core,7.0.0.201006141710,"org.eclipse.cdt.debug.core",1335573634093
started,bundle,org.eclipse.cdt.debug.ui,7.0.0.201006141710,"org.eclipse.cdt.debug.ui",1335573634102
executed,command,org.eclipse.jdt.debug.ui,3.5.0.v20100602-0830,"org.eclipse.jdt.debug.ui.localJavaShortcut.run",1335573636711
