what,kind,bundleId,bundleVersion,description,time
activated,editor,org.eclipse.jdt.ui,3.6.0.v20100602-1600,"org.eclipse.jdt.ui.CompilationUnitEditor",1328290624135
closed,editor,org.eclipse.jdt.ui,3.6.0.v20100602-1600,"org.eclipse.jdt.ui.CompilationUnitEditor",1328290624135
activated,editor,org.eclipse.jdt.ui,3.6.0.v20100602-1600,"org.eclipse.jdt.ui.CompilationUnitEditor",1328290625332
closed,editor,org.eclipse.jdt.ui,3.6.0.v20100602-1600,"org.eclipse.jdt.ui.CompilationUnitEditor",1328290625332
activated,editor,org.eclipse.jdt.ui,3.6.0.v20100602-1600,"org.eclipse.jdt.ui.CompilationUnitEditor",1328290626438
closed,editor,org.eclipse.jdt.ui,3.6.0.v20100602-1600,"org.eclipse.jdt.ui.CompilationUnitEditor",1328290626438
activated,editor,org.eclipse.jdt.ui,3.6.0.v20100602-1600,"org.eclipse.jdt.ui.CompilationUnitEditor",1328290627667
closed,editor,org.eclipse.jdt.ui,3.6.0.v20100602-1600,"org.eclipse.jdt.ui.CompilationUnitEditor",1328290627668
activated,view,org.eclipse.jdt.ui,3.6.0.v20100602-1600,"org.eclipse.jdt.ui.PackageExplorer",1328290628916
closed,editor,org.eclipse.jdt.ui,3.6.0.v20100602-1600,"org.eclipse.jdt.ui.CompilationUnitEditor",1328290628916
deactivated,workbench,org.eclipse.ui.workbench,3.6.0.I20100603-1100,"",1328290632102
activated,perspective,org.eclipse.jdt.ui,3.6.0.v20100602-1600,"org.eclipse.jdt.ui.JavaPerspective",1328290634526
executed,command,org.eclipse.ui,3.6.0.I20100603-1100,"org.eclipse.ui.perspectives.showPerspective",1328290634531
executed,command,org.eclipse.ui,3.6.0.I20100603-1100,"org.eclipse.ui.perspectives.showPerspective",1328290634531
activated,workbench,org.eclipse.ui.workbench,3.6.0.I20100603-1100,"",1328290634542
activated,view,org.eclipse.ui.ide,3.6.0.I20100601-0800,"org.eclipse.ui.views.ProblemView",1328290635714
opened,view,org.eclipse.jdt.ui,3.6.0.v20100602-1600,"org.eclipse.jdt.ui.JavadocView",1328290639414
activated,view,org.eclipse.jdt.ui,3.6.0.v20100602-1600,"org.eclipse.jdt.ui.JavadocView",1328290639421
activated,view,org.eclipse.ui.ide,3.6.0.I20100601-0800,"org.eclipse.ui.views.ProblemView",1328290639722
closed,view,org.eclipse.jdt.ui,3.6.0.v20100602-1600,"org.eclipse.jdt.ui.JavadocView",1328290639723
opened,view,org.eclipse.jdt.ui,3.6.0.v20100602-1600,"org.eclipse.jdt.ui.SourceView",1328290640541
activated,view,org.eclipse.jdt.ui,3.6.0.v20100602-1600,"org.eclipse.jdt.ui.SourceView",1328290640722
activated,view,org.eclipse.ui.ide,3.6.0.I20100601-0800,"org.eclipse.ui.views.ProblemView",1328290641798
activated,view,org.eclipse.jdt.ui,3.6.0.v20100602-1600,"org.eclipse.jdt.ui.SourceView",1328290643281
activated,view,org.eclipse.jdt.ui,3.6.0.v20100602-1600,"org.eclipse.jdt.ui.PackageExplorer",1328290645317
deactivated,workbench,org.eclipse.ui.workbench,3.6.0.I20100603-1100,"",1328290657521
executed,command,org.eclipse.ui,3.6.0.I20100603-1100,"org.eclipse.ui.perspectives.showPerspective",1328290659646
executed,command,org.eclipse.ui,3.6.0.I20100603-1100,"org.eclipse.ui.perspectives.showPerspective",1328290659646
activated,workbench,org.eclipse.ui.workbench,3.6.0.I20100603-1100,"",1328290659659
activated,view,org.eclipse.ui.ide,3.6.0.I20100601-0800,"org.eclipse.ui.views.ProblemView",1328290661815
started,bundle,org.eclipse.ant.ui,3.5.0.v20100427,"org.eclipse.ant.ui",1328290673179
opened,view,org.eclipse.ant.ui,3.5.0.v20100427,"org.eclipse.ant.ui.views.AntView",1328290673225
activated,view,org.eclipse.ant.ui,3.5.0.v20100427,"org.eclipse.ant.ui.views.AntView",1328290673234
executed,command,org.eclipse.ui,3.6.0.I20100603-1100,"org.eclipse.ui.views.showView",1328290673234
deactivated,workbench,org.eclipse.ui.workbench,3.6.0.I20100603-1100,"",1328290680004
activated,workbench,org.eclipse.ui.workbench,3.6.0.I20100603-1100,"",1328290685355
opened,view,org.eclipse.ui.console,3.5.0.v20100526,"org.eclipse.ui.console.ConsoleView",1328290699145
activated,view,org.eclipse.ui.console,3.5.0.v20100526,"org.eclipse.ui.console.ConsoleView",1328290699153
executed,command,org.eclipse.ui,3.6.0.I20100603-1100,"org.eclipse.ui.views.showView",1328290699163
opened,view,org.eclipse.ui.ide,3.6.0.I20100601-0800,"org.eclipse.ui.views.ResourceNavigator",1328290718718
activated,view,org.eclipse.ui.ide,3.6.0.I20100601-0800,"org.eclipse.ui.views.ResourceNavigator",1328290718733
executed,command,org.eclipse.ui,3.6.0.I20100603-1100,"org.eclipse.ui.views.showView",1328290718733
activated,view,org.eclipse.jdt.ui,3.6.0.v20100602-1600,"org.eclipse.jdt.ui.PackageExplorer",1328290721164
activated,view,org.eclipse.ui.ide,3.6.0.I20100601-0800,"org.eclipse.ui.views.ResourceNavigator",1328290722860
activated,view,org.eclipse.jdt.ui,3.6.0.v20100602-1600,"org.eclipse.jdt.ui.PackageExplorer",1328290724933
activated,view,org.eclipse.ui.ide,3.6.0.I20100601-0800,"org.eclipse.ui.views.ResourceNavigator",1328290726934
activated,view,org.eclipse.jdt.ui,3.6.0.v20100602-1600,"org.eclipse.jdt.ui.PackageExplorer",1328290730366
opened,view,org.eclipse.ui.ide,3.6.0.I20100601-0800,"org.eclipse.ui.views.ProgressView",1328290742648
activated,view,org.eclipse.ui.ide,3.6.0.I20100601-0800,"org.eclipse.ui.views.ProgressView",1328290742663
executed,command,org.eclipse.ui,3.6.0.I20100603-1100,"org.eclipse.ui.views.showView",1328290742663
activated,view,org.eclipse.ui.console,3.5.0.v20100526,"org.eclipse.ui.console.ConsoleView",1328290744761
activated,view,org.eclipse.jdt.ui,3.6.0.v20100602-1600,"org.eclipse.jdt.ui.SourceView",1328290745679
activated,view,org.eclipse.ui.ide,3.6.0.I20100601-0800,"org.eclipse.ui.views.ProblemView",1328290746490
started,bundle,org.eclipse.ui.views.log,1.0.100.v20100423,"org.eclipse.ui.views.log",1328290765726
opened,view,org.eclipse.ui.views.log,1.0.100.v20100423,"org.eclipse.pde.runtime.LogView",1328290766751
activated,view,org.eclipse.ui.views.log,1.0.100.v20100423,"org.eclipse.pde.runtime.LogView",1328290766776
executed,command,org.eclipse.ui,3.6.0.I20100603-1100,"org.eclipse.ui.views.showView",1328290766776
executed,command,org.eclipse.ui,3.6.0.I20100603-1100,"org.eclipse.ui.views.showView",1328290772710
activated,view,org.eclipse.ui.ide,3.6.0.I20100601-0800,"org.eclipse.ui.views.ProgressView",1328290779804
activated,view,org.eclipse.ui.ide,3.6.0.I20100601-0800,"org.eclipse.ui.views.ProblemView",1328290780764
deactivated,workbench,org.eclipse.ui.workbench,3.6.0.I20100603-1100,"",1328290788099
executed,command,org.eclipse.ui,3.6.0.I20100603-1100,"org.eclipse.ui.views.showView",1328290798632
executed,command,org.eclipse.ui,3.6.0.I20100603-1100,"org.eclipse.ui.views.showView",1328290798632
activated,workbench,org.eclipse.ui.workbench,3.6.0.I20100603-1100,"",1328290798653
deactivated,workbench,org.eclipse.ui.workbench,3.6.0.I20100603-1100,"",1328290828842
activated,workbench,org.eclipse.ui.workbench,3.6.0.I20100603-1100,"",1328291072445
deactivated,workbench,org.eclipse.ui.workbench,3.6.0.I20100603-1100,"",1328291072787
activated,workbench,org.eclipse.ui.workbench,3.6.0.I20100603-1100,"",1328291137509
deactivated,workbench,org.eclipse.ui.workbench,3.6.0.I20100603-1100,"",1328291138790
activated,workbench,org.eclipse.ui.workbench,3.6.0.I20100603-1100,"",1328291151002
deactivated,workbench,org.eclipse.ui.workbench,3.6.0.I20100603-1100,"",1328291151226
activated,workbench,org.eclipse.ui.workbench,3.6.0.I20100603-1100,"",1328291158944
deactivated,workbench,org.eclipse.ui.workbench,3.6.0.I20100603-1100,"",1328291159067
activated,workbench,org.eclipse.ui.workbench,3.6.0.I20100603-1100,"",1328291235360
deactivated,workbench,org.eclipse.ui.workbench,3.6.0.I20100603-1100,"",1328291236367
activated,workbench,org.eclipse.ui.workbench,3.6.0.I20100603-1100,"",1328291241405
deactivated,workbench,org.eclipse.ui.workbench,3.6.0.I20100603-1100,"",1328291241765
activated,workbench,org.eclipse.ui.workbench,3.6.0.I20100603-1100,"",1328291246790
deactivated,workbench,org.eclipse.ui.workbench,3.6.0.I20100603-1100,"",1328291247074
activated,workbench,org.eclipse.ui.workbench,3.6.0.I20100603-1100,"",1328291250878
deactivated,workbench,org.eclipse.ui.workbench,3.6.0.I20100603-1100,"",1328291251079
activated,workbench,org.eclipse.ui.workbench,3.6.0.I20100603-1100,"",1328291363006
deactivated,workbench,org.eclipse.ui.workbench,3.6.0.I20100603-1100,"",1328291363735
activated,workbench,org.eclipse.ui.workbench,3.6.0.I20100603-1100,"",1328291410632
activated,view,org.eclipse.jdt.ui,3.6.0.v20100602-1600,"org.eclipse.jdt.ui.PackageExplorer",1328291414473
deactivated,workbench,org.eclipse.ui.workbench,3.6.0.I20100603-1100,"",1328291423802
activated,perspective,org.eclipse.team.cvs.ui,3.3.300.I20100526-0800,"org.eclipse.team.cvs.ui.cvsPerspective",1328291426053
activated,view,org.eclipse.team.cvs.ui,3.3.300.I20100526-0800,"org.eclipse.team.ccvs.ui.RepositoriesView",1328291426064
executed,command,org.eclipse.ui,3.6.0.I20100603-1100,"org.eclipse.ui.perspectives.showPerspective",1328291426070
executed,command,org.eclipse.ui,3.6.0.I20100603-1100,"org.eclipse.ui.perspectives.showPerspective",1328291426070
activated,workbench,org.eclipse.ui.workbench,3.6.0.I20100603-1100,"",1328291426083
deactivated,workbench,org.eclipse.ui.workbench,3.6.0.I20100603-1100,"",1328291435204
activated,workbench,org.eclipse.ui.workbench,3.6.0.I20100603-1100,"",1328291508818
deactivated,workbench,org.eclipse.ui.workbench,3.6.0.I20100603-1100,"",1328291509242
activated,workbench,org.eclipse.ui.workbench,3.6.0.I20100603-1100,"",1328291524876
deactivated,workbench,org.eclipse.ui.workbench,3.6.0.I20100603-1100,"",1328291537360
activated,perspective,org.eclipse.jdt.ui,3.6.0.v20100602-1600,"org.eclipse.jdt.ui.JavaPerspective",1328291539737
activated,view,org.eclipse.jdt.ui,3.6.0.v20100602-1600,"org.eclipse.jdt.ui.PackageExplorer",1328291539767
executed,command,org.eclipse.ui,3.6.0.I20100603-1100,"org.eclipse.ui.perspectives.showPerspective",1328291539773
executed,command,org.eclipse.ui,3.6.0.I20100603-1100,"org.eclipse.ui.perspectives.showPerspective",1328291539773
activated,perspective,org.eclipse.jdt.ui,,"org.eclipse.jdt.ui.JavaPerspective",1328291642183
started,bundle,org.eclipse.osgi,3.6.0.v20100517,"org.eclipse.osgi",1328291642184
started,bundle,org.eclipse.equinox.simpleconfigurator,1.0.200.v20100503,"org.eclipse.equinox.simpleconfigurator",1328291642185
started,bundle,com.ibm.icu,4.2.1.v20100412,"com.ibm.icu",1328291642186
started,bundle,org.eclipse.compare,3.5.100.I20100526-0800,"org.eclipse.compare",1328291642186
started,bundle,org.eclipse.compare.core,3.5.100.I20100526-0800,"org.eclipse.compare.core",1328291642187
started,bundle,org.eclipse.core.contenttype,3.4.100.v20100505-1235,"org.eclipse.core.contenttype",1328291642187
started,bundle,org.eclipse.core.databinding.observable,1.3.0.I20100601-0800,"org.eclipse.core.databinding.observable",1328291642187
started,bundle,org.eclipse.core.expressions,3.4.200.v20100505,"org.eclipse.core.expressions",1328291642187
started,bundle,org.eclipse.core.filebuffers,3.5.100.v20100520-0800,"org.eclipse.core.filebuffers",1328291642187
started,bundle,org.eclipse.core.filesystem,1.3.0.v20100526-0737,"org.eclipse.core.filesystem",1328291642187
started,bundle,org.eclipse.core.jobs,3.5.0.v20100515,"org.eclipse.core.jobs",1328291642188
started,bundle,org.eclipse.core.net,1.2.100.I20100511-0800,"org.eclipse.core.net",1328291642188
started,bundle,org.eclipse.core.resources,3.6.0.v20100526-0737,"org.eclipse.core.resources",1328291642188
started,bundle,org.eclipse.core.runtime,3.6.0.v20100505,"org.eclipse.core.runtime",1328291642188
started,bundle,org.eclipse.core.runtime.compatibility,3.2.100.v20100505,"org.eclipse.core.runtime.compatibility",1328291642189
started,bundle,org.eclipse.core.runtime.compatibility.auth,3.2.200.v20100517,"org.eclipse.core.runtime.compatibility.auth",1328291642189
started,bundle,org.eclipse.epp.usagedata.gathering,1.3.0.R201005261100,"org.eclipse.epp.usagedata.gathering",1328291642190
started,bundle,org.eclipse.epp.usagedata.recording,1.3.0.R201005261100,"org.eclipse.epp.usagedata.recording",1328291642190
started,bundle,org.eclipse.equinox.app,1.3.0.v20100512,"org.eclipse.equinox.app",1328291642190
started,bundle,org.eclipse.equinox.common,3.6.0.v20100503,"org.eclipse.equinox.common",1328291642190
started,bundle,org.eclipse.equinox.ds,1.2.0.v20100507,"org.eclipse.equinox.ds",1328291642191
started,bundle,org.eclipse.equinox.event,1.2.0.v20100503,"org.eclipse.equinox.event",1328291642191
started,bundle,org.eclipse.equinox.p2.core,2.0.0.v20100510,"org.eclipse.equinox.p2.core",1328291642192
started,bundle,org.eclipse.equinox.p2.directorywatcher,1.0.200.v20100601,"org.eclipse.equinox.p2.directorywatcher",1328291642192
started,bundle,org.eclipse.equinox.p2.engine,2.0.0.v20100606,"org.eclipse.equinox.p2.engine",1328291642192
started,bundle,org.eclipse.equinox.p2.metadata,2.0.0.v20100601,"org.eclipse.equinox.p2.metadata",1328291642193
started,bundle,org.eclipse.equinox.p2.metadata.repository,1.1.0.v20100513,"org.eclipse.equinox.p2.metadata.repository",1328291642193
started,bundle,org.eclipse.equinox.p2.operations,2.0.0.v20100510,"org.eclipse.equinox.p2.operations",1328291642193
started,bundle,org.eclipse.equinox.p2.reconciler.dropins,1.1.0.v20100525,"org.eclipse.equinox.p2.reconciler.dropins",1328291642193
started,bundle,org.eclipse.equinox.p2.repository,2.0.0.v20100519,"org.eclipse.equinox.p2.repository",1328291642193
started,bundle,org.eclipse.equinox.p2.ui.sdk.scheduler,1.0.0.v20100507-1815,"org.eclipse.equinox.p2.ui.sdk.scheduler",1328291642193
started,bundle,org.eclipse.equinox.p2.updatechecker,1.1.100.v20100503a,"org.eclipse.equinox.p2.updatechecker",1328291642194
started,bundle,org.eclipse.equinox.preferences,3.3.0.v20100503,"org.eclipse.equinox.preferences",1328291642194
started,bundle,org.eclipse.equinox.registry,3.5.0.v20100503,"org.eclipse.equinox.registry",1328291642194
started,bundle,org.eclipse.equinox.security,1.0.200.v20100503,"org.eclipse.equinox.security",1328291642194
started,bundle,org.eclipse.equinox.util,1.0.200.v20100503,"org.eclipse.equinox.util",1328291642195
started,bundle,org.eclipse.help,3.5.0.v20100524,"org.eclipse.help",1328291642195
started,bundle,org.eclipse.jdt.core,3.6.0.v_A58,"org.eclipse.jdt.core",1328291642195
started,bundle,org.eclipse.jdt.core.manipulation,1.3.0.v20100520-0800,"org.eclipse.jdt.core.manipulation",1328291642195
started,bundle,org.eclipse.jdt.ui,3.6.0.v20100602-1600,"org.eclipse.jdt.ui",1328291642195
started,bundle,org.eclipse.jface,3.6.0.I20100601-0800,"org.eclipse.jface",1328291642195
started,bundle,org.eclipse.jsch.core,1.1.200.I20100505-1245,"org.eclipse.jsch.core",1328291642195
started,bundle,org.eclipse.ltk.core.refactoring,3.5.100.v20100526-0800,"org.eclipse.ltk.core.refactoring",1328291642195
started,bundle,org.eclipse.ltk.ui.refactoring,3.5.0.v20100526-0800,"org.eclipse.ltk.ui.refactoring",1328291642195
started,bundle,org.eclipse.mylyn.commons.ui,3.4.0.v20100608-0100-e3x,"org.eclipse.mylyn.commons.ui",1328291642195
started,bundle,org.eclipse.mylyn.context.core,3.4.0.v20100608-0100-e3x,"org.eclipse.mylyn.context.core",1328291642195
started,bundle,org.eclipse.mylyn.monitor.ui,3.4.0.v20100608-0100-e3x,"org.eclipse.mylyn.monitor.ui",1328291642195
started,bundle,org.eclipse.mylyn.team.ui,3.4.0.v20100608-0100-e3x,"org.eclipse.mylyn.team.ui",1328291642195
started,bundle,org.eclipse.search,3.6.0.v20100520-0800,"org.eclipse.search",1328291642195
started,bundle,org.eclipse.team.core,3.5.100.I20100527-0800,"org.eclipse.team.core",1328291642195
started,bundle,org.eclipse.team.cvs.core,3.3.300.I20100526-0800,"org.eclipse.team.cvs.core",1328291642196
started,bundle,org.eclipse.team.cvs.ssh2,3.2.300.I20100526-0800,"org.eclipse.team.cvs.ssh2",1328291642196
started,bundle,org.eclipse.team.cvs.ui,3.3.300.I20100526-0800,"org.eclipse.team.cvs.ui",1328291642196
started,bundle,org.eclipse.team.ui,3.5.100.I20100527-0800,"org.eclipse.team.ui",1328291642196
started,bundle,org.eclipse.ui,3.6.0.I20100603-1100,"org.eclipse.ui",1328291642196
started,bundle,org.eclipse.ui.console,3.5.0.v20100526,"org.eclipse.ui.console",1328291642196
started,bundle,org.eclipse.ui.editors,3.6.0.v20100520-0800,"org.eclipse.ui.editors",1328291642196
started,bundle,org.eclipse.ui.forms,3.5.0.v20100427,"org.eclipse.ui.forms",1328291642196
started,bundle,org.eclipse.ui.ide,3.6.0.I20100601-0800,"org.eclipse.ui.ide",1328291642196
started,bundle,org.eclipse.ui.navigator,3.5.0.I20100601-0800,"org.eclipse.ui.navigator",1328291642196
started,bundle,org.eclipse.ui.net,1.2.100.I20100505-1245,"org.eclipse.ui.net",1328291642196
started,bundle,org.eclipse.ui.views,3.5.0.I20100527-0800,"org.eclipse.ui.views",1328291642196
started,bundle,org.eclipse.ui.workbench,3.6.0.I20100603-1100,"org.eclipse.ui.workbench",1328291642196
started,bundle,org.eclipse.ui.workbench.texteditor,3.6.0.v20100520-0800,"org.eclipse.ui.workbench.texteditor",1328291642196
started,bundle,org.eclipse.update.configurator,3.3.100.v20100512,"org.eclipse.update.configurator",1328291642197
started,bundle,org.eclipse.update.core,3.2.400.v20100512,"org.eclipse.update.core",1328291642197
started,bundle,org.eclipse.update.scheduler,3.2.300.v20100512,"org.eclipse.update.scheduler",1328291642197
started,bundle,com.collabnet.subversion.merge,2.1.0,"com.collabnet.subversion.merge",1328291642197
started,bundle,org.eclipse.mylyn.bugzilla.core,3.4.0.v20100730-0100-e3x,"org.eclipse.mylyn.bugzilla.core",1328291642197
started,bundle,org.eclipse.mylyn.bugzilla.ui,3.4.0.v20100730-0100-e3x,"org.eclipse.mylyn.bugzilla.ui",1328291642197
started,bundle,org.eclipse.mylyn.commons.net,3.4.1.v20100625-2100-e3x,"org.eclipse.mylyn.commons.net",1328291642197
started,bundle,org.eclipse.mylyn.context.ui,3.4.0.v20100730-0100-e3x,"org.eclipse.mylyn.context.ui",1328291642197
started,bundle,org.eclipse.mylyn.tasks.ui,3.4.1.v20100730-0100-e3x,"org.eclipse.mylyn.tasks.ui",1328291642197
started,bundle,org.tigris.subversion.clientadapter,1.6.12,"org.tigris.subversion.clientadapter",1328291642197
started,bundle,org.tigris.subversion.subclipse.core,1.6.13,"org.tigris.subversion.subclipse.core",1328291642197
started,bundle,org.tigris.subversion.subclipse.mylyn,3.0.0,"org.tigris.subversion.subclipse.mylyn",1328291642197
started,bundle,org.tigris.subversion.subclipse.ui,1.6.13,"org.tigris.subversion.subclipse.ui",1328291642197
started,bundle,org.eclipse.cdt.codan.core,1.0.0.201006141710,"org.eclipse.cdt.codan.core",1328291642197
started,bundle,org.eclipse.cdt.codan.core.cxx,1.0.0.201006141710,"org.eclipse.cdt.codan.core.cxx",1328291642197
started,bundle,org.eclipse.cdt.codan.ui.cxx,1.0.0.201006141710,"org.eclipse.cdt.codan.ui.cxx",1328291642197
started,bundle,org.eclipse.cdt.core,5.2.0.201006141710,"org.eclipse.cdt.core",1328291642197
started,bundle,org.eclipse.cdt.core.tests,5.1.0.201006141710,"org.eclipse.cdt.core.tests",1328291642197
started,bundle,org.eclipse.cdt.make.core,7.0.0.201006141710,"org.eclipse.cdt.make.core",1328291642198
started,bundle,org.eclipse.cdt.make.ui,7.0.0.201006141710,"org.eclipse.cdt.make.ui",1328291642198
started,bundle,org.eclipse.cdt.managedbuilder.core,7.0.0.201006141710,"org.eclipse.cdt.managedbuilder.core",1328291642198
started,bundle,org.eclipse.cdt.scripting,1.0.0.201006141710,"org.eclipse.cdt.scripting",1328291642198
started,bundle,org.eclipse.cdt.ui,5.2.0.201006141710,"org.eclipse.cdt.ui",1328291642198
started,bundle,org.eclipse.cdt.ui.tests,5.1.0.201006141710,"org.eclipse.cdt.ui.tests",1328291642198
started,bundle,edu.buffalo.cse.jive.console,1.9.1.v20111117b,"edu.buffalo.cse.jive.console",1328291642198
os,sysinfo,,,"linux",1328291642201
arch,sysinfo,,,"x86_64",1328291642201
ws,sysinfo,,,"gtk",1328291642201
locale,sysinfo,,,"en_US",1328291642201
processors,sysinfo,,,"8",1328291642201
java.runtime.name,sysinfo,,,"Java(TM) SE Runtime Environment",1328291642201
java.runtime.version,sysinfo,,,"1.7.0_01-b08",1328291642201
java.specification.name,sysinfo,,,"Java Platform API Specification",1328291642201
java.specification.vendor,sysinfo,,,"Oracle Corporation",1328291642201
java.specification.version,sysinfo,,,"1.7",1328291642201
java.vendor,sysinfo,,,"Oracle Corporation",1328291642201
java.version,sysinfo,,,"1.7.0_01",1328291642201
java.vm.info,sysinfo,,,"mixed mode",1328291642201
java.vm.name,sysinfo,,,"Java HotSpot(TM) 64-Bit Server VM",1328291642201
java.vm.specification.name,sysinfo,,,"Java Virtual Machine Specification",1328291642201
java.vm.specification.vendor,sysinfo,,,"Oracle Corporation",1328291642201
java.vm.specification.version,sysinfo,,,"1.7",1328291642201
java.vm.vendor,sysinfo,,,"Oracle Corporation",1328291642201
java.vm.version,sysinfo,,,"21.1-b02",1328291642201
activated,view,org.eclipse.jdt.ui,3.6.0.v20100602-1600,"org.eclipse.jdt.ui.PackageExplorer",1328291645534
started,bundle,edu.rice.cs.drjava,0.9.8,"edu.rice.cs.drjava",1328291650131
opened,view,edu.rice.cs.drjava,0.9.8,"edu.rice.cs.drjava.InteractionsView",1328291650761
activated,perspective,edu.rice.cs.drjava,0.9.8,"edu.rice.cs.drjava.DrJavaPerspective",1328291650779
activated,view,edu.rice.cs.drjava,0.9.8,"edu.rice.cs.drjava.InteractionsView",1328291652756
deactivated,workbench,org.eclipse.ui.workbench,3.6.0.I20100603-1100,"",1328291667226
executed,command,org.eclipse.ui,3.6.0.I20100603-1100,"org.eclipse.ui.perspectives.showPerspective",1328291671461
executed,command,org.eclipse.ui,3.6.0.I20100603-1100,"org.eclipse.ui.perspectives.showPerspective",1328291671461
activated,workbench,org.eclipse.ui.workbench,3.6.0.I20100603-1100,"",1328291671488
activated,view,org.eclipse.jdt.ui,3.6.0.v20100602-1600,"org.eclipse.jdt.ui.PackageExplorer",1328291672159
deactivated,workbench,org.eclipse.ui.workbench,3.6.0.I20100603-1100,"",1328291674996
executed,command,org.eclipse.ltk.ui.refactoring,3.5.0.v20100526-0800,"org.eclipse.ltk.ui.refactoring.commands.deleteResources",1328291678754
executed,command,org.eclipse.ui,3.6.0.I20100603-1100,"org.eclipse.ui.edit.delete",1328291678754
activated,workbench,org.eclipse.ui.workbench,3.6.0.I20100603-1100,"",1328291678772
started,bundle,org.eclipse.debug.core,3.6.0.v20100519,"org.eclipse.debug.core",1328291682362
started,bundle,org.eclipse.debug.ui,3.6.0.v20100601-1530,"org.eclipse.debug.ui",1328291682405
started,bundle,org.eclipse.cdt.debug.core,7.0.0.201006141710,"org.eclipse.cdt.debug.core",1328291682453
started,bundle,org.eclipse.cdt.debug.ui,7.0.0.201006141710,"org.eclipse.cdt.debug.ui",1328291682458
deactivated,workbench,org.eclipse.ui.workbench,3.6.0.I20100603-1100,"",1328291684998
executed,command,org.eclipse.ltk.ui.refactoring,3.5.0.v20100526-0800,"org.eclipse.ltk.ui.refactoring.commands.deleteResources",1328291699713
executed,command,org.eclipse.ui,3.6.0.I20100603-1100,"org.eclipse.ui.edit.delete",1328291699713
activated,workbench,org.eclipse.ui.workbench,3.6.0.I20100603-1100,"",1328291699729
deactivated,workbench,org.eclipse.ui.workbench,3.6.0.I20100603-1100,"",1328291704431
opened,view,org.eclipse.team.cvs.ui,3.3.300.I20100526-0800,"org.eclipse.team.ccvs.ui.RepositoriesView",1328291706228
opened,view,org.eclipse.team.ui,3.5.100.I20100527-0800,"org.eclipse.team.ui.GenericHistoryView",1328291706272
opened,view,org.eclipse.mylyn.tasks.ui,3.4.1.v20100730-0100-e3x,"org.eclipse.mylyn.tasks.ui.views.repositories",1328291706299
activated,perspective,org.eclipse.team.cvs.ui,3.3.300.I20100526-0800,"org.eclipse.team.cvs.ui.cvsPerspective",1328291706327
started,bundle,org.eclipse.jdt.debug,3.6.0.v20100526,"org.eclipse.jdt.debug",1328291706390
started,bundle,org.eclipse.jdt.launching,3.5.100.v20100526,"org.eclipse.jdt.launching",1328291706406
started,bundle,org.eclipse.jdt.debug.ui,3.5.0.v20100602-0830,"org.eclipse.jdt.debug.ui",1328291706444
activated,editor,org.eclipse.jdt.ui,3.6.0.v20100602-1600,"org.eclipse.jdt.ui.CompilationUnitEditor",1328291706453
executed,command,org.eclipse.ui,3.6.0.I20100603-1100,"org.eclipse.ui.perspectives.showPerspective",1328291706465
executed,command,org.eclipse.ui,3.6.0.I20100603-1100,"org.eclipse.ui.perspectives.showPerspective",1328291706465
activated,workbench,org.eclipse.ui.workbench,3.6.0.I20100603-1100,"",1328291706487
activated,view,org.eclipse.team.cvs.ui,3.3.300.I20100526-0800,"org.eclipse.team.ccvs.ui.RepositoriesView",1328291708598
started,bundle,org.eclipse.jsch.ui,1.1.300.I20100505-1245,"org.eclipse.jsch.ui",1328291710554
deactivated,workbench,org.eclipse.ui.workbench,3.6.0.I20100603-1100,"",1328291710801
activated,workbench,org.eclipse.ui.workbench,3.6.0.I20100603-1100,"",1328291733131
started,bundle,org.eclipse.equinox.security.ui,1.0.200.v20100503,"org.eclipse.equinox.security.ui",1328291733208
deactivated,workbench,org.eclipse.ui.workbench,3.6.0.I20100603-1100,"",1328291733326
error,log,,,"No password provided.",1328291737477
activated,workbench,org.eclipse.ui.workbench,3.6.0.I20100603-1100,"",1328291737480
deactivated,workbench,org.eclipse.ui.workbench,3.6.0.I20100603-1100,"",1328291739272
activated,workbench,org.eclipse.ui.workbench,3.6.0.I20100603-1100,"",1328291745412
deactivated,workbench,org.eclipse.ui.workbench,3.6.0.I20100603-1100,"",1328291757761
activated,workbench,org.eclipse.ui.workbench,3.6.0.I20100603-1100,"",1328291785671
deactivated,workbench,org.eclipse.ui.workbench,3.6.0.I20100603-1100,"",1328291786001
activated,workbench,org.eclipse.ui.workbench,3.6.0.I20100603-1100,"",1328291791366
deactivated,workbench,org.eclipse.ui.workbench,3.6.0.I20100603-1100,"",1328291797346
activated,perspective,edu.rice.cs.drjava,0.9.8,"edu.rice.cs.drjava.DrJavaPerspective",1328291799831
activated,editor,org.eclipse.jdt.ui,3.6.0.v20100602-1600,"org.eclipse.jdt.ui.CompilationUnitEditor",1328291799864
executed,command,org.eclipse.ui,3.6.0.I20100603-1100,"org.eclipse.ui.perspectives.showPerspective",1328291799886
executed,command,org.eclipse.ui,3.6.0.I20100603-1100,"org.eclipse.ui.perspectives.showPerspective",1328291799886
activated,workbench,org.eclipse.ui.workbench,3.6.0.I20100603-1100,"",1328291799906
activated,view,edu.rice.cs.drjava,0.9.8,"edu.rice.cs.drjava.InteractionsView",1328291802829
activated,view,org.eclipse.jdt.ui,3.6.0.v20100602-1600,"org.eclipse.jdt.ui.PackageExplorer",1328291803965
activated,view,edu.rice.cs.drjava,0.9.8,"edu.rice.cs.drjava.InteractionsView",1328291807817
activated,view,org.eclipse.jdt.ui,3.6.0.v20100602-1600,"org.eclipse.jdt.ui.PackageExplorer",1328291811444
opened,editor,org.eclipse.jdt.ui,3.6.0.v20100602-1600,"org.eclipse.jdt.ui.CompilationUnitEditor",1328291811742
activated,editor,org.eclipse.jdt.ui,3.6.0.v20100602-1600,"org.eclipse.jdt.ui.CompilationUnitEditor",1328291811870
started,bundle,org.eclipse.jdt.apt.core,3.3.400.v20100513-0845,"org.eclipse.jdt.apt.core",1328291812253
started,bundle,org.eclipse.jdt.apt.pluggable.core,1.0.300.v20100513-0845,"org.eclipse.jdt.apt.pluggable.core",1328291812260
started,bundle,org.eclipse.core.variables,3.2.400.v20100505,"org.eclipse.core.variables",1328291812318
activated,editor,org.eclipse.jdt.ui,3.6.0.v20100602-1600,"org.eclipse.jdt.ui.CompilationUnitEditor",1328291816822
activated,editor,org.eclipse.jdt.ui,3.6.0.v20100602-1600,"org.eclipse.jdt.ui.CompilationUnitEditor",1328291817988
closed,editor,org.eclipse.jdt.ui,3.6.0.v20100602-1600,"org.eclipse.jdt.ui.CompilationUnitEditor",1328291817989
