what,kind,bundleId,bundleVersion,description,time
started,bundle,org.eclipse.mylyn.context.core,3.4.0.v20100608-0100-e3x,"org.eclipse.mylyn.context.core",1330724215668
started,bundle,org.eclipse.mylyn.monitor.ui,3.4.0.v20100608-0100-e3x,"org.eclipse.mylyn.monitor.ui",1330724215669
started,bundle,org.eclipse.mylyn.team.ui,3.4.0.v20100608-0100-e3x,"org.eclipse.mylyn.team.ui",1330724215670
started,bundle,org.eclipse.team.core,3.5.100.I20100527-0800,"org.eclipse.team.core",1330724215670
started,bundle,org.eclipse.team.cvs.core,3.3.300.I20100526-0800,"org.eclipse.team.cvs.core",1330724215671
started,bundle,org.eclipse.team.cvs.ui,3.3.300.I20100526-0800,"org.eclipse.team.cvs.ui",1330724215673
started,bundle,org.eclipse.team.ui,3.5.100.I20100527-0800,"org.eclipse.team.ui",1330724215674
started,bundle,org.eclipse.ui,3.6.0.I20100603-1100,"org.eclipse.ui",1330724215675
started,bundle,org.eclipse.ui.console,3.5.0.v20100526,"org.eclipse.ui.console",1330724215676
started,bundle,org.eclipse.ui.editors,3.6.0.v20100520-0800,"org.eclipse.ui.editors",1330724215676
started,bundle,org.eclipse.ui.forms,3.5.0.v20100427,"org.eclipse.ui.forms",1330724215677
started,bundle,org.eclipse.ui.ide,3.6.0.I20100601-0800,"org.eclipse.ui.ide",1330724215679
started,bundle,org.eclipse.ui.net,1.2.100.I20100505-1245,"org.eclipse.ui.net",1330724215679
started,bundle,org.eclipse.ui.views,3.5.0.I20100527-0800,"org.eclipse.ui.views",1330724215681
started,bundle,org.eclipse.ui.workbench,3.6.0.I20100603-1100,"org.eclipse.ui.workbench",1330724215682
started,bundle,org.eclipse.ui.workbench.texteditor,3.6.0.v20100520-0800,"org.eclipse.ui.workbench.texteditor",1330724215683
started,bundle,org.eclipse.update.scheduler,3.2.300.v20100512,"org.eclipse.update.scheduler",1330724215684
started,bundle,org.eclipse.wst.common.project.facet.core,1.4.100.v201005190114,"org.eclipse.wst.common.project.facet.core",1330724215685
started,bundle,edu.rice.cs.drjava,0.9.8,"edu.rice.cs.drjava",1330724215685
started,bundle,com.collabnet.subversion.merge,2.1.0,"com.collabnet.subversion.merge",1330724215686
started,bundle,org.eclipse.mylyn.bugzilla.core,3.4.0.v20100730-0100-e3x,"org.eclipse.mylyn.bugzilla.core",1330724215687
started,bundle,org.eclipse.mylyn.bugzilla.ui,3.4.0.v20100730-0100-e3x,"org.eclipse.mylyn.bugzilla.ui",1330724215688
started,bundle,org.eclipse.mylyn.commons.net,3.4.1.v20100625-2100-e3x,"org.eclipse.mylyn.commons.net",1330724215688
started,bundle,org.eclipse.mylyn.context.ui,3.4.0.v20100730-0100-e3x,"org.eclipse.mylyn.context.ui",1330724215688
started,bundle,org.eclipse.mylyn.tasks.ui,3.4.1.v20100730-0100-e3x,"org.eclipse.mylyn.tasks.ui",1330724215690
started,bundle,org.tigris.subversion.clientadapter,1.6.12,"org.tigris.subversion.clientadapter",1330724215690
started,bundle,org.tigris.subversion.subclipse.core,1.6.13,"org.tigris.subversion.subclipse.core",1330724215691
started,bundle,org.tigris.subversion.subclipse.mylyn,3.0.0,"org.tigris.subversion.subclipse.mylyn",1330724215692
started,bundle,org.tigris.subversion.subclipse.ui,1.6.13,"org.tigris.subversion.subclipse.ui",1330724215693
started,bundle,org.eclipse.core.jobs,3.5.0.v20100515-p002,"org.eclipse.core.jobs",1330724215694
started,bundle,org.springframework.ide.eclipse.beans.core,2.7.0.201107040453-RELEASE,"org.springframework.ide.eclipse.beans.core",1330724215695
started,bundle,org.springframework.ide.eclipse.beans.ui,2.7.0.201107040453-RELEASE,"org.springframework.ide.eclipse.beans.ui",1330724215696
started,bundle,org.springframework.ide.eclipse.core,2.7.0.201107040453-RELEASE,"org.springframework.ide.eclipse.core",1330724215697
started,bundle,org.springframework.ide.eclipse.ui,2.7.0.201107040453-RELEASE,"org.springframework.ide.eclipse.ui",1330724215698
os,sysinfo,,,"linux",1330724215702
arch,sysinfo,,,"x86_64",1330724215702
ws,sysinfo,,,"gtk",1330724215702
locale,sysinfo,,,"en_US",1330724215702
processors,sysinfo,,,"8",1330724215702
java.runtime.name,sysinfo,,,"Java(TM) SE Runtime Environment",1330724215702
java.runtime.version,sysinfo,,,"1.7.0_03-b04",1330724215702
java.specification.name,sysinfo,,,"Java Platform API Specification",1330724215702
java.specification.vendor,sysinfo,,,"Oracle Corporation",1330724215702
java.specification.version,sysinfo,,,"1.7",1330724215702
java.vendor,sysinfo,,,"Oracle Corporation",1330724215702
java.version,sysinfo,,,"1.7.0_03",1330724215702
java.vm.info,sysinfo,,,"mixed mode",1330724215702
java.vm.name,sysinfo,,,"Java HotSpot(TM) 64-Bit Server VM",1330724215702
java.vm.specification.name,sysinfo,,,"Java Virtual Machine Specification",1330724215702
java.vm.specification.vendor,sysinfo,,,"Oracle Corporation",1330724215702
java.vm.specification.version,sysinfo,,,"1.7",1330724215702
java.vm.vendor,sysinfo,,,"Oracle Corporation",1330724215702
java.vm.version,sysinfo,,,"22.1-b02",1330724215702
started,bundle,org.eclipse.update.configurator,3.3.100.v20100512,"org.eclipse.update.configurator",1330724215982
started,bundle,org.eclipse.update.core,3.2.400.v20100512,"org.eclipse.update.core",1330724215985
started,bundle,org.eclipse.cdt.codan.ui.cxx,1.0.0.201006141710,"org.eclipse.cdt.codan.ui.cxx",1330724215990
started,bundle,org.eclipse.cdt.scripting,1.0.0.201006141710,"org.eclipse.cdt.scripting",1330724216244
started,bundle,edu.buffalo.cse.jive.console,1.9.1.v20111117b,"edu.buffalo.cse.jive.console",1330724216249
started,bundle,oracle.eclipse.tools.envcheck,3.2.3.201107052022,"oracle.eclipse.tools.envcheck",1330724216254
started,bundle,org.eclipse.cdt.core.tests,5.1.0.201006141710,"org.eclipse.cdt.core.tests",1330724216539
started,bundle,org.eclipse.cdt.make.core,7.0.0.201006141710,"org.eclipse.cdt.make.core",1330724216567
started,bundle,org.eclipse.cdt.managedbuilder.core,7.0.0.201006141710,"org.eclipse.cdt.managedbuilder.core",1330724216601
started,bundle,org.eclipse.cdt.core,5.2.0.201006141710,"org.eclipse.cdt.core",1330724216636
started,bundle,org.eclipse.ui.navigator,3.5.0.I20100601-0800,"org.eclipse.ui.navigator",1330724216665
started,bundle,org.eclipse.cdt.ui.tests,5.1.0.201006141710,"org.eclipse.cdt.ui.tests",1330724217117
started,bundle,org.eclipse.team.cvs.ssh2,3.2.300.I20100526-0800,"org.eclipse.team.cvs.ssh2",1330724217117
started,bundle,org.eclipse.cdt.ui,5.2.0.201006141710,"org.eclipse.cdt.ui",1330724217118
started,bundle,org.eclipse.cdt.codan.core.cxx,1.0.0.201006141710,"org.eclipse.cdt.codan.core.cxx",1330724217118
started,bundle,org.eclipse.cdt.codan.core,1.0.0.201006141710,"org.eclipse.cdt.codan.core",1330724217119
started,bundle,org.eclipse.cdt.make.ui,7.0.0.201006141710,"org.eclipse.cdt.make.ui",1330724217119
activated,view,org.eclipse.jdt.ui,3.6.0.v20100602-1600,"org.eclipse.jdt.ui.PackageExplorer",1330724217595
activated,view,edu.rice.cs.drjava,0.9.8,"edu.rice.cs.drjava.InteractionsView",1330724229600
activated,view,org.eclipse.jdt.ui,3.6.0.v20100602-1600,"org.eclipse.jdt.ui.PackageExplorer",1330724239305
activated,view,edu.rice.cs.drjava,0.9.8,"edu.rice.cs.drjava.InteractionsView",1330724245469
deactivated,workbench,org.eclipse.ui.workbench,3.6.0.I20100603-1100,"",1330724272337
activated,workbench,org.eclipse.ui.workbench,3.6.0.I20100603-1100,"",1330724287157
activated,view,org.eclipse.jdt.ui,3.6.0.v20100602-1600,"org.eclipse.jdt.ui.PackageExplorer",1330724289339
started,bundle,net.sf.webcat.eclipse.submitter.ui,1.3.0,"net.sf.webcat.eclipse.submitter.ui",1330724293728
started,bundle,net.sf.webcat.eclipse.submitter,1.3.0,"net.sf.webcat.eclipse.submitter",1330724293756
deactivated,workbench,org.eclipse.ui.workbench,3.6.0.I20100603-1100,"",1330724293817
activated,workbench,org.eclipse.ui.workbench,3.6.0.I20100603-1100,"",1330724294623
deactivated,workbench,org.eclipse.ui.workbench,3.6.0.I20100603-1100,"",1330724294667
opened,editor,net.sf.webcat.eclipse.submitter.ui,1.3.0,"net.sf.webcat.eclipse.submitter.ui.editors.BrowserEditor",1330724313276
activated,editor,net.sf.webcat.eclipse.submitter.ui,1.3.0,"net.sf.webcat.eclipse.submitter.ui.editors.BrowserEditor",1330724313286
activated,workbench,org.eclipse.ui.workbench,3.6.0.I20100603-1100,"",1330724313360
deactivated,workbench,org.eclipse.ui.workbench,3.6.0.I20100603-1100,"",1330724415999
closed,workbench,org.eclipse.ui.workbench,3.6.0.I20100603-1100,"",1330724417661
stopped,bundle,org.eclipse.mylyn.ide.ant,3.4.0.v20100608-0100-e3x,"org.eclipse.mylyn.ide.ant",1330724420697
stopped,bundle,org.eclipse.ant.ui,3.5.0.v20100427,"org.eclipse.ant.ui",1330724420699
stopped,bundle,org.eclipse.ant.launching,1.0.0.v20100427,"org.eclipse.ant.launching",1330724420702
stopped,bundle,org.eclipse.equinox.p2.ui.sdk,1.0.100.v20100513,"org.eclipse.equinox.p2.ui.sdk",1330724420703
stopped,bundle,org.eclipse.mylyn.java.tasks,3.4.0.v20100608-0100-e3x,"org.eclipse.mylyn.java.tasks",1330724420705
stopped,bundle,org.eclipse.mylyn.java.ui,3.4.0.v20100608-0100-e3x,"org.eclipse.mylyn.java.ui",1330724420705
stopped,bundle,edu.buffalo.cse.jive.launching,1.9.1.v20111117b,"edu.buffalo.cse.jive.launching",1330724420707
stopped,bundle,edu.buffalo.cse.jive.console,1.9.1.v20111117b,"edu.buffalo.cse.jive.console",1330724420707
stopped,bundle,edu.buffalo.cse.jive.ui,1.9.1.v20111117b,"edu.buffalo.cse.jive.ui",1330724420721
stopped,bundle,org.eclipse.jdt.junit,3.6.0.v20100526-0800,"org.eclipse.jdt.junit",1330724420723
stopped,bundle,org.eclipse.jdt.apt.ui,3.3.300.v20100513-0845,"org.eclipse.jdt.apt.ui",1330724420725
stopped,bundle,edu.rice.cs.drjava,0.9.8,"edu.rice.cs.drjava",1330724420725
stopped,bundle,oracle.eclipse.tools.envcheck,3.2.3.201107052022,"oracle.eclipse.tools.envcheck",1330724420725
stopped,bundle,org.eclipse.jdt.debug.ui,3.5.0.v20100602-0830,"org.eclipse.jdt.debug.ui",1330724420725
stopped,bundle,edu.buffalo.cse.green.relationship.association,3.5.0,"edu.buffalo.cse.green.relationship.association",1330724420729
stopped,bundle,edu.buffalo.cse.green.relationship.composition,3.5.0,"edu.buffalo.cse.green.relationship.composition",1330724420732
stopped,bundle,edu.buffalo.cse.green.relationship.dependency,3.5.0,"edu.buffalo.cse.green.relationship.dependency",1330724420735
stopped,bundle,edu.buffalo.cse.green.relationship.generalization,3.5.0,"edu.buffalo.cse.green.relationship.generalization",1330724420738
stopped,bundle,edu.buffalo.cse.green.relationship.realization,3.5.0,"edu.buffalo.cse.green.relationship.realization",1330724420742
stopped,bundle,edu.buffalo.cse.green.save.svg,3.5.0,"edu.buffalo.cse.green.save.svg",1330724420745
stopped,bundle,edu.buffalo.cse.green,3.5.0,"edu.buffalo.cse.green",1330724420748
stopped,bundle,org.eclipse.gmf.bridge,1.1.100.v20100309-2359,"org.eclipse.gmf.bridge",1330724420749
stopped,bundle,org.eclipse.gmf.codegen.edit,2.2.100.v20100309-2359,"org.eclipse.gmf.codegen.edit",1330724420752
stopped,bundle,org.eclipse.gmf.codegen,2.2.100.v20100518-2359,"org.eclipse.gmf.codegen",1330724420754
stopped,bundle,org.eclipse.gmf.graphdef.codegen,2.0.100.v20100421-2359,"org.eclipse.gmf.graphdef.codegen",1330724420756
stopped,bundle,org.eclipse.gmf.map.edit,2.2.100.v20100309-2359,"org.eclipse.gmf.map.edit",1330724420757
stopped,bundle,org.eclipse.gmf.graphdef.edit,2.0.200.v20090216-1925,"org.eclipse.gmf.graphdef.edit",1330724420760
stopped,bundle,org.eclipse.gmf.map,2.2.100.v20100309-2359,"org.eclipse.gmf.map",1330724420763
stopped,bundle,org.eclipse.gmf.tooldef.edit,2.0.100.v20090114-0940,"org.eclipse.gmf.tooldef.edit",1330724420765
stopped,bundle,org.eclipse.gmf.tooldef,2.0.0.v20090114-0940,"org.eclipse.gmf.tooldef",1330724420766
stopped,bundle,org.eclipse.gmf.common,1.2.0.v20100226-2359,"org.eclipse.gmf.common",1330724420768
stopped,bundle,com.collabnet.subversion.merge,2.1.0,"com.collabnet.subversion.merge",1330724420768
stopped,bundle,org.tigris.subversion.subclipse.graph,1.0.8,"org.tigris.subversion.subclipse.graph",1330724420768
stopped,bundle,org.tigris.subversion.subclipse.mylyn,3.0.0,"org.tigris.subversion.subclipse.mylyn",1330724420769
stopped,bundle,org.tigris.subversion.subclipse.ui,1.6.13,"org.tigris.subversion.subclipse.ui",1330724420769
stopped,bundle,com.python.pydev.codecompletion,2.1.0.2011052613,"com.python.pydev.codecompletion",1330724420772
stopped,bundle,com.python.pydev.refactoring,2.1.0.2011052613,"com.python.pydev.refactoring",1330724420776
stopped,bundle,org.eclipse.pde.runtime,3.4.200.v20100601,"org.eclipse.pde.runtime",1330724420778
stopped,bundle,com.python.pydev.analysis,2.1.0.2011052613,"com.python.pydev.analysis",1330724420782
stopped,bundle,com.python.pydev.debug,2.1.0.2011052613,"com.python.pydev.debug",1330724420784
stopped,bundle,com.python.pydev.fastparser,2.1.0.2011052613,"com.python.pydev.fastparser",1330724420787
stopped,bundle,com.python.pydev,2.1.0.2011052613,"com.python.pydev",1330724420791
stopped,bundle,org.python.pydev.django,2.1.0.2011052613,"org.python.pydev.django",1330724420794
stopped,bundle,org.python.pydev.customizations,2.1.0.2011052613,"org.python.pydev.customizations",1330724420799
stopped,bundle,org.python.pydev.red_core,2.1.0.2011052613,"org.python.pydev.red_core",1330724420802
stopped,bundle,org.python.pydev.debug,2.1.0.2011052613,"org.python.pydev.debug",1330724420805
stopped,bundle,org.python.pydev.refactoring,2.1.0.2011052613,"org.python.pydev.refactoring",1330724420809
stopped,bundle,org.python.pydev,2.1.0.2011052613,"org.python.pydev",1330724420813
stopped,bundle,org.springframework.ide.eclipse.beans.ui.refactoring,2.7.0.201107040453-RELEASE,"org.springframework.ide.eclipse.beans.ui.refactoring",1330724420814
stopped,bundle,org.springframework.ide.eclipse.beans.ui.editor,2.7.0.201107040453-RELEASE,"org.springframework.ide.eclipse.beans.ui.editor",1330724420815
stopped,bundle,org.springframework.ide.eclipse.beans.ui.graph,2.7.0.201107040453-RELEASE,"org.springframework.ide.eclipse.beans.ui.graph",1330724420816
stopped,bundle,org.springframework.ide.eclipse.beans.ui.search,2.7.0.201107040453-RELEASE,"org.springframework.ide.eclipse.beans.ui.search",1330724420816
stopped,bundle,org.springframework.ide.eclipse.beans.ui,2.7.0.201107040453-RELEASE,"org.springframework.ide.eclipse.beans.ui",1330724420817
stopped,bundle,org.springframework.ide.eclipse.ui,2.7.0.201107040453-RELEASE,"org.springframework.ide.eclipse.ui",1330724420817
stopped,bundle,org.eclipse.jdt.ui,3.6.0.v20100602-1600,"org.eclipse.jdt.ui",1330724420817
stopped,bundle,org.eclipse.wst.dtd.ui,1.0.500.v201004290328,"org.eclipse.wst.dtd.ui",1330724420818
stopped,bundle,org.eclipse.wst.xsd.ui,1.2.303.v201004290328,"org.eclipse.wst.xsd.ui",1330724420821
stopped,bundle,org.eclipse.wst.xml.ui,1.1.100.v201006030742,"org.eclipse.wst.xml.ui",1330724420822
stopped,bundle,org.eclipse.wst.common.ui,1.1.500.v200911190730,"org.eclipse.wst.common.ui",1330724420824
stopped,bundle,org.eclipse.wst.sse.ui,1.2.0.v201006030742,"org.eclipse.wst.sse.ui",1330724420826
stopped,bundle,org.eclipse.cdt.debug.ui.memory.search,1.2.0.201006141710,"org.eclipse.cdt.debug.ui.memory.search",1330724420827
stopped,bundle,org.eclipse.cdt.debug.ui.memory.traditional,1.2.0.201006141710,"org.eclipse.cdt.debug.ui.memory.traditional",1330724420829
stopped,bundle,org.eclipse.cdt.codan.checkers.ui,1.0.0.201006141710,"org.eclipse.cdt.codan.checkers.ui",1330724420830
stopped,bundle,org.eclipse.cdt.codan.ui.cxx,1.0.0.201006141710,"org.eclipse.cdt.codan.ui.cxx",1330724420830
stopped,bundle,org.eclipse.cdt.codan.ui,1.0.0.201006141710,"org.eclipse.cdt.codan.ui",1330724420833
stopped,bundle,org.eclipse.cdt.core.lrparser.xlc,1.0.0.201006141710,"org.eclipse.cdt.core.lrparser.xlc",1330724420835
stopped,bundle,org.eclipse.cdt.debug.edc.linux.x86,1.0.0.201006141710,"org.eclipse.cdt.debug.edc.linux.x86",1330724420838
stopped,bundle,org.eclipse.cdt.debug.edc.windows.ui,1.0.0.201006141710,"org.eclipse.cdt.debug.edc.windows.ui",1330724420839
stopped,bundle,org.eclipse.cdt.debug.edc.windows,1.0.0.201006141710,"org.eclipse.cdt.debug.edc.windows",1330724420842
stopped,bundle,org.eclipse.cdt.debug.edc.ui,1.0.0.201006141710,"org.eclipse.cdt.debug.edc.ui",1330724420843
stopped,bundle,org.eclipse.cdt.launch.remote,2.2.0.201006141710,"org.eclipse.cdt.launch.remote",1330724420844
stopped,bundle,org.eclipse.cdt.debug.mi.ui,6.1.0.201006141710,"org.eclipse.cdt.debug.mi.ui",1330724420846
stopped,bundle,org.eclipse.cdt.debug.ui.memory.memorybrowser,1.2.0.201006141710,"org.eclipse.cdt.debug.ui.memory.memorybrowser",1330724420848
stopped,bundle,org.eclipse.cdt.debug.gdbjtag.ui,7.0.0.201006141710,"org.eclipse.cdt.debug.gdbjtag.ui",1330724420849
stopped,bundle,org.eclipse.cdt.dsf.gdb.ui,2.1.0.201006141710,"org.eclipse.cdt.dsf.gdb.ui",1330724420851
stopped,bundle,org.eclipse.cdt.examples.dsf,2.1.0.201006141710,"org.eclipse.cdt.examples.dsf",1330724420853
stopped,bundle,org.eclipse.cdt.examples.dsf.pda.ui,2.1.0.201006141710,"org.eclipse.cdt.examples.dsf.pda.ui",1330724420855
stopped,bundle,org.eclipse.cdt.dsf.ui,2.1.0.201006141710,"org.eclipse.cdt.dsf.ui",1330724420857
stopped,bundle,org.eclipse.cdt.gdb.ui,7.0.0.201006141710,"org.eclipse.cdt.gdb.ui",1330724420860
stopped,bundle,org.eclipse.cdt.debug.edc.x86,1.0.0.201006141710,"org.eclipse.cdt.debug.edc.x86",1330724420861
stopped,bundle,org.eclipse.cdt.debug.edc,1.0.0.201006141710,"org.eclipse.cdt.debug.edc",1330724420863
stopped,bundle,org.eclipse.cdt.debug.gdbjtag.core,7.0.0.201006141710,"org.eclipse.cdt.debug.gdbjtag.core",1330724420865
stopped,bundle,org.eclipse.cdt.dsf.gdb,3.0.0.201006141710,"org.eclipse.cdt.dsf.gdb",1330724420867
stopped,bundle,org.eclipse.cdt.launch,6.1.0.201006141710,"org.eclipse.cdt.launch",1330724420868
stopped,bundle,org.eclipse.cdt.debug.ui,7.0.0.201006141710,"org.eclipse.cdt.debug.ui",1330724420870
activated,perspective,edu.rice.cs.drjava,,"edu.rice.cs.drjava.DrJavaPerspective",1331239670284
started,bundle,org.eclipse.osgi,3.6.0.v20100517,"org.eclipse.osgi",1331239670285
started,bundle,org.eclipse.equinox.simpleconfigurator,1.0.200.v20100503,"org.eclipse.equinox.simpleconfigurator",1331239670287
started,bundle,com.ibm.icu,4.2.1.v20100412,"com.ibm.icu",1331239670287
started,bundle,org.eclipse.compare,3.5.100.I20100526-0800,"org.eclipse.compare",1331239670287
started,bundle,org.eclipse.compare.core,3.5.100.I20100526-0800,"org.eclipse.compare.core",1331239670288
started,bundle,org.eclipse.core.contenttype,3.4.100.v20100505-1235,"org.eclipse.core.contenttype",1331239670288
started,bundle,org.eclipse.core.databinding.observable,1.3.0.I20100601-0800,"org.eclipse.core.databinding.observable",1331239670289
started,bundle,org.eclipse.core.expressions,3.4.200.v20100505,"org.eclipse.core.expressions",1331239670289
started,bundle,org.eclipse.core.filebuffers,3.5.100.v20100520-0800,"org.eclipse.core.filebuffers",1331239670290
started,bundle,org.eclipse.core.filesystem,1.3.0.v20100526-0737,"org.eclipse.core.filesystem",1331239670290
started,bundle,org.eclipse.core.net,1.2.100.I20100511-0800,"org.eclipse.core.net",1331239670290
started,bundle,org.eclipse.core.resources,3.6.0.v20100526-0737,"org.eclipse.core.resources",1331239670290
started,bundle,org.eclipse.core.runtime,3.6.0.v20100505,"org.eclipse.core.runtime",1331239670290
started,bundle,org.eclipse.core.runtime.compatibility,3.2.100.v20100505,"org.eclipse.core.runtime.compatibility",1331239670291
started,bundle,org.eclipse.core.runtime.compatibility.auth,3.2.200.v20100517,"org.eclipse.core.runtime.compatibility.auth",1331239670292
started,bundle,org.eclipse.debug.core,3.6.0.v20100519,"org.eclipse.debug.core",1331239670292
started,bundle,org.eclipse.epp.usagedata.gathering,1.3.0.R201005261100,"org.eclipse.epp.usagedata.gathering",1331239670292
started,bundle,org.eclipse.epp.usagedata.recording,1.3.0.R201005261100,"org.eclipse.epp.usagedata.recording",1331239670292
started,bundle,org.eclipse.equinox.app,1.3.0.v20100512,"org.eclipse.equinox.app",1331239670292
started,bundle,org.eclipse.equinox.common,3.6.0.v20100503,"org.eclipse.equinox.common",1331239670292
started,bundle,org.eclipse.equinox.ds,1.2.0.v20100507,"org.eclipse.equinox.ds",1331239670293
started,bundle,org.eclipse.equinox.event,1.2.0.v20100503,"org.eclipse.equinox.event",1331239670296
started,bundle,org.eclipse.equinox.frameworkadmin,2.0.0.v20100503,"org.eclipse.equinox.frameworkadmin",1331239670298
started,bundle,org.eclipse.equinox.p2.core,2.0.0.v20100510,"org.eclipse.equinox.p2.core",1331239670299
started,bundle,org.eclipse.equinox.p2.directorywatcher,1.0.200.v20100601,"org.eclipse.equinox.p2.directorywatcher",1331239670299
started,bundle,org.eclipse.equinox.p2.engine,2.0.0.v20100606,"org.eclipse.equinox.p2.engine",1331239670299
started,bundle,org.eclipse.equinox.p2.metadata,2.0.0.v20100601,"org.eclipse.equinox.p2.metadata",1331239670300
started,bundle,org.eclipse.equinox.p2.metadata.repository,1.1.0.v20100513,"org.eclipse.equinox.p2.metadata.repository",1331239670300
started,bundle,org.eclipse.equinox.p2.operations,2.0.0.v20100510,"org.eclipse.equinox.p2.operations",1331239670300
started,bundle,org.eclipse.equinox.p2.reconciler.dropins,1.1.0.v20100525,"org.eclipse.equinox.p2.reconciler.dropins",1331239670300
started,bundle,org.eclipse.equinox.p2.repository,2.0.0.v20100519,"org.eclipse.equinox.p2.repository",1331239670300
started,bundle,org.eclipse.equinox.p2.ui.sdk.scheduler,1.0.0.v20100507-1815,"org.eclipse.equinox.p2.ui.sdk.scheduler",1331239670301
started,bundle,org.eclipse.equinox.p2.updatechecker,1.1.100.v20100503a,"org.eclipse.equinox.p2.updatechecker",1331239670301
started,bundle,org.eclipse.equinox.preferences,3.3.0.v20100503,"org.eclipse.equinox.preferences",1331239670301
started,bundle,org.eclipse.equinox.registry,3.5.0.v20100503,"org.eclipse.equinox.registry",1331239670301
started,bundle,org.eclipse.equinox.security,1.0.200.v20100503,"org.eclipse.equinox.security",1331239670301
started,bundle,org.eclipse.equinox.simpleconfigurator.manipulator,2.0.0.v20100503,"org.eclipse.equinox.simpleconfigurator.manipulator",1331239670302
started,bundle,org.eclipse.equinox.util,1.0.200.v20100503,"org.eclipse.equinox.util",1331239670303
started,bundle,org.eclipse.help,3.5.0.v20100524,"org.eclipse.help",1331239670303
started,bundle,org.eclipse.jdt.core,3.6.0.v_A58,"org.eclipse.jdt.core",1331239670303
started,bundle,org.eclipse.jdt.core.manipulation,1.3.0.v20100520-0800,"org.eclipse.jdt.core.manipulation",1331239670303
started,bundle,org.eclipse.jdt.junit.core,3.6.0.v20100526-0800,"org.eclipse.jdt.junit.core",1331239670303
started,bundle,org.eclipse.jdt.launching,3.5.100.v20100526,"org.eclipse.jdt.launching",1331239670303
started,bundle,org.eclipse.jdt.ui,3.6.0.v20100602-1600,"org.eclipse.jdt.ui",1331239670303
started,bundle,org.eclipse.jface,3.6.0.I20100601-0800,"org.eclipse.jface",1331239670304
started,bundle,org.eclipse.jsch.core,1.1.200.I20100505-1245,"org.eclipse.jsch.core",1331239670304
started,bundle,org.eclipse.ltk.core.refactoring,3.5.100.v20100526-0800,"org.eclipse.ltk.core.refactoring",1331239670304
started,bundle,org.eclipse.ltk.ui.refactoring,3.5.0.v20100526-0800,"org.eclipse.ltk.ui.refactoring",1331239670304
started,bundle,org.eclipse.mylyn.commons.ui,3.4.0.v20100608-0100-e3x,"org.eclipse.mylyn.commons.ui",1331239670304
started,bundle,org.eclipse.mylyn.context.core,3.4.0.v20100608-0100-e3x,"org.eclipse.mylyn.context.core",1331239670304
started,bundle,org.eclipse.mylyn.monitor.ui,3.4.0.v20100608-0100-e3x,"org.eclipse.mylyn.monitor.ui",1331239670304
started,bundle,org.eclipse.mylyn.team.ui,3.4.0.v20100608-0100-e3x,"org.eclipse.mylyn.team.ui",1331239670304
started,bundle,org.eclipse.team.core,3.5.100.I20100527-0800,"org.eclipse.team.core",1331239670304
started,bundle,org.eclipse.team.cvs.core,3.3.300.I20100526-0800,"org.eclipse.team.cvs.core",1331239670304
started,bundle,org.eclipse.team.cvs.ui,3.3.300.I20100526-0800,"org.eclipse.team.cvs.ui",1331239670304
started,bundle,org.eclipse.team.ui,3.5.100.I20100527-0800,"org.eclipse.team.ui",1331239670304
started,bundle,org.eclipse.ui,3.6.0.I20100603-1100,"org.eclipse.ui",1331239670304
started,bundle,org.eclipse.ui.console,3.5.0.v20100526,"org.eclipse.ui.console",1331239670304
started,bundle,org.eclipse.ui.editors,3.6.0.v20100520-0800,"org.eclipse.ui.editors",1331239670304
started,bundle,org.eclipse.ui.forms,3.5.0.v20100427,"org.eclipse.ui.forms",1331239670305
started,bundle,org.eclipse.ui.ide,3.6.0.I20100601-0800,"org.eclipse.ui.ide",1331239670305
started,bundle,org.eclipse.ui.navigator,3.5.0.I20100601-0800,"org.eclipse.ui.navigator",1331239670305
started,bundle,org.eclipse.ui.net,1.2.100.I20100505-1245,"org.eclipse.ui.net",1331239670305
started,bundle,org.eclipse.ui.views,3.5.0.I20100527-0800,"org.eclipse.ui.views",1331239670305
started,bundle,org.eclipse.ui.workbench,3.6.0.I20100603-1100,"org.eclipse.ui.workbench",1331239670305
started,bundle,org.eclipse.ui.workbench.texteditor,3.6.0.v20100520-0800,"org.eclipse.ui.workbench.texteditor",1331239670305
started,bundle,org.eclipse.update.configurator,3.3.100.v20100512,"org.eclipse.update.configurator",1331239670305
started,bundle,org.eclipse.update.core,3.2.400.v20100512,"org.eclipse.update.core",1331239670305
started,bundle,org.eclipse.update.scheduler,3.2.300.v20100512,"org.eclipse.update.scheduler",1331239670305
started,bundle,edu.rice.cs.drjava,0.9.8,"edu.rice.cs.drjava",1331239670305
started,bundle,com.collabnet.subversion.merge,2.1.0,"com.collabnet.subversion.merge",1331239670305
started,bundle,org.eclipse.mylyn.bugzilla.core,3.4.0.v20100730-0100-e3x,"org.eclipse.mylyn.bugzilla.core",1331239670305
started,bundle,org.eclipse.mylyn.bugzilla.ui,3.4.0.v20100730-0100-e3x,"org.eclipse.mylyn.bugzilla.ui",1331239670305
started,bundle,org.eclipse.mylyn.commons.net,3.4.1.v20100625-2100-e3x,"org.eclipse.mylyn.commons.net",1331239670305
