what,kind,bundleId,bundleVersion,description,time
started,bundle,oracle.eclipse.tools.xmlbeans,4.2.0.201112072225,"oracle.eclipse.tools.xmlbeans",1334866792993
started,bundle,org.eclipse.sapphire.modeling,0.4.0.201112010656,"org.eclipse.sapphire.modeling",1334866792993
started,bundle,org.eclipse.sapphire.ui,0.4.0.201112010656,"org.eclipse.sapphire.ui",1334866792993
started,bundle,org.springframework.ide.eclipse.beans.core,2.8.0.201110170010-RELEASE,"org.springframework.ide.eclipse.beans.core",1334866792993
started,bundle,org.springframework.ide.eclipse.beans.ui,2.8.0.201110170010-RELEASE,"org.springframework.ide.eclipse.beans.ui",1334866792993
started,bundle,org.springframework.ide.eclipse.core,2.8.0.201110170010-RELEASE,"org.springframework.ide.eclipse.core",1334866792993
started,bundle,org.springframework.ide.eclipse.ui,2.8.0.201110170010-RELEASE,"org.springframework.ide.eclipse.ui",1334866792993
started,bundle,org.eclipse.mylyn.tasks.ui,3.6.4.v20111117-0100,"org.eclipse.mylyn.tasks.ui",1334866792993
started,bundle,org.eclipse.equinox.weaving.aspectj,1.0.0.v20100503,"org.eclipse.equinox.weaving.aspectj",1334866792993
started,bundle,org.scala-ide.sdt.aspects,2.0.0.v-2_09-201112200102-82421c5,"org.scala-ide.sdt.aspects",1334866792993
started,bundle,org.scala-ide.sdt.core,2.0.0.v-2_09-201112200102-82421c5,"org.scala-ide.sdt.core",1334866792993
started,bundle,org.tigris.subversion.clientadapter,1.6.12,"org.tigris.subversion.clientadapter",1334866792993
started,bundle,org.tigris.subversion.subclipse.core,1.6.18,"org.tigris.subversion.subclipse.core",1334866792993
started,bundle,org.tigris.subversion.subclipse.mylyn,3.0.0,"org.tigris.subversion.subclipse.mylyn",1334866792993
started,bundle,oracle.eclipse.tools.common,4.2.1.201203120349,"oracle.eclipse.tools.common",1334866792993
started,bundle,oracle.eclipse.tools.common.ui,4.2.1.201203120349,"oracle.eclipse.tools.common.ui",1334866792993
os,sysinfo,,,"linux",1334866792998
arch,sysinfo,,,"x86_64",1334866792998
ws,sysinfo,,,"gtk",1334866792998
locale,sysinfo,,,"en_US",1334866792998
processors,sysinfo,,,"16",1334866792998
java.runtime.name,sysinfo,,,"Java(TM) SE Runtime Environment",1334866792998
java.runtime.version,sysinfo,,,"1.7.0_03-b04",1334866792998
java.specification.name,sysinfo,,,"Java Platform API Specification",1334866792998
java.specification.vendor,sysinfo,,,"Oracle Corporation",1334866792998
java.specification.version,sysinfo,,,"1.7",1334866792998
java.vendor,sysinfo,,,"Oracle Corporation",1334866792998
java.version,sysinfo,,,"1.7.0_03",1334866792998
java.vm.info,sysinfo,,,"mixed mode",1334866792999
java.vm.name,sysinfo,,,"Java HotSpot(TM) 64-Bit Server VM",1334866792999
java.vm.specification.name,sysinfo,,,"Java Virtual Machine Specification",1334866792999
java.vm.specification.vendor,sysinfo,,,"Oracle Corporation",1334866792999
java.vm.specification.version,sysinfo,,,"1.7",1334866792999
java.vm.vendor,sysinfo,,,"Oracle Corporation",1334866792999
java.vm.version,sysinfo,,,"22.1-b02",1334866792999
started,bundle,org.eclipse.m2e.usagedata,1.0.100.20110804-1717,"org.eclipse.m2e.usagedata",1334866793002
started,bundle,org.eclipse.wb.discovery.ui,1.1.0.r37x201109091028,"org.eclipse.wb.discovery.ui",1334866793060
started,bundle,oracle.eclipse.tools.adf.appgen,4.2.0.201112072225,"oracle.eclipse.tools.adf.appgen",1334866793066
started,bundle,org.eclipse.wst.sse.core,1.1.601.v201108151912,"org.eclipse.wst.sse.core",1334866793150
started,bundle,org.eclipse.jst.jsp.core,1.2.401.v201108302147,"org.eclipse.jst.jsp.core",1334866793172
started,bundle,org.eclipse.emf.common,2.7.0.v20110912-0920,"org.eclipse.emf.common",1334866793252
started,bundle,org.eclipse.jst.jsf.common,1.2.3.v201104061039,"org.eclipse.jst.jsf.common",1334866793254
started,bundle,oracle.eclipse.tools.common.services,4.2.0.201112072225,"oracle.eclipse.tools.common.services",1334866793286
started,bundle,oracle.eclipse.tools.common.services.ui,4.2.0.201112072225,"oracle.eclipse.tools.common.services.ui",1334866793286
started,bundle,org.eclipse.jst.common.project.facet.core,1.4.200.v201103170302,"org.eclipse.jst.common.project.facet.core",1334866793381
started,bundle,org.eclipse.jst.ws.jaxrs.core,1.0.301.v201108240656,"org.eclipse.jst.ws.jaxrs.core",1334866793386
started,bundle,oracle.eclipse.tools.spring.ui,4.2.0.201112072225,"oracle.eclipse.tools.spring.ui",1334866793561
started,bundle,oracle.eclipse.tools.weblogic,4.2.0.201112072225,"oracle.eclipse.tools.weblogic",1334866793610
started,bundle,oracle.eclipse.tools.glassfish,4.2.0.201111040904,"oracle.eclipse.tools.glassfish",1334866794319
started,bundle,org.eclipse.wst.server.ui,1.1.306.v20110823_1704,"org.eclipse.wst.server.ui",1334866794341
started,bundle,org.eclipse.jpt.common.core,1.0.1.v201108080010,"org.eclipse.jpt.common.core",1334866794344
started,bundle,org.eclipse.jpt.jpa.core,3.0.1.v201109073010,"org.eclipse.jpt.jpa.core",1334866794345
started,bundle,org.eclipse.jst.server.core,1.2.202.v20110419,"org.eclipse.jst.server.core",1334866794385
started,bundle,oracle.eclipse.tools.webtier.ui,4.2.0.201112072225,"oracle.eclipse.tools.webtier.ui",1334866794397
started,bundle,oracle.eclipse.tools.application.common.services,4.2.0.201112072225,"oracle.eclipse.tools.application.common.services",1334866794402
started,bundle,org.eclipse.ui.views.properties.tabbed,3.5.200.I20110201-0800,"org.eclipse.ui.views.properties.tabbed",1334866794418
started,bundle,org.eclipse.jst.jsf.common.ui,1.2.100.v201104061711,"org.eclipse.jst.jsf.common.ui",1334866794431
started,bundle,org.eclipse.jst.pagedesigner,1.3.103.v201109010833-p001,"org.eclipse.jst.pagedesigner",1334866794437
started,bundle,org.eclipse.wst.web,1.1.500.v201104251400,"org.eclipse.wst.web",1334866794585
started,bundle,org.eclipse.wst.common.frameworks,1.2.101.v201107192200,"org.eclipse.wst.common.frameworks",1334866794598
started,bundle,org.springframework.ide.eclipse.uaa,2.8.0.201110170010-RELEASE,"org.springframework.ide.eclipse.uaa",1334866794621
started,bundle,org.eclipse.cdt.codan.ui.cxx,2.0.0.201109151620,"org.eclipse.cdt.codan.ui.cxx",1334866794622
started,bundle,net.sf.eclipsecs.core,5.1.1.201008161956,"net.sf.eclipsecs.core",1334866794637
started,bundle,net.sf.eclipsecs.ui,5.1.1.201008161956,"net.sf.eclipsecs.ui",1334866794639
started,bundle,org.eclipse.emf.ecore,2.7.0.v20110912-0920,"org.eclipse.emf.ecore",1334866794662
started,bundle,org.eclipse.wst.common.emf,1.2.100.v201101101900,"org.eclipse.wst.common.emf",1334866794669
started,bundle,org.eclipse.jem.util,2.1.100.v201103021400,"org.eclipse.jem.util",1334866794680
started,bundle,org.eclipse.emf.ecore.xmi,2.7.0.v20110520-1406,"org.eclipse.emf.ecore.xmi",1334866794685
started,bundle,org.eclipse.wst.common.emfworkbench.integration,1.2.101.v201107140600,"org.eclipse.wst.common.emfworkbench.integration",1334866794687
started,bundle,org.eclipse.wst.common.core,1.2.0.v200908252030,"org.eclipse.wst.common.core",1334866794721
started,bundle,org.eclipse.wst.common.modulecore,1.2.101.v201108231700,"org.eclipse.wst.common.modulecore",1334866794725
started,bundle,oracle.eclipse.tools.webservices,4.2.0.201112072225,"oracle.eclipse.tools.webservices",1334866794742
started,bundle,oracle.eclipse.tools.webtier.common.services,4.2.0.201112072225,"oracle.eclipse.tools.webtier.common.services",1334866794743
started,bundle,oracle.eclipse.tools.webtier.javawebapp,4.2.0.201112072225,"oracle.eclipse.tools.webtier.javawebapp",1334866794753
started,bundle,oracle.eclipse.tools.adf.model,4.2.0.201112072225,"oracle.eclipse.tools.adf.model",1334866794766
started,bundle,oracle.eclipse.tools.adf.view,4.2.0.201112072225,"oracle.eclipse.tools.adf.view",1334866794771
started,bundle,oracle.eclipse.tools.xml.model,4.2.0.201112072225,"oracle.eclipse.tools.xml.model",1334866794777
started,bundle,oracle.eclipse.tools.webtier.jsf,4.2.0.201112072225,"oracle.eclipse.tools.webtier.jsf",1334866794781
started,bundle,oracle.eclipse.tools.webtier.jsp,4.2.0.201112072225,"oracle.eclipse.tools.webtier.jsp",1334866794784
started,bundle,oracle.eclipse.tools.adf.common,4.2.0.201112072225,"oracle.eclipse.tools.adf.common",1334866794796
started,bundle,org.eclipse.jst.j2ee.web,1.1.501.v201108231500,"org.eclipse.jst.j2ee.web",1334866794841
started,bundle,org.eclipse.jst.j2ee.core,1.2.101.v201108110300,"org.eclipse.jst.j2ee.core",1334866794854
started,bundle,org.eclipse.jem,2.0.500.v201104271400,"org.eclipse.jem",1334866794866
started,bundle,org.eclipse.wst.common.frameworks.ui,1.2.100.v201105122000,"org.eclipse.wst.common.frameworks.ui",1334866794888
started,bundle,org.eclipse.wst.xml.core,1.1.601.v201108302147-p001,"org.eclipse.wst.xml.core",1334866794891
started,bundle,org.eclipse.jst.j2ee,1.1.501.v201108231845,"org.eclipse.jst.j2ee",1334866794919
started,bundle,net.sf.webcat.eclipse.submitter,1.4.3.201101121126,"net.sf.webcat.eclipse.submitter",1334866795051
started,bundle,com.android.ide.eclipse.ddms,16.0.1.v201112150204-238534,"com.android.ide.eclipse.ddms",1334866795155
started,bundle,org.eclipse.cdt.make.core,7.1.1.201109151620,"org.eclipse.cdt.make.core",1334866795177
started,bundle,com.android.ide.eclipse.adt,16.0.1.v201112150204-238534,"com.android.ide.eclipse.adt",1334866795204
error,log,,,"DDMS files not found: /home/csdue/sergeime/platform-tools/adb /home/csdue/sergeime/tools/hprof-conv /home/csdue/sergeime/tools/traceview ",1334866795213
started,bundle,com.android.ide.eclipse.traceview,16.0.1.v201112150204-238534,"com.android.ide.eclipse.traceview",1334866795220
started,bundle,org.tigris.subversion.subclipse.tools.usage,1.0.1,"org.tigris.subversion.subclipse.tools.usage",1334866795224
started,bundle,oracle.eclipse.tools.common.upgrade,4.2.1.201203120349,"oracle.eclipse.tools.common.upgrade",1334866795225
started,bundle,oracle.eclipse.tools.orm,4.2.0.201112072225,"oracle.eclipse.tools.orm",1334866795233
started,bundle,org.eclipse.cdt.managedbuilder.core,8.0.1.201109151620,"org.eclipse.cdt.managedbuilder.core",1334866795234
started,bundle,oracle.eclipse.tools.spring,4.2.0.201112072225,"oracle.eclipse.tools.spring",1334866795236
started,bundle,oracle.eclipse.tools.envcheck,4.2.1.201203120349,"oracle.eclipse.tools.envcheck",1334866795261
started,bundle,edu.buffalo.cse.jive.console,1.9.23.v20120413b,"edu.buffalo.cse.jive.console",1334866795265
started,bundle,org.eclipse.cdt.core,5.3.1.201109151620,"org.eclipse.cdt.core",1334866795315
started,bundle,org.eclipse.ui.navigator,3.5.100.v20110809-2227,"org.eclipse.ui.navigator",1334866795364
started,bundle,org.eclipse.cdt.ui,5.3.1.201109151620,"org.eclipse.cdt.ui",1334866795429
started,bundle,org.eclipse.cdt.codan.core.cxx,1.0.0.201109151620,"org.eclipse.cdt.codan.core.cxx",1334866795431
started,bundle,org.eclipse.cdt.codan.core,2.0.0.201109151620,"org.eclipse.cdt.codan.core",1334866795432
started,bundle,org.eclipse.cdt.make.ui,7.1.1.201109151620,"org.eclipse.cdt.make.ui",1334866795435
started,bundle,org.eclipse.cdt.codan.checkers,1.0.0.201109151620,"org.eclipse.cdt.codan.checkers",1334866795445
started,bundle,org.eclipse.jgit,1.1.0.201109151100-r,"org.eclipse.jgit",1334866795457
started,bundle,org.eclipse.egit.core,1.1.0.201109151100-r,"org.eclipse.egit.core",1334866795477
started,bundle,org.eclipse.egit.ui,1.1.0.201109151100-r,"org.eclipse.egit.ui",1334866795515
opened,editor,org.eclipse.jdt.ui,3.7.1.r371_v20110824-0800,"org.eclipse.jdt.ui.CompilationUnitEditor",1334866795568
opened,editor,org.eclipse.jdt.ui,3.7.1.r371_v20110824-0800,"org.eclipse.jdt.ui.CompilationUnitEditor",1334866795641
opened,editor,org.eclipse.jdt.ui,3.7.1.r371_v20110824-0800,"org.eclipse.jdt.ui.CompilationUnitEditor",1334866795713
opened,editor,org.eclipse.jdt.ui,3.7.1.r371_v20110824-0800,"org.eclipse.jdt.ui.CompilationUnitEditor",1334866795783
opened,editor,org.eclipse.jdt.ui,3.7.1.r371_v20110824-0800,"org.eclipse.jdt.ui.CompilationUnitEditor",1334866795857
activated,workbench,org.eclipse.ui.workbench,3.7.0.I20110519-0100,"",1334866796140
started,bundle,org.python.pydev.core,2.2.3.2011100616,"org.python.pydev.core",1334866796255
started,bundle,org.python.pydev.debug,2.2.3.2011100616,"org.python.pydev.debug",1334866796257
started,bundle,com.python.pydev.analysis,2.2.3.2011100616,"com.python.pydev.analysis",1334866796801
started,bundle,org.python.pydev,2.2.3.2011100616,"org.python.pydev",1334866796907
started,bundle,org.eclipse.cdt.dsf,2.2.0.201109151620,"org.eclipse.cdt.dsf",1334866796918
started,bundle,org.eclipse.cdt.dsf.gdb,4.0.1.201109151620,"org.eclipse.cdt.dsf.gdb",1334866796919
started,bundle,org.eclipse.cdt.dsf.gdb.ui,2.2.1.201109151620,"org.eclipse.cdt.dsf.gdb.ui",1334866796919
opened,view,org.eclipse.ui.ide,3.7.0.v20110809-1737,"org.eclipse.ui.views.ProblemView",1334866797104
deactivated,workbench,org.eclipse.ui.workbench,3.7.0.I20110519-0100,"",1334866797664
started,bundle,org.eclipse.compare,3.5.201.R37x_v20110817-0800,"org.eclipse.compare",1334866798592
started,bundle,org.eclipse.team.cvs.ssh2,3.2.300.I20110511-0800,"org.eclipse.team.cvs.ssh2",1334866798612
error,log,,,"Server returned HTTP response code: 500 for URL: https://ping.aptana.com/ping.php",1334866798721
started,bundle,com.collabnet.subversion.merge,2.2.4,"com.collabnet.subversion.merge",1334866798911
started,bundle,org.tigris.subversion.subclipse.ui,1.6.18,"org.tigris.subversion.subclipse.ui",1334866798991
activated,workbench,org.eclipse.ui.workbench,3.7.0.I20110519-0100,"",1334866802814
deactivated,workbench,org.eclipse.ui.workbench,3.7.0.I20110519-0100,"",1334866804773
started,bundle,org.eclipse.m2e.core,1.0.100.20110804-1717,"org.eclipse.m2e.core",1334866805880
started,bundle,org.eclipse.m2e.jdt,1.0.100.20110804-1717,"org.eclipse.m2e.jdt",1334866805885
error,log,,,"Unable to update index for central|http://repo1.maven.org/maven2",1334866808819
closed,workbench,org.eclipse.ui.workbench,3.7.0.I20110519-0100,"",1334866809462
stopped,bundle,org.eclipse.m2e.logback.configuration,1.0.100.20110804-1717,"org.eclipse.m2e.logback.configuration",1334866810874
stopped,bundle,org.eclipse.m2e.discovery,1.0.100.20110804-1717,"org.eclipse.m2e.discovery",1334866810878
stopped,bundle,org.eclipse.m2e.refactoring,1.0.100.20110804-1717,"org.eclipse.m2e.refactoring",1334866810878
stopped,bundle,org.eclipse.m2e.editor,1.0.100.20110804-1717,"org.eclipse.m2e.editor",1334866810878
stopped,bundle,org.eclipse.m2e.editor.xml,1.0.100.20110804-1717,"org.eclipse.m2e.editor.xml",1334866810878
stopped,bundle,org.eclipse.m2e.jdt,1.0.100.20110804-1717,"org.eclipse.m2e.jdt",1334866810880
stopped,bundle,org.eclipse.m2e.launching,1.0.100.20110804-1717,"org.eclipse.m2e.launching",1334866810880
stopped,bundle,org.eclipse.m2e.usagedata,1.0.100.20110804-1717,"org.eclipse.m2e.usagedata",1334866810880
stopped,bundle,oracle.eclipse.tools.orm.ui,4.2.0.201112072225,"oracle.eclipse.tools.orm.ui",1334866810880
stopped,bundle,oracle.eclipse.tools.adf.common.ui,4.2.0.201112072225,"oracle.eclipse.tools.adf.common.ui",1334866810880
stopped,bundle,oracle.eclipse.tools.adf.controller.ui,4.2.0.201112072225,"oracle.eclipse.tools.adf.controller.ui",1334866810880
stopped,bundle,oracle.eclipse.tools.adf.debugger.ui,4.2.0.201112072225,"oracle.eclipse.tools.adf.debugger.ui",1334866810880
stopped,bundle,oracle.eclipse.tools.adf.debugger,4.2.0.201112072225,"oracle.eclipse.tools.adf.debugger",1334866810880
stopped,bundle,oracle.eclipse.tools.adf.view.ui,4.2.0.201112072225,"oracle.eclipse.tools.adf.view.ui",1334866810880
stopped,bundle,oracle.eclipse.tools.adf.view,4.2.0.201112072225,"oracle.eclipse.tools.adf.view",1334866810880
stopped,bundle,oracle.eclipse.tools.adf.controller,4.2.0.201112072225,"oracle.eclipse.tools.adf.controller",1334866810880
stopped,bundle,oracle.eclipse.tools.adf.model,4.2.0.201112072225,"oracle.eclipse.tools.adf.model",1334866810880
stopped,bundle,oracle.eclipse.tools.adf.common,4.2.0.201112072225,"oracle.eclipse.tools.adf.common",1334866810880
stopped,bundle,oracle.eclipse.tools.adf.doc.v11116,4.2.0.201112072225,"oracle.eclipse.tools.adf.doc.v11116",1334866810881
stopped,bundle,oracle.eclipse.tools.adf.doc.v11gR1PS3,4.2.0.201112072225,"oracle.eclipse.tools.adf.doc.v11gR1PS3",1334866810881
stopped,bundle,oracle.eclipse.tools.adf.doc.v11gR1PS4,4.2.0.201112072225,"oracle.eclipse.tools.adf.doc.v11gR1PS4",1334866810881
stopped,bundle,oracle.eclipse.tools.cloud.ui,4.2.0.201112072225,"oracle.eclipse.tools.cloud.ui",1334866810881
stopped,bundle,oracle.eclipse.tools.cloud,4.2.0.201112072225,"oracle.eclipse.tools.cloud",1334866810881
stopped,bundle,oracle.eclipse.tools.coherence.ui,4.2.0.201112072225,"oracle.eclipse.tools.coherence.ui",1334866810881
stopped,bundle,oracle.eclipse.tools.coherence,4.2.0.201112072225,"oracle.eclipse.tools.coherence",1334866810881
stopped,bundle,oracle.eclipse.tools.spring.ui,4.2.0.201112072225,"oracle.eclipse.tools.spring.ui",1334866810881
stopped,bundle,oracle.eclipse.tools.orm,4.2.0.201112072225,"oracle.eclipse.tools.orm",1334866810881
stopped,bundle,oracle.eclipse.tools.spring,4.2.0.201112072225,"oracle.eclipse.tools.spring",1334866810881
stopped,bundle,oracle.eclipse.tools.weblogic.legacy,4.2.0.201112072225,"oracle.eclipse.tools.weblogic.legacy",1334866810881
stopped,bundle,oracle.eclipse.tools.weblogic.scripting.ui,4.2.0.201112072225,"oracle.eclipse.tools.weblogic.scripting.ui",1334866810882
stopped,bundle,oracle.eclipse.tools.weblogic.scripting,4.2.0.201112072225,"oracle.eclipse.tools.weblogic.scripting",1334866810882
stopped,bundle,oracle.eclipse.tools.weblogic.ui,4.2.0.201112072225,"oracle.eclipse.tools.weblogic.ui",1334866810882
stopped,bundle,oracle.eclipse.tools.webservices.ui,4.2.0.201112072225,"oracle.eclipse.tools.webservices.ui",1334866810882
stopped,bundle,oracle.eclipse.tools.webservices,4.2.0.201112072225,"oracle.eclipse.tools.webservices",1334866810882
stopped,bundle,oracle.eclipse.tools.adf.appgen.ui,4.2.0.201112072225,"oracle.eclipse.tools.adf.appgen.ui",1334866810882
stopped,bundle,oracle.eclipse.tools.adf.appgen,4.2.0.201112072225,"oracle.eclipse.tools.adf.appgen",1334866810883
stopped,bundle,oracle.eclipse.tools.webtier.jsf.ui,4.2.0.201112072225,"oracle.eclipse.tools.webtier.jsf.ui",1334866810883
stopped,bundle,oracle.eclipse.tools.webtier.jsf,4.2.0.201112072225,"oracle.eclipse.tools.webtier.jsf",1334866810883
stopped,bundle,oracle.eclipse.tools.webtier.html.ui,4.2.0.201112072225,"oracle.eclipse.tools.webtier.html.ui",1334866810883
stopped,bundle,oracle.eclipse.tools.webtier.jstl.ui,4.2.0.201112072225,"oracle.eclipse.tools.webtier.jstl.ui",1334866810883
stopped,bundle,oracle.eclipse.tools.webtier.jsp.ui,4.2.0.201112072225,"oracle.eclipse.tools.webtier.jsp.ui",1334866810883
stopped,bundle,oracle.eclipse.tools.webtier.ui,4.2.0.201112072225,"oracle.eclipse.tools.webtier.ui",1334866810885
stopped,bundle,oracle.eclipse.tools.weblogic,4.2.0.201112072225,"oracle.eclipse.tools.weblogic",1334866810885
stopped,bundle,overlay.com.android.ide.eclipse.adt.overlay,16.0.1.v201112150204-238534,"overlay.com.android.ide.eclipse.adt.overlay",1334866810885
stopped,bundle,com.android.ide.eclipse.adt,16.0.1.v201112150204-238534,"com.android.ide.eclipse.adt",1334866810887
stopped,bundle,oracle.eclipse.tools.webtier.trinidad,4.2.0.201112072225,"oracle.eclipse.tools.webtier.trinidad",1334866810888
stopped,bundle,org.eclipse.jst.jsf.apache.trinidad.tagsupport,1.1.200.v201104061711,"org.eclipse.jst.jsf.apache.trinidad.tagsupport",1334866810888
stopped,bundle,org.eclipse.jst.jsf.facesconfig.ui,1.2.2.v201103292152,"org.eclipse.jst.jsf.facesconfig.ui",1334866810888
stopped,bundle,org.eclipse.jst.jsf.ui,1.3.2.v201104251204,"org.eclipse.jst.jsf.ui",1334866810888
stopped,bundle,oracle.eclipse.tools.webtier.jstl,4.2.0.201112072225,"oracle.eclipse.tools.webtier.jstl",1334866810888
stopped,bundle,oracle.eclipse.tools.xml.edit.ui,4.2.0.201112072225,"oracle.eclipse.tools.xml.edit.ui",1334866810888
stopped,bundle,org.eclipse.jst.pagedesigner.jsf.ui,1.2.100.v201104061711,"org.eclipse.jst.pagedesigner.jsf.ui",1334866810888
stopped,bundle,org.eclipse.jst.pagedesigner,1.3.103.v201109010833-p001,"org.eclipse.jst.pagedesigner",1334866810888
stopped,bundle,org.eclipse.jst.jsf.common.ui,1.2.100.v201104061711,"org.eclipse.jst.jsf.common.ui",1334866810888
stopped,bundle,org.eclipse.pde.ua.ui,1.0.100.v20110516,"org.eclipse.pde.ua.ui",1334866810888
stopped,bundle,org.eclipse.datatools.connectivity.oda.template.ui,3.2.2.v201108260345,"org.eclipse.datatools.connectivity.oda.template.ui",1334866810888
stopped,bundle,org.eclipse.pde.api.tools.ui,1.0.301.v20110803_r371,"org.eclipse.pde.api.tools.ui",1334866810888
stopped,bundle,org.eclipse.pde.ds.ui,1.0.100.v20110516,"org.eclipse.pde.ds.ui",1334866810888
stopped,bundle,org.eclipse.pde.runtime,3.4.201.v20110819-0851,"org.eclipse.pde.runtime",1334866810889
stopped,bundle,org.eclipse.pde.ui.templates,3.4.400.v20110516,"org.eclipse.pde.ui.templates",1334866810889
stopped,bundle,org.scala-ide.sdt.core,2.0.0.v-2_09-201112200102-82421c5,"org.scala-ide.sdt.core",1334866810889
stopped,bundle,org.scala-ide.sdt.aspects,2.0.0.v-2_09-201112200102-82421c5,"org.scala-ide.sdt.aspects",1334866810889
stopped,bundle,org.eclipse.pde.ui,3.6.100.v20110603,"org.eclipse.pde.ui",1334866810889
stopped,bundle,org.eclipse.cdt,8.0.0.201109151620,"org.eclipse.cdt",1334866810889
stopped,bundle,org.eclipse.cdt.doc.user,5.1.0.201109151620,"org.eclipse.cdt.doc.user",1334866810889
stopped,bundle,org.eclipse.ui.cheatsheets,3.4.100.v20110425,"org.eclipse.ui.cheatsheets",1334866810889
stopped,bundle,org.eclipse.help.ui,3.5.101.r37_20110819,"org.eclipse.help.ui",1334866810889
stopped,bundle,org.eclipse.help.webapp,3.6.0.v20110518,"org.eclipse.help.webapp",1334866810889
stopped,bundle,org.eclipse.epp.mpc.ui,1.1.1.I20110907-0947,"org.eclipse.epp.mpc.ui",1334866810889
stopped,bundle,org.eclipse.epp.usagedata.ui,1.3.1.R201106061540,"org.eclipse.epp.usagedata.ui",1334866810889
stopped,bundle,org.eclipse.ui.intro.universal,3.2.500.v20110510,"org.eclipse.ui.intro.universal",1334866810890
stopped,bundle,org.eclipse.ui.intro,3.4.100.v20110425,"org.eclipse.ui.intro",1334866810890
stopped,bundle,org.eclipse.jpt.jpa.ui,3.0.1.v201108080010,"org.eclipse.jpt.jpa.ui",1334866810890
stopped,bundle,org.eclipse.datatools.connectivity.db.generic.ui,1.0.1.v201004070709,"org.eclipse.datatools.connectivity.db.generic.ui",1334866810890
stopped,bundle,oracle.eclipse.tools.database.ui,4.2.0.201112072225,"oracle.eclipse.tools.database.ui",1334866810890
stopped,bundle,oracle.eclipse.tools.database.sqltools,4.2.0.201112072225,"oracle.eclipse.tools.database.sqltools",1334866810890
stopped,bundle,oracle.eclipse.tools.database.connectivity,4.2.0.201112072225,"oracle.eclipse.tools.database.connectivity",1334866810890
stopped,bundle,org.eclipse.datatools.sqltools.data.ui,1.2.1.v201010270945,"org.eclipse.datatools.sqltools.data.ui",1334866810890
stopped,bundle,org.eclipse.datatools.connectivity.sqm.server.ui,1.1.100.v201009280455,"org.eclipse.datatools.connectivity.sqm.server.ui",1334866810890
stopped,bundle,org.eclipse.datatools.sqltools.ddlgen.ui,1.0.1.v201002270530,"org.eclipse.datatools.sqltools.ddlgen.ui",1334866810890
stopped,bundle,org.eclipse.datatools.sqltools.routineeditor.ui,1.0.1.v201004060545,"org.eclipse.datatools.sqltools.routineeditor.ui",1334866810890
stopped,bundle,org.eclipse.datatools.sqltools.sqlscrapbook,1.0.1.v201005250945,"org.eclipse.datatools.sqltools.sqlscrapbook",1334866810890
stopped,bundle,org.eclipse.datatools.sqltools.sqleditor,1.0.2.v201009230800,"org.eclipse.datatools.sqltools.sqleditor",1334866810890
stopped,bundle,org.eclipse.datatools.sqltools.editor.core.ui,1.0.0.v201001150815,"org.eclipse.datatools.sqltools.editor.core.ui",1334866810890
stopped,bundle,org.eclipse.datatools.sqltools.tabledataeditor,1.0.1.v201005250945,"org.eclipse.datatools.sqltools.tabledataeditor",1334866810890
stopped,bundle,org.eclipse.datatools.connectivity.sqm.core.ui,1.2.0.v201002281800,"org.eclipse.datatools.connectivity.sqm.core.ui",1334866810890
stopped,bundle,org.eclipse.datatools.connectivity.ui.dse,1.1.4.v201004270430,"org.eclipse.datatools.connectivity.ui.dse",1334866810890
stopped,bundle,org.eclipse.help.base,3.6.1.v201109091335,"org.eclipse.help.base",1334866810890
stopped,bundle,org.eclipse.equinox.http.jetty,2.0.100.v20110502,"org.eclipse.equinox.http.jetty",1334866810890
stopped,bundle,org.eclipse.m2e.core.ui,1.0.100.20110804-1717,"org.eclipse.m2e.core.ui",1334866810890
stopped,bundle,org.eclipse.m2e.core,1.0.100.20110804-1717,"org.eclipse.m2e.core",1334866810923
stopped,bundle,org.eclipse.mylyn.ide.ant,3.6.0.v20110608-1400,"org.eclipse.mylyn.ide.ant",1334866810924
stopped,bundle,oracle.eclipse.tools.glassfish,4.2.0.201111040904,"oracle.eclipse.tools.glassfish",1334866811393
stopped,bundle,org.eclipse.jst.server.generic.ui,1.0.505.v20100428,"org.eclipse.jst.server.generic.ui",1334866811393
stopped,bundle,org.eclipse.jst.server.generic.core,1.0.700.v20101219,"org.eclipse.jst.server.generic.core",1334866811393
stopped,bundle,org.eclipse.ant.ui,3.5.100.v20110510,"org.eclipse.ant.ui",1334866811393
stopped,bundle,org.eclipse.ant.launching,1.0.100.v20110506,"org.eclipse.ant.launching",1334866811393
stopped,bundle,org.eclipse.egit.mylyn.ui,1.1.0.201109151100-r,"org.eclipse.egit.mylyn.ui",1334866811393
stopped,bundle,org.eclipse.egit.ui,1.1.0.201109151100-r,"org.eclipse.egit.ui",1334866811397
stopped,bundle,org.eclipse.equinox.p2.ui.sdk,1.0.200.v20110502-1955,"org.eclipse.equinox.p2.ui.sdk",1334866811397
stopped,bundle,org.eclipse.mylyn.java.tasks,3.6.0.v20110608-1400,"org.eclipse.mylyn.java.tasks",1334866811397
stopped,bundle,org.eclipse.mylyn.java.ui,3.6.0.v20110608-1400,"org.eclipse.mylyn.java.ui",1334866811397
stopped,bundle,org.eclipse.jst.server.ui,1.1.202.v20110419,"org.eclipse.jst.server.ui",1334866811397
stopped,bundle,org.eclipse.jdt.junit,3.7.0.v20110505-0800,"org.eclipse.jdt.junit",1334866811397
stopped,bundle,org.eclipse.jdt.apt.ui,3.3.300.v20110305-1450,"org.eclipse.jdt.apt.ui",1334866811397
stopped,bundle,oracle.eclipse.tools.adf.sd.ui,4.2.0.201112072225,"oracle.eclipse.tools.adf.sd.ui",1334866811397
stopped,bundle,oracle.eclipse.tools.adf.sd,4.2.0.201112072225,"oracle.eclipse.tools.adf.sd",1334866811397
stopped,bundle,org.eclipse.xtext.ui.codetemplates.ui,2.0.1.v201108020636,"org.eclipse.xtext.ui.codetemplates.ui",1334866811397
stopped,bundle,org.eclipse.xtext.ui.codetemplates,2.0.1.v201108020636,"org.eclipse.xtext.ui.codetemplates",1334866811397
stopped,bundle,gov.sandia.jess.debug,7.1.0,"gov.sandia.jess.debug",1334866811397
stopped,bundle,oracle.eclipse.tools.envcheck,4.2.1.201203120349,"oracle.eclipse.tools.envcheck",1334866811397
stopped,bundle,org.eclipse.jdt.debug.ui,3.6.1.v20110803_r371,"org.eclipse.jdt.debug.ui",1334866811417
stopped,bundle,org.eclipse.wb.swing.databinding,1.1.0.r37x201109091143,"org.eclipse.wb.swing.databinding",1334866811417
stopped,bundle,org.eclipse.wb.core.databinding,1.1.0.r37x201109091012,"org.eclipse.wb.core.databinding",1334866811417
stopped,bundle,org.eclipse.wb.swing.FormLayout,1.1.0.r37x201109091143,"org.eclipse.wb.swing.FormLayout",1334866811417
