what,kind,bundleId,bundleVersion,description,time
stopped,bundle,org.eclipse.search,3.6.0.v20100520-0800,"org.eclipse.search",1328027204313
stopped,bundle,org.eclipse.mylyn.team.ui,3.4.0.v20100608-0100-e3x,"org.eclipse.mylyn.team.ui",1328027204313
stopped,bundle,org.eclipse.gmf.ecore.editor,2.2.0.v20100315-2359,"org.eclipse.gmf.ecore.editor",1328027204314
stopped,bundle,org.eclipse.ui.navigator.resources,3.4.200.I20100601-0800,"org.eclipse.ui.navigator.resources",1328027204314
stopped,bundle,org.eclipse.ltk.ui.refactoring,3.5.0.v20100526-0800,"org.eclipse.ltk.ui.refactoring",1328027204314
stopped,bundle,org.eclipse.team.cvs.ui,3.3.300.I20100526-0800,"org.eclipse.team.cvs.ui",1328027204327
stopped,bundle,org.eclipse.team.ui,3.5.100.I20100527-0800,"org.eclipse.team.ui",1328027204329
stopped,bundle,org.eclipse.mylyn.bugzilla.ui,3.4.0.v20100730-0100-e3x,"org.eclipse.mylyn.bugzilla.ui",1328027204329
stopped,bundle,org.eclipse.mylyn.ide.ui,3.4.0.v20100608-0100-e3x,"org.eclipse.mylyn.ide.ui",1328027204329
stopped,bundle,org.eclipse.mylyn.resources.ui,3.4.0.v20100730-0100-e3x,"org.eclipse.mylyn.resources.ui",1328027204329
stopped,bundle,org.eclipse.mylyn.wikitext.tasks.ui,1.3.0.v20100608-0100-e3x,"org.eclipse.mylyn.wikitext.tasks.ui",1328027204329
stopped,bundle,org.eclipse.mylyn.context.ui,3.4.0.v20100730-0100-e3x,"org.eclipse.mylyn.context.ui",1328027204330
stopped,bundle,org.eclipse.mylyn.help.ui,3.4.0.v20100730-0100-e3x,"org.eclipse.mylyn.help.ui",1328027204330
stopped,bundle,org.eclipse.mylyn.tasks.bugs,3.4.0.v20100804-0100-e3x,"org.eclipse.mylyn.tasks.bugs",1328027204330
stopped,bundle,org.eclipse.mylyn.tasks.ui,3.4.1.v20100730-0100-e3x,"org.eclipse.mylyn.tasks.ui",1328027204330
stopped,bundle,org.eclipse.compare,3.5.100.I20100526-0800,"org.eclipse.compare",1328027204332
stopped,bundle,org.eclipse.ui.externaltools,3.2.0.v20100427,"org.eclipse.ui.externaltools",1328027204332
stopped,bundle,org.eclipse.cdt.debug.ui.memory.transport,2.1.0.201006141710,"org.eclipse.cdt.debug.ui.memory.transport",1328027204332
stopped,bundle,org.eclipse.debug.ui,3.6.0.v20100601-1530,"org.eclipse.debug.ui",1328027204332
stopped,bundle,org.eclipse.mylyn.wikitext.ui,1.3.0.v20100608-0100-e3x,"org.eclipse.mylyn.wikitext.ui",1328027204332
stopped,bundle,org.eclipse.gmf.runtime.diagram.ui.providers.ide,1.2.0.v20090403-1720,"org.eclipse.gmf.runtime.diagram.ui.providers.ide",1328027204335
activated,perspective,org.eclipse.team.cvs.ui,,"org.eclipse.team.cvs.ui.cvsPerspective",1328027213417
started,bundle,org.eclipse.osgi,3.6.0.v20100517,"org.eclipse.osgi",1328027213418
started,bundle,org.eclipse.equinox.simpleconfigurator,1.0.200.v20100503,"org.eclipse.equinox.simpleconfigurator",1328027213419
started,bundle,com.ibm.icu,4.2.1.v20100412,"com.ibm.icu",1328027213420
started,bundle,org.eclipse.core.contenttype,3.4.100.v20100505-1235,"org.eclipse.core.contenttype",1328027213421
started,bundle,org.eclipse.core.databinding.observable,1.3.0.I20100601-0800,"org.eclipse.core.databinding.observable",1328027213422
started,bundle,org.eclipse.core.expressions,3.4.200.v20100505,"org.eclipse.core.expressions",1328027213422
started,bundle,org.eclipse.core.filebuffers,3.5.100.v20100520-0800,"org.eclipse.core.filebuffers",1328027213422
started,bundle,org.eclipse.core.filesystem,1.3.0.v20100526-0737,"org.eclipse.core.filesystem",1328027213424
started,bundle,org.eclipse.core.jobs,3.5.0.v20100515,"org.eclipse.core.jobs",1328027213424
started,bundle,org.eclipse.core.net,1.2.100.I20100511-0800,"org.eclipse.core.net",1328027213425
started,bundle,org.eclipse.core.resources,3.6.0.v20100526-0737,"org.eclipse.core.resources",1328027213426
started,bundle,org.eclipse.core.runtime,3.6.0.v20100505,"org.eclipse.core.runtime",1328027213427
started,bundle,org.eclipse.core.runtime.compatibility,3.2.100.v20100505,"org.eclipse.core.runtime.compatibility",1328027213427
started,bundle,org.eclipse.core.runtime.compatibility.auth,3.2.200.v20100517,"org.eclipse.core.runtime.compatibility.auth",1328027213428
started,bundle,org.eclipse.epp.usagedata.gathering,1.3.0.R201005261100,"org.eclipse.epp.usagedata.gathering",1328027213429
started,bundle,org.eclipse.epp.usagedata.recording,1.3.0.R201005261100,"org.eclipse.epp.usagedata.recording",1328027213429
started,bundle,org.eclipse.equinox.app,1.3.0.v20100512,"org.eclipse.equinox.app",1328027213429
started,bundle,org.eclipse.equinox.common,3.6.0.v20100503,"org.eclipse.equinox.common",1328027213430
started,bundle,org.eclipse.equinox.ds,1.2.0.v20100507,"org.eclipse.equinox.ds",1328027213431
started,bundle,org.eclipse.equinox.event,1.2.0.v20100503,"org.eclipse.equinox.event",1328027213432
started,bundle,org.eclipse.equinox.p2.core,2.0.0.v20100510,"org.eclipse.equinox.p2.core",1328027213432
started,bundle,org.eclipse.equinox.p2.directorywatcher,1.0.200.v20100601,"org.eclipse.equinox.p2.directorywatcher",1328027213433
started,bundle,org.eclipse.equinox.p2.engine,2.0.0.v20100606,"org.eclipse.equinox.p2.engine",1328027213434
started,bundle,org.eclipse.equinox.p2.metadata,2.0.0.v20100601,"org.eclipse.equinox.p2.metadata",1328027213435
started,bundle,org.eclipse.equinox.p2.metadata.repository,1.1.0.v20100513,"org.eclipse.equinox.p2.metadata.repository",1328027213435
started,bundle,org.eclipse.equinox.p2.operations,2.0.0.v20100510,"org.eclipse.equinox.p2.operations",1328027213436
started,bundle,org.eclipse.equinox.p2.reconciler.dropins,1.1.0.v20100525,"org.eclipse.equinox.p2.reconciler.dropins",1328027213437
started,bundle,org.eclipse.equinox.p2.repository,2.0.0.v20100519,"org.eclipse.equinox.p2.repository",1328027213437
started,bundle,org.eclipse.equinox.p2.ui.sdk.scheduler,1.0.0.v20100507-1815,"org.eclipse.equinox.p2.ui.sdk.scheduler",1328027213438
started,bundle,org.eclipse.equinox.p2.updatechecker,1.1.100.v20100503a,"org.eclipse.equinox.p2.updatechecker",1328027213439
started,bundle,org.eclipse.equinox.preferences,3.3.0.v20100503,"org.eclipse.equinox.preferences",1328027213439
started,bundle,org.eclipse.equinox.registry,3.5.0.v20100503,"org.eclipse.equinox.registry",1328027213440
started,bundle,org.eclipse.equinox.security,1.0.200.v20100503,"org.eclipse.equinox.security",1328027213440
started,bundle,org.eclipse.equinox.util,1.0.200.v20100503,"org.eclipse.equinox.util",1328027213441
started,bundle,org.eclipse.help,3.5.0.v20100524,"org.eclipse.help",1328027213442
started,bundle,org.eclipse.jface,3.6.0.I20100601-0800,"org.eclipse.jface",1328027213443
started,bundle,org.eclipse.jsch.core,1.1.200.I20100505-1245,"org.eclipse.jsch.core",1328027213443
started,bundle,org.eclipse.ltk.core.refactoring,3.5.100.v20100526-0800,"org.eclipse.ltk.core.refactoring",1328027213444
started,bundle,org.eclipse.mylyn.commons.ui,3.4.0.v20100608-0100-e3x,"org.eclipse.mylyn.commons.ui",1328027213444
started,bundle,org.eclipse.mylyn.context.core,3.4.0.v20100608-0100-e3x,"org.eclipse.mylyn.context.core",1328027213445
started,bundle,org.eclipse.mylyn.monitor.ui,3.4.0.v20100608-0100-e3x,"org.eclipse.mylyn.monitor.ui",1328027213446
started,bundle,org.eclipse.mylyn.team.ui,3.4.0.v20100608-0100-e3x,"org.eclipse.mylyn.team.ui",1328027213446
started,bundle,org.eclipse.team.core,3.5.100.I20100527-0800,"org.eclipse.team.core",1328027213446
started,bundle,org.eclipse.team.cvs.core,3.3.300.I20100526-0800,"org.eclipse.team.cvs.core",1328027213447
started,bundle,org.eclipse.team.cvs.ssh2,3.2.300.I20100526-0800,"org.eclipse.team.cvs.ssh2",1328027213448
started,bundle,org.eclipse.team.cvs.ui,3.3.300.I20100526-0800,"org.eclipse.team.cvs.ui",1328027213449
started,bundle,org.eclipse.team.ui,3.5.100.I20100527-0800,"org.eclipse.team.ui",1328027213450
started,bundle,org.eclipse.ui,3.6.0.I20100603-1100,"org.eclipse.ui",1328027213452
started,bundle,org.eclipse.ui.console,3.5.0.v20100526,"org.eclipse.ui.console",1328027213453
started,bundle,org.eclipse.ui.editors,3.6.0.v20100520-0800,"org.eclipse.ui.editors",1328027213454
started,bundle,org.eclipse.ui.forms,3.5.0.v20100427,"org.eclipse.ui.forms",1328027213455
started,bundle,org.eclipse.ui.ide,3.6.0.I20100601-0800,"org.eclipse.ui.ide",1328027213457
started,bundle,org.eclipse.ui.navigator,3.5.0.I20100601-0800,"org.eclipse.ui.navigator",1328027213457
started,bundle,org.eclipse.ui.net,1.2.100.I20100505-1245,"org.eclipse.ui.net",1328027213458
started,bundle,org.eclipse.ui.views,3.5.0.I20100527-0800,"org.eclipse.ui.views",1328027213459
started,bundle,org.eclipse.ui.workbench,3.6.0.I20100603-1100,"org.eclipse.ui.workbench",1328027213459
started,bundle,org.eclipse.ui.workbench.texteditor,3.6.0.v20100520-0800,"org.eclipse.ui.workbench.texteditor",1328027213460
started,bundle,org.eclipse.update.configurator,3.3.100.v20100512,"org.eclipse.update.configurator",1328027213461
started,bundle,org.eclipse.update.core,3.2.400.v20100512,"org.eclipse.update.core",1328027213462
started,bundle,org.eclipse.update.scheduler,3.2.300.v20100512,"org.eclipse.update.scheduler",1328027213462
started,bundle,org.eclipse.mylyn.bugzilla.core,3.4.0.v20100730-0100-e3x,"org.eclipse.mylyn.bugzilla.core",1328027213464
started,bundle,org.eclipse.mylyn.bugzilla.ui,3.4.0.v20100730-0100-e3x,"org.eclipse.mylyn.bugzilla.ui",1328027213465
started,bundle,org.eclipse.mylyn.commons.net,3.4.1.v20100625-2100-e3x,"org.eclipse.mylyn.commons.net",1328027213465
started,bundle,org.eclipse.mylyn.context.ui,3.4.0.v20100730-0100-e3x,"org.eclipse.mylyn.context.ui",1328027213466
started,bundle,org.eclipse.mylyn.tasks.ui,3.4.1.v20100730-0100-e3x,"org.eclipse.mylyn.tasks.ui",1328027213466
started,bundle,org.tigris.subversion.clientadapter,1.6.12,"org.tigris.subversion.clientadapter",1328027213467
started,bundle,org.tigris.subversion.subclipse.core,1.6.13,"org.tigris.subversion.subclipse.core",1328027213468
started,bundle,org.tigris.subversion.subclipse.mylyn,3.0.0,"org.tigris.subversion.subclipse.mylyn",1328027213469
started,bundle,org.eclipse.cdt.codan.core,1.0.0.201006141710,"org.eclipse.cdt.codan.core",1328027213469
started,bundle,org.eclipse.cdt.codan.core.cxx,1.0.0.201006141710,"org.eclipse.cdt.codan.core.cxx",1328027213469
started,bundle,org.eclipse.cdt.codan.ui.cxx,1.0.0.201006141710,"org.eclipse.cdt.codan.ui.cxx",1328027213470
started,bundle,org.eclipse.cdt.core,5.2.0.201006141710,"org.eclipse.cdt.core",1328027213471
started,bundle,org.eclipse.cdt.core.tests,5.1.0.201006141710,"org.eclipse.cdt.core.tests",1328027213472
started,bundle,org.eclipse.cdt.make.core,7.0.0.201006141710,"org.eclipse.cdt.make.core",1328027213473
started,bundle,org.eclipse.cdt.make.ui,7.0.0.201006141710,"org.eclipse.cdt.make.ui",1328027213473
started,bundle,org.eclipse.cdt.managedbuilder.core,7.0.0.201006141710,"org.eclipse.cdt.managedbuilder.core",1328027213474
started,bundle,org.eclipse.cdt.scripting,1.0.0.201006141710,"org.eclipse.cdt.scripting",1328027213474
started,bundle,org.eclipse.cdt.ui,5.2.0.201006141710,"org.eclipse.cdt.ui",1328027213476
started,bundle,org.eclipse.cdt.ui.tests,5.1.0.201006141710,"org.eclipse.cdt.ui.tests",1328027213477
started,bundle,edu.buffalo.cse.jive.console,1.9.1.v20111117b,"edu.buffalo.cse.jive.console",1328027213478
os,sysinfo,,,"linux",1328027213482
arch,sysinfo,,,"x86_64",1328027213482
ws,sysinfo,,,"gtk",1328027213482
locale,sysinfo,,,"en_US",1328027213482
processors,sysinfo,,,"16",1328027213482
java.runtime.name,sysinfo,,,"Java(TM) SE Runtime Environment",1328027213482
java.runtime.version,sysinfo,,,"1.7.0_01-b08",1328027213482
java.specification.name,sysinfo,,,"Java Platform API Specification",1328027213482
java.specification.vendor,sysinfo,,,"Oracle Corporation",1328027213483
java.specification.version,sysinfo,,,"1.7",1328027213483
java.vendor,sysinfo,,,"Oracle Corporation",1328027213483
java.version,sysinfo,,,"1.7.0_01",1328027213483
java.vm.info,sysinfo,,,"mixed mode",1328027213483
java.vm.name,sysinfo,,,"Java HotSpot(TM) 64-Bit Server VM",1328027213483
java.vm.specification.name,sysinfo,,,"Java Virtual Machine Specification",1328027213483
java.vm.specification.vendor,sysinfo,,,"Oracle Corporation",1328027213483
java.vm.specification.version,sysinfo,,,"1.7",1328027213483
java.vm.vendor,sysinfo,,,"Oracle Corporation",1328027213483
java.vm.version,sysinfo,,,"21.1-b02",1328027213483
started,bundle,org.eclipse.compare,3.5.100.I20100526-0800,"org.eclipse.compare",1328027213798
started,bundle,org.eclipse.jsch.ui,1.1.300.I20100505-1245,"org.eclipse.jsch.ui",1328027228011
deactivated,workbench,org.eclipse.ui.workbench,3.6.0.I20100603-1100,"",1328027228384
activated,workbench,org.eclipse.ui.workbench,3.6.0.I20100603-1100,"",1328027234924
deactivated,workbench,org.eclipse.ui.workbench,3.6.0.I20100603-1100,"",1328027240982
activated,workbench,org.eclipse.ui.workbench,3.6.0.I20100603-1100,"",1328027253063
started,bundle,org.eclipse.jdt.core,3.6.0.v_A58,"org.eclipse.jdt.core",1328027253586
started,bundle,org.eclipse.debug.core,3.6.0.v20100519,"org.eclipse.debug.core",1328027253619
started,bundle,org.eclipse.jdt.launching,3.5.100.v20100526,"org.eclipse.jdt.launching",1328027253643
started,bundle,org.eclipse.jdt.apt.core,3.3.400.v20100513-0845,"org.eclipse.jdt.apt.core",1328027253653
started,bundle,org.eclipse.jdt.apt.pluggable.core,1.0.300.v20100513-0845,"org.eclipse.jdt.apt.pluggable.core",1328027253661
deactivated,workbench,org.eclipse.ui.workbench,3.6.0.I20100603-1100,"",1328027263478
activated,workbench,org.eclipse.ui.workbench,3.6.0.I20100603-1100,"",1328027282095
deactivated,workbench,org.eclipse.ui.workbench,3.6.0.I20100603-1100,"",1328027286229
started,bundle,org.eclipse.jdt.core.manipulation,1.3.0.v20100520-0800,"org.eclipse.jdt.core.manipulation",1328027290866
started,bundle,org.eclipse.jdt.ui,3.6.0.v20100602-1600,"org.eclipse.jdt.ui",1328027290875
opened,view,org.eclipse.jdt.ui,3.6.0.v20100602-1600,"org.eclipse.jdt.ui.PackageExplorer",1328027291397
opened,view,org.eclipse.ui.ide,3.6.0.I20100601-0800,"org.eclipse.ui.views.ProblemView",1328027291509
opened,view,org.eclipse.ui.views,3.5.0.I20100527-0800,"org.eclipse.ui.views.ContentOutline",1328027291545
started,bundle,org.eclipse.search,3.6.0.v20100520-0800,"org.eclipse.search",1328027291634
started,bundle,com.collabnet.subversion.merge,2.1.0,"com.collabnet.subversion.merge",1328027291826
opened,view,org.eclipse.mylyn.tasks.ui,3.4.1.v20100730-0100-e3x,"org.eclipse.mylyn.tasks.ui.views.tasks",1328027291827
activated,perspective,org.eclipse.jdt.ui,3.6.0.v20100602-1600,"org.eclipse.jdt.ui.JavaPerspective",1328027291863
activated,view,org.eclipse.jdt.ui,3.6.0.v20100602-1600,"org.eclipse.jdt.ui.PackageExplorer",1328027291933
executed,command,org.eclipse.ui,3.6.0.I20100603-1100,"org.eclipse.ui.perspectives.showPerspective",1328027291947
executed,command,org.eclipse.ui,3.6.0.I20100603-1100,"org.eclipse.ui.perspectives.showPerspective",1328027291947
activated,workbench,org.eclipse.ui.workbench,3.6.0.I20100603-1100,"",1328027291959
deactivated,workbench,org.eclipse.ui.workbench,3.6.0.I20100603-1100,"",1328027308554
activated,workbench,org.eclipse.ui.workbench,3.6.0.I20100603-1100,"",1328027387292
started,bundle,org.tigris.subversion.subclipse.ui,1.6.13,"org.tigris.subversion.subclipse.ui",1328027387298
started,bundle,org.eclipse.ltk.ui.refactoring,3.5.0.v20100526-0800,"org.eclipse.ltk.ui.refactoring",1328027387348
deactivated,workbench,org.eclipse.ui.workbench,3.6.0.I20100603-1100,"",1328027397755
activated,workbench,org.eclipse.ui.workbench,3.6.0.I20100603-1100,"",1328027415570
deactivated,workbench,org.eclipse.ui.workbench,3.6.0.I20100603-1100,"",1328027421506
activated,workbench,org.eclipse.ui.workbench,3.6.0.I20100603-1100,"",1328027439727
deactivated,workbench,org.eclipse.ui.workbench,3.6.0.I20100603-1100,"",1328027444119
started,bundle,net.sf.webcat.eclipse.submitter,1.3.0,"net.sf.webcat.eclipse.submitter",1328027445689
executed,command,org.eclipse.ui,3.6.0.I20100603-1100,"org.eclipse.ui.edit.paste",1328027568930
activated,workbench,org.eclipse.ui.workbench,3.6.0.I20100603-1100,"",1328027574577
deactivated,workbench,org.eclipse.ui.workbench,3.6.0.I20100603-1100,"",1328027578492
activated,workbench,org.eclipse.ui.workbench,3.6.0.I20100603-1100,"",1328027584195
deactivated,workbench,org.eclipse.ui.workbench,3.6.0.I20100603-1100,"",1328027588689
activated,workbench,org.eclipse.ui.workbench,3.6.0.I20100603-1100,"",1328027593172
deactivated,workbench,org.eclipse.ui.workbench,3.6.0.I20100603-1100,"",1328027601497
activated,workbench,org.eclipse.ui.workbench,3.6.0.I20100603-1100,"",1328027613065
deactivated,workbench,org.eclipse.ui.workbench,3.6.0.I20100603-1100,"",1328027631010
activated,workbench,org.eclipse.ui.workbench,3.6.0.I20100603-1100,"",1328027657702
started,bundle,net.sf.webcat.eclipse.submitter.ui,1.3.0,"net.sf.webcat.eclipse.submitter.ui",1328027660609
deactivated,workbench,org.eclipse.ui.workbench,3.6.0.I20100603-1100,"",1328027660662
activated,workbench,org.eclipse.ui.workbench,3.6.0.I20100603-1100,"",1328027661303
deactivated,workbench,org.eclipse.ui.workbench,3.6.0.I20100603-1100,"",1328027661345
opened,editor,net.sf.webcat.eclipse.submitter.ui,1.3.0,"net.sf.webcat.eclipse.submitter.ui.editors.BrowserEditor",1328027762260
activated,editor,net.sf.webcat.eclipse.submitter.ui,1.3.0,"net.sf.webcat.eclipse.submitter.ui.editors.BrowserEditor",1328027762268
activated,workbench,org.eclipse.ui.workbench,3.6.0.I20100603-1100,"",1328027762340
activated,view,org.eclipse.jdt.ui,3.6.0.v20100602-1600,"org.eclipse.jdt.ui.PackageExplorer",1328027771697
deactivated,workbench,org.eclipse.ui.workbench,3.6.0.I20100603-1100,"",1328027774224
activated,workbench,org.eclipse.ui.workbench,3.6.0.I20100603-1100,"",1328027774428
deactivated,workbench,org.eclipse.ui.workbench,3.6.0.I20100603-1100,"",1328027774466
opened,editor,net.sf.webcat.eclipse.submitter.ui,1.3.0,"net.sf.webcat.eclipse.submitter.ui.editors.BrowserEditor",1328027844541
activated,editor,net.sf.webcat.eclipse.submitter.ui,1.3.0,"net.sf.webcat.eclipse.submitter.ui.editors.BrowserEditor",1328027844549
activated,workbench,org.eclipse.ui.workbench,3.6.0.I20100603-1100,"",1328027844628
deactivated,workbench,org.eclipse.ui.workbench,3.6.0.I20100603-1100,"",1328027930667
activated,workbench,org.eclipse.ui.workbench,3.6.0.I20100603-1100,"",1328028115707
deactivated,workbench,org.eclipse.ui.workbench,3.6.0.I20100603-1100,"",1328028116434
activated,workbench,org.eclipse.ui.workbench,3.6.0.I20100603-1100,"",1328028235867
deactivated,workbench,org.eclipse.ui.workbench,3.6.0.I20100603-1100,"",1328028236735
activated,workbench,org.eclipse.ui.workbench,3.6.0.I20100603-1100,"",1328028321688
deactivated,workbench,org.eclipse.ui.workbench,3.6.0.I20100603-1100,"",1328028322496
activated,workbench,org.eclipse.ui.workbench,3.6.0.I20100603-1100,"",1328028373390
deactivated,workbench,org.eclipse.ui.workbench,3.6.0.I20100603-1100,"",1328028375260
activated,workbench,org.eclipse.ui.workbench,3.6.0.I20100603-1100,"",1328028448881
deactivated,workbench,org.eclipse.ui.workbench,3.6.0.I20100603-1100,"",1328028449571
activated,workbench,org.eclipse.ui.workbench,3.6.0.I20100603-1100,"",1328028452344
deactivated,workbench,org.eclipse.ui.workbench,3.6.0.I20100603-1100,"",1328028453172
activated,workbench,org.eclipse.ui.workbench,3.6.0.I20100603-1100,"",1328028614955
deactivated,workbench,org.eclipse.ui.workbench,3.6.0.I20100603-1100,"",1328028615670
activated,workbench,org.eclipse.ui.workbench,3.6.0.I20100603-1100,"",1328028653351
deactivated,workbench,org.eclipse.ui.workbench,3.6.0.I20100603-1100,"",1328028656009
activated,workbench,org.eclipse.ui.workbench,3.6.0.I20100603-1100,"",1328028907409
deactivated,workbench,org.eclipse.ui.workbench,3.6.0.I20100603-1100,"",1328028908099
activated,workbench,org.eclipse.ui.workbench,3.6.0.I20100603-1100,"",1328029157706
activated,view,org.eclipse.mylyn.tasks.ui,3.4.1.v20100730-0100-e3x,"org.eclipse.mylyn.tasks.ui.views.tasks",1328029164334
activated,editor,net.sf.webcat.eclipse.submitter.ui,1.3.0,"net.sf.webcat.eclipse.submitter.ui.editors.BrowserEditor",1328029164862
started,bundle,edu.rice.cs.drjava,0.9.8,"edu.rice.cs.drjava",1328029205161
started,bundle,org.eclipse.debug.ui,3.6.0.v20100601-1530,"org.eclipse.debug.ui",1328029206004
opened,view,edu.rice.cs.drjava,0.9.8,"edu.rice.cs.drjava.InteractionsView",1328029209622
activated,perspective,edu.rice.cs.drjava,0.9.8,"edu.rice.cs.drjava.DrJavaPerspective",1328029209648
executed,command,org.eclipse.ui,3.6.0.I20100603-1100,"org.eclipse.ui.perspectives.showPerspective",1328029209654
executed,command,,,"edu.rice.cs.drjava.DrJavaPerspective",1328029209654
deactivated,workbench,org.eclipse.ui.workbench,3.6.0.I20100603-1100,"",1328029215197
activated,perspective,org.eclipse.jdt.ui,3.6.0.v20100602-1600,"org.eclipse.jdt.ui.JavaPerspective",1328029226773
executed,command,org.eclipse.ui,3.6.0.I20100603-1100,"org.eclipse.ui.perspectives.showPerspective",1328029226778
executed,command,org.eclipse.ui,3.6.0.I20100603-1100,"org.eclipse.ui.perspectives.showPerspective",1328029226778
activated,workbench,org.eclipse.ui.workbench,3.6.0.I20100603-1100,"",1328029226795
deactivated,workbench,org.eclipse.ui.workbench,3.6.0.I20100603-1100,"",1328029265861
activated,workbench,org.eclipse.ui.workbench,3.6.0.I20100603-1100,"",1328029709785
deactivated,workbench,org.eclipse.ui.workbench,3.6.0.I20100603-1100,"",1328029712180
closed,workbench,org.eclipse.ui.workbench,3.6.0.I20100603-1100,"",1328029715805
stopped,bundle,org.eclipse.mylyn.ide.ant,3.4.0.v20100608-0100-e3x,"org.eclipse.mylyn.ide.ant",1328029718209
stopped,bundle,org.eclipse.ant.ui,3.5.0.v20100427,"org.eclipse.ant.ui",1328029718210
stopped,bundle,org.eclipse.ant.launching,1.0.0.v20100427,"org.eclipse.ant.launching",1328029718212
stopped,bundle,org.eclipse.equinox.p2.ui.sdk,1.0.100.v20100513,"org.eclipse.equinox.p2.ui.sdk",1328029718213
stopped,bundle,org.eclipse.mylyn.java.tasks,3.4.0.v20100608-0100-e3x,"org.eclipse.mylyn.java.tasks",1328029718215
stopped,bundle,org.eclipse.mylyn.java.ui,3.4.0.v20100608-0100-e3x,"org.eclipse.mylyn.java.ui",1328029718216
stopped,bundle,edu.buffalo.cse.jive.launching,1.9.1.v20111117b,"edu.buffalo.cse.jive.launching",1328029718218
stopped,bundle,edu.buffalo.cse.jive.console,1.9.1.v20111117b,"edu.buffalo.cse.jive.console",1328029718218
stopped,bundle,edu.buffalo.cse.jive.ui,1.9.1.v20111117b,"edu.buffalo.cse.jive.ui",1328029718225
stopped,bundle,org.eclipse.jdt.junit,3.6.0.v20100526-0800,"org.eclipse.jdt.junit",1328029718226
stopped,bundle,org.eclipse.jdt.apt.ui,3.3.300.v20100513-0845,"org.eclipse.jdt.apt.ui",1328029718228
stopped,bundle,edu.rice.cs.drjava,0.9.8,"edu.rice.cs.drjava",1328029718228
stopped,bundle,org.eclipse.jdt.debug.ui,3.5.0.v20100602-0830,"org.eclipse.jdt.debug.ui",1328029718230
stopped,bundle,edu.buffalo.cse.green.relationship.association,3.5.0,"edu.buffalo.cse.green.relationship.association",1328029718235
stopped,bundle,edu.buffalo.cse.green.relationship.composition,3.5.0,"edu.buffalo.cse.green.relationship.composition",1328029718237
stopped,bundle,edu.buffalo.cse.green.relationship.dependency,3.5.0,"edu.buffalo.cse.green.relationship.dependency",1328029718240
stopped,bundle,edu.buffalo.cse.green.relationship.generalization,3.5.0,"edu.buffalo.cse.green.relationship.generalization",1328029718243
stopped,bundle,edu.buffalo.cse.green.relationship.realization,3.5.0,"edu.buffalo.cse.green.relationship.realization",1328029718245
stopped,bundle,edu.buffalo.cse.green.save.svg,3.5.0,"edu.buffalo.cse.green.save.svg",1328029718248
stopped,bundle,edu.buffalo.cse.green,3.5.0,"edu.buffalo.cse.green",1328029718251
stopped,bundle,org.eclipse.gmf.bridge,1.1.100.v20100309-2359,"org.eclipse.gmf.bridge",1328029718252
stopped,bundle,org.eclipse.gmf.codegen.edit,2.2.100.v20100309-2359,"org.eclipse.gmf.codegen.edit",1328029718257
stopped,bundle,org.eclipse.gmf.codegen,2.2.100.v20100518-2359,"org.eclipse.gmf.codegen",1328029718259
stopped,bundle,org.eclipse.gmf.graphdef.codegen,2.0.100.v20100421-2359,"org.eclipse.gmf.graphdef.codegen",1328029718260
stopped,bundle,org.eclipse.gmf.map.edit,2.2.100.v20100309-2359,"org.eclipse.gmf.map.edit",1328029718263
stopped,bundle,org.eclipse.gmf.graphdef.edit,2.0.200.v20090216-1925,"org.eclipse.gmf.graphdef.edit",1328029718266
stopped,bundle,org.eclipse.gmf.map,2.2.100.v20100309-2359,"org.eclipse.gmf.map",1328029718268
stopped,bundle,org.eclipse.gmf.tooldef.edit,2.0.100.v20090114-0940,"org.eclipse.gmf.tooldef.edit",1328029718270
stopped,bundle,org.eclipse.gmf.tooldef,2.0.0.v20090114-0940,"org.eclipse.gmf.tooldef",1328029718271
stopped,bundle,org.eclipse.gmf.common,1.2.0.v20100226-2359,"org.eclipse.gmf.common",1328029718273
stopped,bundle,com.collabnet.subversion.merge,2.1.0,"com.collabnet.subversion.merge",1328029718273
stopped,bundle,org.tigris.subversion.subclipse.graph,1.0.8,"org.tigris.subversion.subclipse.graph",1328029718274
stopped,bundle,org.tigris.subversion.subclipse.mylyn,3.0.0,"org.tigris.subversion.subclipse.mylyn",1328029718274
stopped,bundle,org.tigris.subversion.subclipse.ui,1.6.13,"org.tigris.subversion.subclipse.ui",1328029718274
stopped,bundle,org.eclipse.jdt.ui,3.6.0.v20100602-1600,"org.eclipse.jdt.ui",1328029718274
stopped,bundle,org.eclipse.wst.dtd.ui,1.0.500.v201004290328,"org.eclipse.wst.dtd.ui",1328029718276
stopped,bundle,org.eclipse.wst.xsd.ui,1.2.303.v201004290328,"org.eclipse.wst.xsd.ui",1328029718280
stopped,bundle,org.eclipse.wst.xml.ui,1.1.100.v201006030742,"org.eclipse.wst.xml.ui",1328029718281
stopped,bundle,org.eclipse.wst.common.ui,1.1.500.v200911190730,"org.eclipse.wst.common.ui",1328029718284
stopped,bundle,org.eclipse.wst.sse.ui,1.2.0.v201006030742,"org.eclipse.wst.sse.ui",1328029718286
stopped,bundle,org.eclipse.cdt.debug.ui.memory.search,1.2.0.201006141710,"org.eclipse.cdt.debug.ui.memory.search",1328029718288
stopped,bundle,org.eclipse.cdt.debug.ui.memory.traditional,1.2.0.201006141710,"org.eclipse.cdt.debug.ui.memory.traditional",1328029718289
stopped,bundle,org.eclipse.cdt.codan.checkers.ui,1.0.0.201006141710,"org.eclipse.cdt.codan.checkers.ui",1328029718291
stopped,bundle,org.eclipse.cdt.codan.ui.cxx,1.0.0.201006141710,"org.eclipse.cdt.codan.ui.cxx",1328029718291
stopped,bundle,org.eclipse.cdt.codan.ui,1.0.0.201006141710,"org.eclipse.cdt.codan.ui",1328029718293
stopped,bundle,org.eclipse.cdt.core.lrparser.xlc,1.0.0.201006141710,"org.eclipse.cdt.core.lrparser.xlc",1328029718295
stopped,bundle,org.eclipse.cdt.debug.edc.linux.x86,1.0.0.201006141710,"org.eclipse.cdt.debug.edc.linux.x86",1328029718297
stopped,bundle,org.eclipse.cdt.debug.edc.windows.ui,1.0.0.201006141710,"org.eclipse.cdt.debug.edc.windows.ui",1328029718298
stopped,bundle,org.eclipse.cdt.debug.edc.windows,1.0.0.201006141710,"org.eclipse.cdt.debug.edc.windows",1328029718301
stopped,bundle,org.eclipse.cdt.debug.edc.ui,1.0.0.201006141710,"org.eclipse.cdt.debug.edc.ui",1328029718302
stopped,bundle,org.eclipse.cdt.launch.remote,2.2.0.201006141710,"org.eclipse.cdt.launch.remote",1328029718303
stopped,bundle,org.eclipse.cdt.debug.mi.ui,6.1.0.201006141710,"org.eclipse.cdt.debug.mi.ui",1328029718304
