what,kind,bundleId,bundleVersion,description,time
deactivated,workbench,org.eclipse.ui.workbench,3.6.0.I20100603-1100,"",1333666018962
activated,workbench,org.eclipse.ui.workbench,3.6.0.I20100603-1100,"",1333666031227
activated,editor,org.eclipse.jdt.ui,3.6.0.v20100602-1600,"org.eclipse.jdt.ui.CompilationUnitEditor",1333666036923
executed,command,org.eclipse.ui,3.6.0.I20100603-1100,"org.eclipse.ui.edit.paste",1333666041070
deactivated,workbench,org.eclipse.ui.workbench,3.6.0.I20100603-1100,"",1333666043337
activated,workbench,org.eclipse.ui.workbench,3.6.0.I20100603-1100,"",1333666044476
deactivated,workbench,org.eclipse.ui.workbench,3.6.0.I20100603-1100,"",1333666044632
activated,workbench,org.eclipse.ui.workbench,3.6.0.I20100603-1100,"",1333666046277
activated,view,org.eclipse.ui.console,3.5.0.v20100526,"org.eclipse.ui.console.ConsoleView",1333666046646
activated,editor,org.eclipse.jdt.ui,3.6.0.v20100602-1600,"org.eclipse.jdt.ui.CompilationUnitEditor",1333666053816
executed,command,org.eclipse.ui,3.6.0.I20100603-1100,"org.eclipse.ui.edit.copy",1333666056708
executed,command,org.eclipse.ui,3.6.0.I20100603-1100,"org.eclipse.ui.edit.paste",1333666060400
executed,command,org.eclipse.ui,3.6.0.I20100603-1100,"org.eclipse.ui.edit.undo",1333666062467
executed,command,org.eclipse.ui,3.6.0.I20100603-1100,"org.eclipse.ui.edit.paste",1333666068816
executed,command,org.eclipse.ui,3.6.0.I20100603-1100,"org.eclipse.ui.edit.paste",1333666072521
deactivated,workbench,org.eclipse.ui.workbench,3.6.0.I20100603-1100,"",1333666078461
activated,workbench,org.eclipse.ui.workbench,3.6.0.I20100603-1100,"",1333666080543
deactivated,workbench,org.eclipse.ui.workbench,3.6.0.I20100603-1100,"",1333666080697
activated,workbench,org.eclipse.ui.workbench,3.6.0.I20100603-1100,"",1333666082027
activated,view,org.eclipse.ui.console,3.5.0.v20100526,"org.eclipse.ui.console.ConsoleView",1333666082377
activated,editor,org.eclipse.jdt.ui,3.6.0.v20100602-1600,"org.eclipse.jdt.ui.CompilationUnitEditor",1333666093792
deactivated,workbench,org.eclipse.ui.workbench,3.6.0.I20100603-1100,"",1333666103221
activated,workbench,org.eclipse.ui.workbench,3.6.0.I20100603-1100,"",1333666104249
deactivated,workbench,org.eclipse.ui.workbench,3.6.0.I20100603-1100,"",1333666104654
activated,view,org.eclipse.ui.console,3.5.0.v20100526,"org.eclipse.ui.console.ConsoleView",1333666106449
activated,workbench,org.eclipse.ui.workbench,3.6.0.I20100603-1100,"",1333666132069
activated,editor,org.eclipse.jdt.ui,3.6.0.v20100602-1600,"org.eclipse.jdt.ui.CompilationUnitEditor",1333666132118
activated,editor,org.eclipse.jdt.ui,3.6.0.v20100602-1600,"org.eclipse.jdt.ui.CompilationUnitEditor",1333666150471
activated,editor,org.eclipse.jdt.ui,3.6.0.v20100602-1600,"org.eclipse.jdt.ui.CompilationUnitEditor",1333666152530
activated,editor,org.eclipse.jdt.ui,3.6.0.v20100602-1600,"org.eclipse.jdt.ui.CompilationUnitEditor",1333666154985
activated,editor,org.eclipse.jdt.ui,3.6.0.v20100602-1600,"org.eclipse.jdt.ui.CompilationUnitEditor",1333666157163
activated,editor,org.eclipse.jdt.ui,3.6.0.v20100602-1600,"org.eclipse.jdt.ui.CompilationUnitEditor",1333666167386
executed,command,org.eclipse.ui,3.6.0.I20100603-1100,"org.eclipse.ui.edit.paste",1333666170418
executed,command,org.eclipse.ui,3.6.0.I20100603-1100,"org.eclipse.ui.edit.undo",1333666173671
executed,command,org.eclipse.ui,3.6.0.I20100603-1100,"org.eclipse.ui.edit.copy",1333666177392
executed,command,org.eclipse.ui,3.6.0.I20100603-1100,"org.eclipse.ui.edit.paste",1333666180980
deactivated,workbench,org.eclipse.ui.workbench,3.6.0.I20100603-1100,"",1333666183027
activated,workbench,org.eclipse.ui.workbench,3.6.0.I20100603-1100,"",1333666184258
deactivated,workbench,org.eclipse.ui.workbench,3.6.0.I20100603-1100,"",1333666184685
activated,view,org.eclipse.ui.console,3.5.0.v20100526,"org.eclipse.ui.console.ConsoleView",1333666185904
activated,workbench,org.eclipse.ui.workbench,3.6.0.I20100603-1100,"",1333666192350
activated,editor,org.eclipse.jdt.ui,3.6.0.v20100602-1600,"org.eclipse.jdt.ui.CompilationUnitEditor",1333666201284
activated,editor,org.eclipse.jdt.ui,3.6.0.v20100602-1600,"org.eclipse.jdt.ui.CompilationUnitEditor",1333666201377
deactivated,workbench,org.eclipse.ui.workbench,3.6.0.I20100603-1100,"",1333666211390
activated,workbench,org.eclipse.ui.workbench,3.6.0.I20100603-1100,"",1333666244086
activated,view,org.eclipse.jdt.ui,3.6.0.v20100602-1600,"org.eclipse.jdt.ui.PackageExplorer",1333666247230
activated,editor,org.eclipse.jdt.ui,3.6.0.v20100602-1600,"org.eclipse.jdt.ui.CompilationUnitEditor",1333666247372
activated,view,org.eclipse.jdt.ui,3.6.0.v20100602-1600,"org.eclipse.jdt.ui.PackageExplorer",1333666247887
activated,editor,org.eclipse.jdt.ui,3.6.0.v20100602-1600,"org.eclipse.jdt.ui.CompilationUnitEditor",1333666248023
activated,view,org.eclipse.jdt.ui,3.6.0.v20100602-1600,"org.eclipse.jdt.ui.PackageExplorer",1333666248457
activated,editor,org.eclipse.jdt.ui,3.6.0.v20100602-1600,"org.eclipse.jdt.ui.CompilationUnitEditor",1333666248585
activated,view,org.eclipse.jdt.ui,3.6.0.v20100602-1600,"org.eclipse.jdt.ui.PackageExplorer",1333666248990
activated,editor,org.eclipse.jdt.ui,3.6.0.v20100602-1600,"org.eclipse.jdt.ui.CompilationUnitEditor",1333666249105
activated,view,org.eclipse.jdt.ui,3.6.0.v20100602-1600,"org.eclipse.jdt.ui.PackageExplorer",1333666249558
activated,editor,org.eclipse.jdt.ui,3.6.0.v20100602-1600,"org.eclipse.jdt.ui.CompilationUnitEditor",1333666249684
activated,view,org.eclipse.jdt.ui,3.6.0.v20100602-1600,"org.eclipse.jdt.ui.PackageExplorer",1333666250094
activated,editor,org.eclipse.jdt.ui,3.6.0.v20100602-1600,"org.eclipse.jdt.ui.CompilationUnitEditor",1333666250225
activated,view,org.eclipse.jdt.ui,3.6.0.v20100602-1600,"org.eclipse.jdt.ui.PackageExplorer",1333666250639
activated,editor,org.eclipse.jdt.ui,3.6.0.v20100602-1600,"org.eclipse.jdt.ui.CompilationUnitEditor",1333666250768
activated,view,org.eclipse.jdt.ui,3.6.0.v20100602-1600,"org.eclipse.jdt.ui.PackageExplorer",1333666252393
activated,editor,org.eclipse.jdt.ui,3.6.0.v20100602-1600,"org.eclipse.jdt.ui.CompilationUnitEditor",1333666252511
activated,view,org.eclipse.jdt.ui,3.6.0.v20100602-1600,"org.eclipse.jdt.ui.PackageExplorer",1333666252997
activated,editor,org.eclipse.jdt.ui,3.6.0.v20100602-1600,"org.eclipse.jdt.ui.CompilationUnitEditor",1333666253110
activated,view,org.eclipse.jdt.ui,3.6.0.v20100602-1600,"org.eclipse.jdt.ui.PackageExplorer",1333666254007
activated,editor,org.eclipse.jdt.ui,3.6.0.v20100602-1600,"org.eclipse.jdt.ui.CompilationUnitEditor",1333666254121
executed,command,org.eclipse.ui,3.6.0.I20100603-1100,"org.eclipse.ui.edit.selectAll",1333666255684
executed,command,org.eclipse.ui,3.6.0.I20100603-1100,"org.eclipse.ui.edit.copy",1333666256425
deactivated,workbench,org.eclipse.ui.workbench,3.6.0.I20100603-1100,"",1333666257011
activated,workbench,org.eclipse.ui.workbench,3.6.0.I20100603-1100,"",1333666261219
activated,view,org.eclipse.jdt.ui,3.6.0.v20100602-1600,"org.eclipse.jdt.ui.PackageExplorer",1333666262595
activated,editor,org.eclipse.jdt.ui,3.6.0.v20100602-1600,"org.eclipse.jdt.ui.CompilationUnitEditor",1333666262725
executed,command,org.eclipse.ui,3.6.0.I20100603-1100,"org.eclipse.ui.edit.selectAll",1333666263812
executed,command,org.eclipse.ui,3.6.0.I20100603-1100,"org.eclipse.ui.edit.copy",1333666264688
deactivated,workbench,org.eclipse.ui.workbench,3.6.0.I20100603-1100,"",1333666265833
activated,workbench,org.eclipse.ui.workbench,3.6.0.I20100603-1100,"",1333666268115
activated,view,org.eclipse.jdt.ui,3.6.0.v20100602-1600,"org.eclipse.jdt.ui.PackageExplorer",1333666268933
activated,editor,org.eclipse.jdt.ui,3.6.0.v20100602-1600,"org.eclipse.jdt.ui.CompilationUnitEditor",1333666269056
executed,command,org.eclipse.ui,3.6.0.I20100603-1100,"org.eclipse.ui.edit.selectAll",1333666270106
executed,command,org.eclipse.ui,3.6.0.I20100603-1100,"org.eclipse.ui.edit.copy",1333666270816
deactivated,workbench,org.eclipse.ui.workbench,3.6.0.I20100603-1100,"",1333666271451
activated,workbench,org.eclipse.ui.workbench,3.6.0.I20100603-1100,"",1333666273291
activated,view,org.eclipse.jdt.ui,3.6.0.v20100602-1600,"org.eclipse.jdt.ui.PackageExplorer",1333666274269
activated,editor,org.eclipse.jdt.ui,3.6.0.v20100602-1600,"org.eclipse.jdt.ui.CompilationUnitEditor",1333666274368
executed,command,org.eclipse.ui,3.6.0.I20100603-1100,"org.eclipse.ui.edit.selectAll",1333666275458
executed,command,org.eclipse.ui,3.6.0.I20100603-1100,"org.eclipse.ui.edit.copy",1333666276432
deactivated,workbench,org.eclipse.ui.workbench,3.6.0.I20100603-1100,"",1333666276996
activated,workbench,org.eclipse.ui.workbench,3.6.0.I20100603-1100,"",1333666278669
activated,view,org.eclipse.jdt.ui,3.6.0.v20100602-1600,"org.eclipse.jdt.ui.PackageExplorer",1333666279435
activated,editor,org.eclipse.jdt.ui,3.6.0.v20100602-1600,"org.eclipse.jdt.ui.CompilationUnitEditor",1333666279536
executed,command,org.eclipse.ui,3.6.0.I20100603-1100,"org.eclipse.ui.edit.selectAll",1333666280337
executed,command,org.eclipse.ui,3.6.0.I20100603-1100,"org.eclipse.ui.edit.copy",1333666281184
deactivated,workbench,org.eclipse.ui.workbench,3.6.0.I20100603-1100,"",1333666281689
activated,workbench,org.eclipse.ui.workbench,3.6.0.I20100603-1100,"",1333666283043
activated,view,org.eclipse.jdt.ui,3.6.0.v20100602-1600,"org.eclipse.jdt.ui.PackageExplorer",1333666283891
activated,editor,org.eclipse.jdt.ui,3.6.0.v20100602-1600,"org.eclipse.jdt.ui.CompilationUnitEditor",1333666283997
executed,command,org.eclipse.ui,3.6.0.I20100603-1100,"org.eclipse.ui.edit.selectAll",1333666284929
executed,command,org.eclipse.ui,3.6.0.I20100603-1100,"org.eclipse.ui.edit.copy",1333666285806
deactivated,workbench,org.eclipse.ui.workbench,3.6.0.I20100603-1100,"",1333666286417
activated,workbench,org.eclipse.ui.workbench,3.6.0.I20100603-1100,"",1333666288640
activated,view,org.eclipse.jdt.ui,3.6.0.v20100602-1600,"org.eclipse.jdt.ui.PackageExplorer",1333666289521
activated,editor,org.eclipse.jdt.ui,3.6.0.v20100602-1600,"org.eclipse.jdt.ui.CompilationUnitEditor",1333666289617
executed,command,org.eclipse.ui,3.6.0.I20100603-1100,"org.eclipse.ui.edit.selectAll",1333666290977
executed,command,org.eclipse.ui,3.6.0.I20100603-1100,"org.eclipse.ui.edit.copy",1333666291550
deactivated,workbench,org.eclipse.ui.workbench,3.6.0.I20100603-1100,"",1333666292009
activated,workbench,org.eclipse.ui.workbench,3.6.0.I20100603-1100,"",1333666293775
activated,view,org.eclipse.jdt.ui,3.6.0.v20100602-1600,"org.eclipse.jdt.ui.PackageExplorer",1333666295808
activated,editor,org.eclipse.jdt.ui,3.6.0.v20100602-1600,"org.eclipse.jdt.ui.CompilationUnitEditor",1333666295927
executed,command,org.eclipse.ui,3.6.0.I20100603-1100,"org.eclipse.ui.edit.selectAll",1333666296808
executed,command,org.eclipse.ui,3.6.0.I20100603-1100,"org.eclipse.ui.edit.copy",1333666297437
deactivated,workbench,org.eclipse.ui.workbench,3.6.0.I20100603-1100,"",1333666297929
activated,workbench,org.eclipse.ui.workbench,3.6.0.I20100603-1100,"",1333666300033
activated,view,org.eclipse.jdt.ui,3.6.0.v20100602-1600,"org.eclipse.jdt.ui.PackageExplorer",1333666300863
activated,editor,org.eclipse.jdt.ui,3.6.0.v20100602-1600,"org.eclipse.jdt.ui.CompilationUnitEditor",1333666300982
executed,command,org.eclipse.ui,3.6.0.I20100603-1100,"org.eclipse.ui.edit.selectAll",1333666301463
executed,command,org.eclipse.ui,3.6.0.I20100603-1100,"org.eclipse.ui.edit.copy",1333666301701
deactivated,workbench,org.eclipse.ui.workbench,3.6.0.I20100603-1100,"",1333666302199
activated,workbench,org.eclipse.ui.workbench,3.6.0.I20100603-1100,"",1333666304593
activated,view,org.eclipse.jdt.ui,3.6.0.v20100602-1600,"org.eclipse.jdt.ui.PackageExplorer",1333666305741
activated,editor,org.eclipse.jdt.ui,3.6.0.v20100602-1600,"org.eclipse.jdt.ui.CompilationUnitEditor",1333666305834
executed,command,org.eclipse.ui,3.6.0.I20100603-1100,"org.eclipse.ui.edit.selectAll",1333666306303
executed,command,org.eclipse.ui,3.6.0.I20100603-1100,"org.eclipse.ui.edit.copy",1333666306989
deactivated,workbench,org.eclipse.ui.workbench,3.6.0.I20100603-1100,"",1333666307527
activated,workbench,org.eclipse.ui.workbench,3.6.0.I20100603-1100,"",1333666314890
activated,view,org.eclipse.jdt.ui,3.6.0.v20100602-1600,"org.eclipse.jdt.ui.PackageExplorer",1333666317673
activated,editor,org.eclipse.jdt.ui,3.6.0.v20100602-1600,"org.eclipse.jdt.ui.CompilationUnitEditor",1333666317792
activated,editor,org.eclipse.jdt.ui,3.6.0.v20100602-1600,"org.eclipse.jdt.ui.CompilationUnitEditor",1333666334350
deactivated,workbench,org.eclipse.ui.workbench,3.6.0.I20100603-1100,"",1333666336731
activated,workbench,org.eclipse.ui.workbench,3.6.0.I20100603-1100,"",1333666341447
deactivated,workbench,org.eclipse.ui.workbench,3.6.0.I20100603-1100,"",1333666343220
activated,workbench,org.eclipse.ui.workbench,3.6.0.I20100603-1100,"",1333666373490
activated,editor,org.eclipse.jdt.ui,3.6.0.v20100602-1600,"org.eclipse.jdt.ui.CompilationUnitEditor",1333666374028
executed,command,org.eclipse.ui,3.6.0.I20100603-1100,"org.eclipse.ui.file.saveAll",1333666389558
deactivated,workbench,org.eclipse.ui.workbench,3.6.0.I20100603-1100,"",1333666391231
activated,workbench,org.eclipse.ui.workbench,3.6.0.I20100603-1100,"",1333666392721
deactivated,workbench,org.eclipse.ui.workbench,3.6.0.I20100603-1100,"",1333666396867
activated,workbench,org.eclipse.ui.workbench,3.6.0.I20100603-1100,"",1333666460511
activated,view,org.eclipse.ui.console,3.5.0.v20100526,"org.eclipse.ui.console.ConsoleView",1333666460543
activated,editor,org.eclipse.jdt.ui,3.6.0.v20100602-1600,"org.eclipse.jdt.ui.CompilationUnitEditor",1333666467748
deactivated,workbench,org.eclipse.ui.workbench,3.6.0.I20100603-1100,"",1333666467814
activated,editor,org.eclipse.jdt.ui,3.6.0.v20100602-1600,"org.eclipse.jdt.ui.CompilationUnitEditor",1333666469041
activated,workbench,org.eclipse.ui.workbench,3.6.0.I20100603-1100,"",1333666469063
activated,view,org.eclipse.ui.console,3.5.0.v20100526,"org.eclipse.ui.console.ConsoleView",1333666475827
activated,view,org.eclipse.jdt.ui,3.6.0.v20100602-1600,"org.eclipse.jdt.ui.PackageExplorer",1333666483690
started,bundle,net.sf.webcat.eclipse.submitter.ui,1.3.0,"net.sf.webcat.eclipse.submitter.ui",1333666495599
started,bundle,net.sf.webcat.eclipse.submitter,1.3.0,"net.sf.webcat.eclipse.submitter",1333666495611
deactivated,workbench,org.eclipse.ui.workbench,3.6.0.I20100603-1100,"",1333666495739
activated,workbench,org.eclipse.ui.workbench,3.6.0.I20100603-1100,"",1333666496316
deactivated,workbench,org.eclipse.ui.workbench,3.6.0.I20100603-1100,"",1333666496360
opened,editor,net.sf.webcat.eclipse.submitter.ui,1.3.0,"net.sf.webcat.eclipse.submitter.ui.editors.BrowserEditor",1333666511024
activated,editor,net.sf.webcat.eclipse.submitter.ui,1.3.0,"net.sf.webcat.eclipse.submitter.ui.editors.BrowserEditor",1333666511041
activated,workbench,org.eclipse.ui.workbench,3.6.0.I20100603-1100,"",1333666511134
activated,view,org.eclipse.jdt.ui,3.6.0.v20100602-1600,"org.eclipse.jdt.ui.PackageExplorer",1333666515075
deactivated,workbench,org.eclipse.ui.workbench,3.6.0.I20100603-1100,"",1333666517309
activated,workbench,org.eclipse.ui.workbench,3.6.0.I20100603-1100,"",1333666517522
deactivated,workbench,org.eclipse.ui.workbench,3.6.0.I20100603-1100,"",1333666517558
opened,editor,net.sf.webcat.eclipse.submitter.ui,1.3.0,"net.sf.webcat.eclipse.submitter.ui.editors.BrowserEditor",1333666532938
activated,editor,net.sf.webcat.eclipse.submitter.ui,1.3.0,"net.sf.webcat.eclipse.submitter.ui.editors.BrowserEditor",1333666532947
activated,workbench,org.eclipse.ui.workbench,3.6.0.I20100603-1100,"",1333666533038
activated,view,org.eclipse.jdt.ui,3.6.0.v20100602-1600,"org.eclipse.jdt.ui.PackageExplorer",1333666540790
deactivated,workbench,org.eclipse.ui.workbench,3.6.0.I20100603-1100,"",1333666542084
activated,workbench,org.eclipse.ui.workbench,3.6.0.I20100603-1100,"",1333666542368
deactivated,workbench,org.eclipse.ui.workbench,3.6.0.I20100603-1100,"",1333666542416
opened,editor,net.sf.webcat.eclipse.submitter.ui,1.3.0,"net.sf.webcat.eclipse.submitter.ui.editors.BrowserEditor",1333666554857
activated,editor,net.sf.webcat.eclipse.submitter.ui,1.3.0,"net.sf.webcat.eclipse.submitter.ui.editors.BrowserEditor",1333666554867
activated,workbench,org.eclipse.ui.workbench,3.6.0.I20100603-1100,"",1333666554956
activated,view,org.eclipse.jdt.ui,3.6.0.v20100602-1600,"org.eclipse.jdt.ui.PackageExplorer",1333666564769
deactivated,workbench,org.eclipse.ui.workbench,3.6.0.I20100603-1100,"",1333666567351
activated,workbench,org.eclipse.ui.workbench,3.6.0.I20100603-1100,"",1333666567592
deactivated,workbench,org.eclipse.ui.workbench,3.6.0.I20100603-1100,"",1333666567628
opened,editor,net.sf.webcat.eclipse.submitter.ui,1.3.0,"net.sf.webcat.eclipse.submitter.ui.editors.BrowserEditor",1333666577559
activated,editor,net.sf.webcat.eclipse.submitter.ui,1.3.0,"net.sf.webcat.eclipse.submitter.ui.editors.BrowserEditor",1333666577567
activated,workbench,org.eclipse.ui.workbench,3.6.0.I20100603-1100,"",1333666577673
deactivated,workbench,org.eclipse.ui.workbench,3.6.0.I20100603-1100,"",1333666620624
closed,workbench,org.eclipse.ui.workbench,3.6.0.I20100603-1100,"",1333666622305
stopped,bundle,org.eclipse.mylyn.ide.ant,3.4.0.v20100608-0100-e3x,"org.eclipse.mylyn.ide.ant",1333666624491
stopped,bundle,org.eclipse.ant.ui,3.5.0.v20100427,"org.eclipse.ant.ui",1333666624491
stopped,bundle,org.eclipse.ant.launching,1.0.0.v20100427,"org.eclipse.ant.launching",1333666624491
stopped,bundle,org.eclipse.equinox.p2.ui.sdk,1.0.100.v20100513,"org.eclipse.equinox.p2.ui.sdk",1333666624492
stopped,bundle,org.eclipse.mylyn.java.tasks,3.4.0.v20100608-0100-e3x,"org.eclipse.mylyn.java.tasks",1333666624492
stopped,bundle,org.eclipse.mylyn.java.ui,3.4.0.v20100608-0100-e3x,"org.eclipse.mylyn.java.ui",1333666624493
stopped,bundle,edu.buffalo.cse.jive.launching,1.9.1.v20111117b,"edu.buffalo.cse.jive.launching",1333666624493
stopped,bundle,edu.buffalo.cse.jive.console,1.9.1.v20111117b,"edu.buffalo.cse.jive.console",1333666624493
stopped,bundle,edu.buffalo.cse.jive.ui,1.9.1.v20111117b,"edu.buffalo.cse.jive.ui",1333666624493
stopped,bundle,org.eclipse.jdt.junit,3.6.0.v20100526-0800,"org.eclipse.jdt.junit",1333666624493
stopped,bundle,org.eclipse.jdt.apt.ui,3.3.300.v20100513-0845,"org.eclipse.jdt.apt.ui",1333666624493
stopped,bundle,edu.rice.cs.drjava,0.9.8,"edu.rice.cs.drjava",1333666624494
stopped,bundle,oracle.eclipse.tools.envcheck,3.2.3.201107052022,"oracle.eclipse.tools.envcheck",1333666624494
stopped,bundle,org.eclipse.jdt.debug.ui,3.5.0.v20100602-0830,"org.eclipse.jdt.debug.ui",1333666624494
stopped,bundle,edu.buffalo.cse.green.relationship.association,3.5.0,"edu.buffalo.cse.green.relationship.association",1333666624494
stopped,bundle,edu.buffalo.cse.green.relationship.composition,3.5.0,"edu.buffalo.cse.green.relationship.composition",1333666624494
stopped,bundle,edu.buffalo.cse.green.relationship.dependency,3.5.0,"edu.buffalo.cse.green.relationship.dependency",1333666624494
stopped,bundle,edu.buffalo.cse.green.relationship.generalization,3.5.0,"edu.buffalo.cse.green.relationship.generalization",1333666624495
stopped,bundle,edu.buffalo.cse.green.relationship.realization,3.5.0,"edu.buffalo.cse.green.relationship.realization",1333666624495
stopped,bundle,edu.buffalo.cse.green.save.svg,3.5.0,"edu.buffalo.cse.green.save.svg",1333666624495
stopped,bundle,edu.buffalo.cse.green,3.5.0,"edu.buffalo.cse.green",1333666624495
stopped,bundle,org.eclipse.gmf.bridge,1.1.100.v20100309-2359,"org.eclipse.gmf.bridge",1333666624497
stopped,bundle,org.eclipse.gmf.codegen.edit,2.2.100.v20100309-2359,"org.eclipse.gmf.codegen.edit",1333666624497
stopped,bundle,org.eclipse.gmf.codegen,2.2.100.v20100518-2359,"org.eclipse.gmf.codegen",1333666624497
stopped,bundle,org.eclipse.gmf.graphdef.codegen,2.0.100.v20100421-2359,"org.eclipse.gmf.graphdef.codegen",1333666624497
stopped,bundle,org.eclipse.gmf.map.edit,2.2.100.v20100309-2359,"org.eclipse.gmf.map.edit",1333666624497
stopped,bundle,org.eclipse.gmf.graphdef.edit,2.0.200.v20090216-1925,"org.eclipse.gmf.graphdef.edit",1333666624497
stopped,bundle,org.eclipse.gmf.map,2.2.100.v20100309-2359,"org.eclipse.gmf.map",1333666624497
stopped,bundle,org.eclipse.gmf.tooldef.edit,2.0.100.v20090114-0940,"org.eclipse.gmf.tooldef.edit",1333666624498
stopped,bundle,org.eclipse.gmf.tooldef,2.0.0.v20090114-0940,"org.eclipse.gmf.tooldef",1333666624498
stopped,bundle,org.eclipse.gmf.common,1.2.0.v20100226-2359,"org.eclipse.gmf.common",1333666624500
stopped,bundle,com.collabnet.subversion.merge,2.1.0,"com.collabnet.subversion.merge",1333666624500
stopped,bundle,org.tigris.subversion.subclipse.graph,1.0.8,"org.tigris.subversion.subclipse.graph",1333666624500
stopped,bundle,org.tigris.subversion.subclipse.mylyn,3.0.0,"org.tigris.subversion.subclipse.mylyn",1333666624500
stopped,bundle,org.tigris.subversion.subclipse.ui,1.6.13,"org.tigris.subversion.subclipse.ui",1333666624501
stopped,bundle,com.python.pydev.codecompletion,2.1.0.2011052613,"com.python.pydev.codecompletion",1333666624501
stopped,bundle,com.python.pydev.refactoring,2.1.0.2011052613,"com.python.pydev.refactoring",1333666624501
stopped,bundle,org.eclipse.pde.runtime,3.4.200.v20100601,"org.eclipse.pde.runtime",1333666624501
stopped,bundle,com.python.pydev.analysis,2.1.0.2011052613,"com.python.pydev.analysis",1333666624501
stopped,bundle,com.python.pydev.debug,2.1.0.2011052613,"com.python.pydev.debug",1333666624501
stopped,bundle,com.python.pydev.fastparser,2.1.0.2011052613,"com.python.pydev.fastparser",1333666624501
stopped,bundle,com.python.pydev,2.1.0.2011052613,"com.python.pydev",1333666624502
stopped,bundle,org.python.pydev.django,2.1.0.2011052613,"org.python.pydev.django",1333666624502
stopped,bundle,org.python.pydev.customizations,2.1.0.2011052613,"org.python.pydev.customizations",1333666624502
stopped,bundle,org.python.pydev.red_core,2.1.0.2011052613,"org.python.pydev.red_core",1333666624502
stopped,bundle,org.python.pydev.debug,2.1.0.2011052613,"org.python.pydev.debug",1333666624503
stopped,bundle,org.python.pydev.refactoring,2.1.0.2011052613,"org.python.pydev.refactoring",1333666624503
stopped,bundle,org.python.pydev,2.1.0.2011052613,"org.python.pydev",1333666624535
stopped,bundle,org.springframework.ide.eclipse.beans.ui.refactoring,2.7.0.201107040453-RELEASE,"org.springframework.ide.eclipse.beans.ui.refactoring",1333666624535
stopped,bundle,org.springframework.ide.eclipse.beans.ui.editor,2.7.0.201107040453-RELEASE,"org.springframework.ide.eclipse.beans.ui.editor",1333666624536
stopped,bundle,org.springframework.ide.eclipse.beans.ui.graph,2.7.0.201107040453-RELEASE,"org.springframework.ide.eclipse.beans.ui.graph",1333666624536
stopped,bundle,org.springframework.ide.eclipse.beans.ui.search,2.7.0.201107040453-RELEASE,"org.springframework.ide.eclipse.beans.ui.search",1333666624536
stopped,bundle,org.springframework.ide.eclipse.beans.ui,2.7.0.201107040453-RELEASE,"org.springframework.ide.eclipse.beans.ui",1333666624536
stopped,bundle,org.springframework.ide.eclipse.ui,2.7.0.201107040453-RELEASE,"org.springframework.ide.eclipse.ui",1333666624536
stopped,bundle,org.eclipse.jdt.ui,3.6.0.v20100602-1600,"org.eclipse.jdt.ui",1333666624647
stopped,bundle,org.eclipse.wst.dtd.ui,1.0.500.v201004290328,"org.eclipse.wst.dtd.ui",1333666624647
stopped,bundle,org.eclipse.wst.xsd.ui,1.2.303.v201004290328,"org.eclipse.wst.xsd.ui",1333666624647
stopped,bundle,org.eclipse.wst.xml.ui,1.1.100.v201006030742,"org.eclipse.wst.xml.ui",1333666624647
stopped,bundle,org.eclipse.wst.common.ui,1.1.500.v200911190730,"org.eclipse.wst.common.ui",1333666624648
stopped,bundle,org.eclipse.wst.sse.ui,1.2.0.v201006030742,"org.eclipse.wst.sse.ui",1333666624648
stopped,bundle,org.eclipse.cdt.debug.ui.memory.search,1.2.0.201006141710,"org.eclipse.cdt.debug.ui.memory.search",1333666624648
stopped,bundle,org.eclipse.cdt.debug.ui.memory.traditional,1.2.0.201006141710,"org.eclipse.cdt.debug.ui.memory.traditional",1333666624648
stopped,bundle,org.eclipse.cdt.codan.checkers.ui,1.0.0.201006141710,"org.eclipse.cdt.codan.checkers.ui",1333666624648
stopped,bundle,org.eclipse.cdt.codan.ui.cxx,1.0.0.201006141710,"org.eclipse.cdt.codan.ui.cxx",1333666624648
stopped,bundle,org.eclipse.cdt.codan.ui,1.0.0.201006141710,"org.eclipse.cdt.codan.ui",1333666624649
stopped,bundle,org.eclipse.cdt.core.lrparser.xlc,1.0.0.201006141710,"org.eclipse.cdt.core.lrparser.xlc",1333666624649
stopped,bundle,org.eclipse.cdt.debug.edc.linux.x86,1.0.0.201006141710,"org.eclipse.cdt.debug.edc.linux.x86",1333666624649
stopped,bundle,org.eclipse.cdt.debug.edc.windows.ui,1.0.0.201006141710,"org.eclipse.cdt.debug.edc.windows.ui",1333666624649
stopped,bundle,org.eclipse.cdt.debug.edc.windows,1.0.0.201006141710,"org.eclipse.cdt.debug.edc.windows",1333666624649
stopped,bundle,org.eclipse.cdt.debug.edc.ui,1.0.0.201006141710,"org.eclipse.cdt.debug.edc.ui",1333666624650
stopped,bundle,org.eclipse.cdt.launch.remote,2.2.0.201006141710,"org.eclipse.cdt.launch.remote",1333666624650
stopped,bundle,org.eclipse.cdt.debug.mi.ui,6.1.0.201006141710,"org.eclipse.cdt.debug.mi.ui",1333666624650
stopped,bundle,org.eclipse.cdt.debug.ui.memory.memorybrowser,1.2.0.201006141710,"org.eclipse.cdt.debug.ui.memory.memorybrowser",1333666624651
stopped,bundle,org.eclipse.cdt.debug.gdbjtag.ui,7.0.0.201006141710,"org.eclipse.cdt.debug.gdbjtag.ui",1333666624651
stopped,bundle,org.eclipse.cdt.dsf.gdb.ui,2.1.0.201006141710,"org.eclipse.cdt.dsf.gdb.ui",1333666624652
stopped,bundle,org.eclipse.cdt.examples.dsf,2.1.0.201006141710,"org.eclipse.cdt.examples.dsf",1333666624652
