what,kind,bundleId,bundleVersion,description,time
executed,command,org.eclipse.ui.ide,3.6.0.I20100601-0800,"org.eclipse.ui.project.closeProject",1330634424522
opened,editor,org.eclipse.jdt.ui,3.6.0.v20100602-1600,"org.eclipse.jdt.ui.CompilationUnitEditor",1330634425035
closed,editor,org.eclipse.jdt.ui,3.6.0.v20100602-1600,"org.eclipse.jdt.ui.CompilationUnitEditor",1330634425042
activated,editor,org.eclipse.jdt.ui,3.6.0.v20100602-1600,"org.eclipse.jdt.ui.CompilationUnitEditor",1330634429534
activated,view,org.eclipse.jdt.ui,3.6.0.v20100602-1600,"org.eclipse.jdt.ui.PackageExplorer",1330634429634
closed,editor,org.eclipse.jdt.ui,3.6.0.v20100602-1600,"org.eclipse.jdt.ui.CompilationUnitEditor",1330634429635
deactivated,workbench,org.eclipse.ui.workbench,3.6.0.I20100603-1100,"",1330634438436
opened,view,org.eclipse.team.cvs.ui,3.3.300.I20100526-0800,"org.eclipse.team.ccvs.ui.RepositoriesView",1330634440395
opened,view,org.eclipse.team.ui,3.5.100.I20100527-0800,"org.eclipse.team.ui.GenericHistoryView",1330634440580
opened,view,org.eclipse.mylyn.tasks.ui,3.4.1.v20100730-0100-e3x,"org.eclipse.mylyn.tasks.ui.views.repositories",1330634440659
activated,perspective,org.eclipse.team.cvs.ui,3.3.300.I20100526-0800,"org.eclipse.team.cvs.ui.cvsPerspective",1330634440687
activated,view,org.eclipse.team.cvs.ui,3.3.300.I20100526-0800,"org.eclipse.team.ccvs.ui.RepositoriesView",1330634440706
executed,command,org.eclipse.ui,3.6.0.I20100603-1100,"org.eclipse.ui.perspectives.showPerspective",1330634440719
executed,command,org.eclipse.ui,3.6.0.I20100603-1100,"org.eclipse.ui.perspectives.showPerspective",1330634440719
activated,workbench,org.eclipse.ui.workbench,3.6.0.I20100603-1100,"",1330634440731
started,bundle,org.eclipse.jsch.ui,1.1.300.I20100505-1245,"org.eclipse.jsch.ui",1330634446148
deactivated,workbench,org.eclipse.ui.workbench,3.6.0.I20100603-1100,"",1330634446679
activated,workbench,org.eclipse.ui.workbench,3.6.0.I20100603-1100,"",1330634457850
deactivated,workbench,org.eclipse.ui.workbench,3.6.0.I20100603-1100,"",1330634460386
activated,workbench,org.eclipse.ui.workbench,3.6.0.I20100603-1100,"",1330634467821
deactivated,workbench,org.eclipse.ui.workbench,3.6.0.I20100603-1100,"",1330634487145
activated,workbench,org.eclipse.ui.workbench,3.6.0.I20100603-1100,"",1330634488416
deactivated,workbench,org.eclipse.ui.workbench,3.6.0.I20100603-1100,"",1330634489647
activated,workbench,org.eclipse.ui.workbench,3.6.0.I20100603-1100,"",1330634572271
deactivated,workbench,org.eclipse.ui.workbench,3.6.0.I20100603-1100,"",1330634574237
activated,workbench,org.eclipse.ui.workbench,3.6.0.I20100603-1100,"",1330634588892
deactivated,workbench,org.eclipse.ui.workbench,3.6.0.I20100603-1100,"",1330634626606
activated,workbench,org.eclipse.ui.workbench,3.6.0.I20100603-1100,"",1330634631464
deactivated,workbench,org.eclipse.ui.workbench,3.6.0.I20100603-1100,"",1330634632906
activated,workbench,org.eclipse.ui.workbench,3.6.0.I20100603-1100,"",1330634843298
deactivated,workbench,org.eclipse.ui.workbench,3.6.0.I20100603-1100,"",1330634848822
activated,perspective,edu.rice.cs.drjava,0.9.8,"edu.rice.cs.drjava.DrJavaPerspective",1330634850498
activated,view,org.eclipse.jdt.ui,3.6.0.v20100602-1600,"org.eclipse.jdt.ui.PackageExplorer",1330634850531
executed,command,org.eclipse.ui,3.6.0.I20100603-1100,"org.eclipse.ui.perspectives.showPerspective",1330634850538
executed,command,org.eclipse.ui,3.6.0.I20100603-1100,"org.eclipse.ui.perspectives.showPerspective",1330634850538
activated,workbench,org.eclipse.ui.workbench,3.6.0.I20100603-1100,"",1330634850556
deactivated,workbench,org.eclipse.ui.workbench,3.6.0.I20100603-1100,"",1330634855766
activated,perspective,org.eclipse.team.cvs.ui,3.3.300.I20100526-0800,"org.eclipse.team.cvs.ui.cvsPerspective",1330634858221
activated,view,org.eclipse.team.cvs.ui,3.3.300.I20100526-0800,"org.eclipse.team.ccvs.ui.RepositoriesView",1330634858236
executed,command,org.eclipse.ui,3.6.0.I20100603-1100,"org.eclipse.ui.perspectives.showPerspective",1330634858244
executed,command,org.eclipse.ui,3.6.0.I20100603-1100,"org.eclipse.ui.perspectives.showPerspective",1330634858244
activated,workbench,org.eclipse.ui.workbench,3.6.0.I20100603-1100,"",1330634858259
deactivated,workbench,org.eclipse.ui.workbench,3.6.0.I20100603-1100,"",1330634862369
started,bundle,org.eclipse.wst.server.core,1.1.207.v20110401_1511-p001,"org.eclipse.wst.server.core",1330634862396
activated,workbench,org.eclipse.ui.workbench,3.6.0.I20100603-1100,"",1330634863519
deactivated,workbench,org.eclipse.ui.workbench,3.6.0.I20100603-1100,"",1330634865911
activated,perspective,edu.rice.cs.drjava,0.9.8,"edu.rice.cs.drjava.DrJavaPerspective",1330634868421
activated,view,org.eclipse.jdt.ui,3.6.0.v20100602-1600,"org.eclipse.jdt.ui.PackageExplorer",1330634868447
executed,command,org.eclipse.ui,3.6.0.I20100603-1100,"org.eclipse.ui.perspectives.showPerspective",1330634868456
executed,command,org.eclipse.ui,3.6.0.I20100603-1100,"org.eclipse.ui.perspectives.showPerspective",1330634868456
activated,workbench,org.eclipse.ui.workbench,3.6.0.I20100603-1100,"",1330634868469
opened,editor,org.eclipse.jdt.ui,3.6.0.v20100602-1600,"org.eclipse.jdt.ui.CompilationUnitEditor",1330634885649
activated,editor,org.eclipse.jdt.ui,3.6.0.v20100602-1600,"org.eclipse.jdt.ui.CompilationUnitEditor",1330634885735
activated,view,org.eclipse.jdt.ui,3.6.0.v20100602-1600,"org.eclipse.jdt.ui.PackageExplorer",1330634890523
closed,editor,org.eclipse.jdt.ui,3.6.0.v20100602-1600,"org.eclipse.jdt.ui.CompilationUnitEditor",1330634890523
opened,editor,org.eclipse.jdt.ui,3.6.0.v20100602-1600,"org.eclipse.jdt.ui.CompilationUnitEditor",1330634891613
activated,editor,org.eclipse.jdt.ui,3.6.0.v20100602-1600,"org.eclipse.jdt.ui.CompilationUnitEditor",1330634891671
activated,view,org.eclipse.jdt.ui,3.6.0.v20100602-1600,"org.eclipse.jdt.ui.PackageExplorer",1330634898837
closed,editor,org.eclipse.jdt.ui,3.6.0.v20100602-1600,"org.eclipse.jdt.ui.CompilationUnitEditor",1330634898838
deactivated,workbench,org.eclipse.ui.workbench,3.6.0.I20100603-1100,"",1330634901800
activated,workbench,org.eclipse.ui.workbench,3.6.0.I20100603-1100,"",1330634908481
deactivated,workbench,org.eclipse.ui.workbench,3.6.0.I20100603-1100,"",1330634909094
activated,workbench,org.eclipse.ui.workbench,3.6.0.I20100603-1100,"",1330634929855
deactivated,workbench,org.eclipse.ui.workbench,3.6.0.I20100603-1100,"",1330634934171
activated,workbench,org.eclipse.ui.workbench,3.6.0.I20100603-1100,"",1330634936126
opened,editor,org.eclipse.jdt.ui,3.6.0.v20100602-1600,"org.eclipse.jdt.ui.CompilationUnitEditor",1330634947106
activated,editor,org.eclipse.jdt.ui,3.6.0.v20100602-1600,"org.eclipse.jdt.ui.CompilationUnitEditor",1330634947179
deactivated,workbench,org.eclipse.ui.workbench,3.6.0.I20100603-1100,"",1330634956413
activated,workbench,org.eclipse.ui.workbench,3.6.0.I20100603-1100,"",1330635161355
deactivated,workbench,org.eclipse.ui.workbench,3.6.0.I20100603-1100,"",1330635173285
activated,workbench,org.eclipse.ui.workbench,3.6.0.I20100603-1100,"",1330635177335
deactivated,workbench,org.eclipse.ui.workbench,3.6.0.I20100603-1100,"",1330635178604
activated,workbench,org.eclipse.ui.workbench,3.6.0.I20100603-1100,"",1330635182792
deactivated,workbench,org.eclipse.ui.workbench,3.6.0.I20100603-1100,"",1330635185398
activated,workbench,org.eclipse.ui.workbench,3.6.0.I20100603-1100,"",1330635186319
deactivated,workbench,org.eclipse.ui.workbench,3.6.0.I20100603-1100,"",1330635188547
activated,workbench,org.eclipse.ui.workbench,3.6.0.I20100603-1100,"",1330635220220
activated,view,org.eclipse.jdt.ui,3.6.0.v20100602-1600,"org.eclipse.jdt.ui.PackageExplorer",1330635222411
deactivated,workbench,org.eclipse.ui.workbench,3.6.0.I20100603-1100,"",1330635224119
activated,workbench,org.eclipse.ui.workbench,3.6.0.I20100603-1100,"",1330635238770
opened,editor,org.eclipse.jdt.ui,3.6.0.v20100602-1600,"org.eclipse.jdt.ui.CompilationUnitEditor",1330635242111
activated,editor,org.eclipse.jdt.ui,3.6.0.v20100602-1600,"org.eclipse.jdt.ui.CompilationUnitEditor",1330635242155
deactivated,workbench,org.eclipse.ui.workbench,3.6.0.I20100603-1100,"",1330635245536
activated,workbench,org.eclipse.ui.workbench,3.6.0.I20100603-1100,"",1330635309107
executed,command,org.eclipse.ui,3.6.0.I20100603-1100,"org.eclipse.ui.edit.paste",1330635315121
started,bundle,org.eclipse.jdt.junit,3.6.0.v20100526-0800,"org.eclipse.jdt.junit",1330635316274
deactivated,workbench,org.eclipse.ui.workbench,3.6.0.I20100603-1100,"",1330635336479
activated,workbench,org.eclipse.ui.workbench,3.6.0.I20100603-1100,"",1330635362000
executed,command,org.eclipse.ui,3.6.0.I20100603-1100,"org.eclipse.ui.edit.copy",1330635366647
executed,command,org.eclipse.ui,3.6.0.I20100603-1100,"org.eclipse.ui.edit.paste",1330635372092
executed,command,org.eclipse.ui,3.6.0.I20100603-1100,"org.eclipse.ui.edit.undo",1330635376369
executed,command,org.eclipse.ui,3.6.0.I20100603-1100,"org.eclipse.ui.edit.undo",1330635376724
executed,command,org.eclipse.ui,3.6.0.I20100603-1100,"org.eclipse.ui.edit.paste",1330635378205
deactivated,workbench,org.eclipse.ui.workbench,3.6.0.I20100603-1100,"",1330635444028
activated,workbench,org.eclipse.ui.workbench,3.6.0.I20100603-1100,"",1330635449945
deactivated,workbench,org.eclipse.ui.workbench,3.6.0.I20100603-1100,"",1330635452538
activated,workbench,org.eclipse.ui.workbench,3.6.0.I20100603-1100,"",1330635456071
deactivated,workbench,org.eclipse.ui.workbench,3.6.0.I20100603-1100,"",1330635457739
activated,workbench,org.eclipse.ui.workbench,3.6.0.I20100603-1100,"",1330635485901
executed,command,org.eclipse.ui.workbench.texteditor,3.6.0.v20100520-0800,"org.eclipse.ui.edit.text.toggleOverwrite",1330635489744
deactivated,workbench,org.eclipse.ui.workbench,3.6.0.I20100603-1100,"",1330635496248
activated,workbench,org.eclipse.ui.workbench,3.6.0.I20100603-1100,"",1330635498773
started,bundle,org.eclipse.mylyn.ide.ui,3.4.0.v20100608-0100-e3x,"org.eclipse.mylyn.ide.ui",1330635512436
started,bundle,org.eclipse.mylyn.java.ui,3.4.0.v20100608-0100-e3x,"org.eclipse.mylyn.java.ui",1330635512521
executed,command,org.eclipse.ui.workbench.texteditor,3.6.0.v20100520-0800,"org.eclipse.ui.edit.text.toggleOverwrite",1330635519925
deactivated,workbench,org.eclipse.ui.workbench,3.6.0.I20100603-1100,"",1330635525345
activated,workbench,org.eclipse.ui.workbench,3.6.0.I20100603-1100,"",1330635526177
deactivated,workbench,org.eclipse.ui.workbench,3.6.0.I20100603-1100,"",1330635598918
activated,workbench,org.eclipse.ui.workbench,3.6.0.I20100603-1100,"",1330635605303
executed,command,org.eclipse.jdt.ui,3.6.0.v20100602-1600,"org.eclipse.jdt.ui.edit.text.java.open.editor",1330635625583
deactivated,workbench,org.eclipse.ui.workbench,3.6.0.I20100603-1100,"",1330635629202
activated,workbench,org.eclipse.ui.workbench,3.6.0.I20100603-1100,"",1330635651792
deactivated,workbench,org.eclipse.ui.workbench,3.6.0.I20100603-1100,"",1330635657952
activated,workbench,org.eclipse.ui.workbench,3.6.0.I20100603-1100,"",1330635659732
deactivated,workbench,org.eclipse.ui.workbench,3.6.0.I20100603-1100,"",1330635663831
activated,workbench,org.eclipse.ui.workbench,3.6.0.I20100603-1100,"",1330635665608
deactivated,workbench,org.eclipse.ui.workbench,3.6.0.I20100603-1100,"",1330635669805
activated,workbench,org.eclipse.ui.workbench,3.6.0.I20100603-1100,"",1330635670965
deactivated,workbench,org.eclipse.ui.workbench,3.6.0.I20100603-1100,"",1330635673068
activated,workbench,org.eclipse.ui.workbench,3.6.0.I20100603-1100,"",1330635674827
executed,command,org.eclipse.ui.workbench.texteditor,3.6.0.v20100520-0800,"org.eclipse.ui.edit.text.toggleOverwrite",1330635683798
deactivated,workbench,org.eclipse.ui.workbench,3.6.0.I20100603-1100,"",1330635690796
activated,workbench,org.eclipse.ui.workbench,3.6.0.I20100603-1100,"",1330635694257
deactivated,workbench,org.eclipse.ui.workbench,3.6.0.I20100603-1100,"",1330635695851
activated,workbench,org.eclipse.ui.workbench,3.6.0.I20100603-1100,"",1330635697385
deactivated,workbench,org.eclipse.ui.workbench,3.6.0.I20100603-1100,"",1330635705447
activated,workbench,org.eclipse.ui.workbench,3.6.0.I20100603-1100,"",1330635706767
deactivated,workbench,org.eclipse.ui.workbench,3.6.0.I20100603-1100,"",1330635708682
activated,workbench,org.eclipse.ui.workbench,3.6.0.I20100603-1100,"",1330635712816
deactivated,workbench,org.eclipse.ui.workbench,3.6.0.I20100603-1100,"",1330635717064
activated,workbench,org.eclipse.ui.workbench,3.6.0.I20100603-1100,"",1330635719982
deactivated,workbench,org.eclipse.ui.workbench,3.6.0.I20100603-1100,"",1330635761637
activated,workbench,org.eclipse.ui.workbench,3.6.0.I20100603-1100,"",1330635762732
deactivated,workbench,org.eclipse.ui.workbench,3.6.0.I20100603-1100,"",1330635763285
activated,workbench,org.eclipse.ui.workbench,3.6.0.I20100603-1100,"",1330635766560
deactivated,workbench,org.eclipse.ui.workbench,3.6.0.I20100603-1100,"",1330635766985
activated,workbench,org.eclipse.ui.workbench,3.6.0.I20100603-1100,"",1330635770933
deactivated,workbench,org.eclipse.ui.workbench,3.6.0.I20100603-1100,"",1330635792962
activated,workbench,org.eclipse.ui.workbench,3.6.0.I20100603-1100,"",1330635800792
deactivated,workbench,org.eclipse.ui.workbench,3.6.0.I20100603-1100,"",1330635801953
activated,workbench,org.eclipse.ui.workbench,3.6.0.I20100603-1100,"",1330635803112
deactivated,workbench,org.eclipse.ui.workbench,3.6.0.I20100603-1100,"",1330635807577
activated,workbench,org.eclipse.ui.workbench,3.6.0.I20100603-1100,"",1330635815929
deactivated,workbench,org.eclipse.ui.workbench,3.6.0.I20100603-1100,"",1330635816559
activated,workbench,org.eclipse.ui.workbench,3.6.0.I20100603-1100,"",1330635946671
executed,command,org.eclipse.ui.workbench.texteditor,3.6.0.v20100520-0800,"org.eclipse.ui.edit.text.toggleOverwrite",1330635981105
deactivated,workbench,org.eclipse.ui.workbench,3.6.0.I20100603-1100,"",1330636008477
activated,workbench,org.eclipse.ui.workbench,3.6.0.I20100603-1100,"",1330636061615
deactivated,workbench,org.eclipse.ui.workbench,3.6.0.I20100603-1100,"",1330636075686
activated,workbench,org.eclipse.ui.workbench,3.6.0.I20100603-1100,"",1330636087079
deactivated,workbench,org.eclipse.ui.workbench,3.6.0.I20100603-1100,"",1330636087469
activated,workbench,org.eclipse.ui.workbench,3.6.0.I20100603-1100,"",1330636107033
deactivated,workbench,org.eclipse.ui.workbench,3.6.0.I20100603-1100,"",1330636114561
activated,workbench,org.eclipse.ui.workbench,3.6.0.I20100603-1100,"",1330636115714
deactivated,workbench,org.eclipse.ui.workbench,3.6.0.I20100603-1100,"",1330636116177
activated,workbench,org.eclipse.ui.workbench,3.6.0.I20100603-1100,"",1330636132570
deactivated,workbench,org.eclipse.ui.workbench,3.6.0.I20100603-1100,"",1330636139856
activated,workbench,org.eclipse.ui.workbench,3.6.0.I20100603-1100,"",1330636142542
deactivated,workbench,org.eclipse.ui.workbench,3.6.0.I20100603-1100,"",1330636152054
activated,workbench,org.eclipse.ui.workbench,3.6.0.I20100603-1100,"",1330636156973
deactivated,workbench,org.eclipse.ui.workbench,3.6.0.I20100603-1100,"",1330636165837
activated,workbench,org.eclipse.ui.workbench,3.6.0.I20100603-1100,"",1330636213557
deactivated,workbench,org.eclipse.ui.workbench,3.6.0.I20100603-1100,"",1330636219216
activated,workbench,org.eclipse.ui.workbench,3.6.0.I20100603-1100,"",1330636222254
deactivated,workbench,org.eclipse.ui.workbench,3.6.0.I20100603-1100,"",1330636231151
activated,workbench,org.eclipse.ui.workbench,3.6.0.I20100603-1100,"",1330636231742
deactivated,workbench,org.eclipse.ui.workbench,3.6.0.I20100603-1100,"",1330636232624
activated,workbench,org.eclipse.ui.workbench,3.6.0.I20100603-1100,"",1330636234430
deactivated,workbench,org.eclipse.ui.workbench,3.6.0.I20100603-1100,"",1330636235423
activated,workbench,org.eclipse.ui.workbench,3.6.0.I20100603-1100,"",1330636237342
deactivated,workbench,org.eclipse.ui.workbench,3.6.0.I20100603-1100,"",1330636238856
activated,workbench,org.eclipse.ui.workbench,3.6.0.I20100603-1100,"",1330636240965
opened,view,org.eclipse.jdt.ui,3.6.0.v20100602-1600,"org.eclipse.jdt.ui.TypeHierarchy",1330636247241
activated,view,org.eclipse.jdt.ui,3.6.0.v20100602-1600,"org.eclipse.jdt.ui.TypeHierarchy",1330636247285
executed,command,org.eclipse.jdt.ui,3.6.0.v20100602-1600,"org.eclipse.jdt.ui.edit.text.java.open.type.hierarchy",1330636247338
activated,editor,org.eclipse.jdt.ui,3.6.0.v20100602-1600,"org.eclipse.jdt.ui.CompilationUnitEditor",1330636247374
activated,view,org.eclipse.jdt.ui,3.6.0.v20100602-1600,"org.eclipse.jdt.ui.TypeHierarchy",1330636251264
executed,command,org.eclipse.jdt.ui,3.6.0.v20100602-1600,"org.eclipse.jdt.ui.edit.text.java.open.type.hierarchy",1330636251282
activated,editor,org.eclipse.jdt.ui,3.6.0.v20100602-1600,"org.eclipse.jdt.ui.CompilationUnitEditor",1330636252066
activated,view,org.eclipse.jdt.ui,3.6.0.v20100602-1600,"org.eclipse.jdt.ui.TypeHierarchy",1330636256882
activated,editor,org.eclipse.jdt.ui,3.6.0.v20100602-1600,"org.eclipse.jdt.ui.CompilationUnitEditor",1330636256918
closed,view,org.eclipse.jdt.ui,3.6.0.v20100602-1600,"org.eclipse.jdt.ui.TypeHierarchy",1330636256927
executed,command,org.eclipse.ui,3.6.0.I20100603-1100,"org.eclipse.ui.edit.paste",1330636259910
deactivated,workbench,org.eclipse.ui.workbench,3.6.0.I20100603-1100,"",1330636278229
activated,workbench,org.eclipse.ui.workbench,3.6.0.I20100603-1100,"",1330636283632
executed,command,org.eclipse.ui,3.6.0.I20100603-1100,"org.eclipse.ui.edit.paste",1330636286345
deactivated,workbench,org.eclipse.ui.workbench,3.6.0.I20100603-1100,"",1330636300138
activated,workbench,org.eclipse.ui.workbench,3.6.0.I20100603-1100,"",1330636315403
deactivated,workbench,org.eclipse.ui.workbench,3.6.0.I20100603-1100,"",1330636340694
activated,workbench,org.eclipse.ui.workbench,3.6.0.I20100603-1100,"",1330636345603
deactivated,workbench,org.eclipse.ui.workbench,3.6.0.I20100603-1100,"",1330636346517
activated,workbench,org.eclipse.ui.workbench,3.6.0.I20100603-1100,"",1330636355273
executed,command,org.eclipse.ui,3.6.0.I20100603-1100,"org.eclipse.ui.edit.paste",1330636360010
activated,view,org.eclipse.jdt.ui,3.6.0.v20100602-1600,"org.eclipse.jdt.ui.PackageExplorer",1330636387489
started,bundle,org.eclipse.mylyn.java.tasks,3.4.0.v20100608-0100-e3x,"org.eclipse.mylyn.java.tasks",1330636390955
executed,command,org.eclipse.ui,3.6.0.I20100603-1100,"org.eclipse.ui.file.save",1330636393979
deactivated,workbench,org.eclipse.ui.workbench,3.6.0.I20100603-1100,"",1330636401927
activated,workbench,org.eclipse.ui.workbench,3.6.0.I20100603-1100,"",1330636402800
deactivated,workbench,org.eclipse.ui.workbench,3.6.0.I20100603-1100,"",1330636403112
activated,workbench,org.eclipse.ui.workbench,3.6.0.I20100603-1100,"",1330636403934
deactivated,workbench,org.eclipse.ui.workbench,3.6.0.I20100603-1100,"",1330636405982
activated,workbench,org.eclipse.ui.workbench,3.6.0.I20100603-1100,"",1330636407926
deactivated,workbench,org.eclipse.ui.workbench,3.6.0.I20100603-1100,"",1330636408438
activated,workbench,org.eclipse.ui.workbench,3.6.0.I20100603-1100,"",1330636415682
activated,editor,org.eclipse.jdt.ui,3.6.0.v20100602-1600,"org.eclipse.jdt.ui.CompilationUnitEditor",1330636421789
deactivated,workbench,org.eclipse.ui.workbench,3.6.0.I20100603-1100,"",1330636434020
activated,workbench,org.eclipse.ui.workbench,3.6.0.I20100603-1100,"",1330636464570
deactivated,workbench,org.eclipse.ui.workbench,3.6.0.I20100603-1100,"",1330636465498
activated,workbench,org.eclipse.ui.workbench,3.6.0.I20100603-1100,"",1330636469201
activated,view,org.eclipse.jdt.ui,3.6.0.v20100602-1600,"org.eclipse.jdt.ui.PackageExplorer",1330636470883
activated,editor,org.eclipse.jdt.ui,3.6.0.v20100602-1600,"org.eclipse.jdt.ui.CompilationUnitEditor",1330636476482
deactivated,workbench,org.eclipse.ui.workbench,3.6.0.I20100603-1100,"",1330636479298
activated,workbench,org.eclipse.ui.workbench,3.6.0.I20100603-1100,"",1330636481912
deactivated,workbench,org.eclipse.ui.workbench,3.6.0.I20100603-1100,"",1330636483416
activated,workbench,org.eclipse.ui.workbench,3.6.0.I20100603-1100,"",1330636493838
deactivated,workbench,org.eclipse.ui.workbench,3.6.0.I20100603-1100,"",1330636501549
activated,workbench,org.eclipse.ui.workbench,3.6.0.I20100603-1100,"",1330636503028
deactivated,workbench,org.eclipse.ui.workbench,3.6.0.I20100603-1100,"",1330636506134
activated,workbench,org.eclipse.ui.workbench,3.6.0.I20100603-1100,"",1330636508067
deactivated,workbench,org.eclipse.ui.workbench,3.6.0.I20100603-1100,"",1330636511820
activated,workbench,org.eclipse.ui.workbench,3.6.0.I20100603-1100,"",1330636512931
deactivated,workbench,org.eclipse.ui.workbench,3.6.0.I20100603-1100,"",1330636513228
activated,workbench,org.eclipse.ui.workbench,3.6.0.I20100603-1100,"",1330636514187
deactivated,workbench,org.eclipse.ui.workbench,3.6.0.I20100603-1100,"",1330636523341
activated,workbench,org.eclipse.ui.workbench,3.6.0.I20100603-1100,"",1330636526585
deactivated,workbench,org.eclipse.ui.workbench,3.6.0.I20100603-1100,"",1330636536650
activated,workbench,org.eclipse.ui.workbench,3.6.0.I20100603-1100,"",1330636538001
deactivated,workbench,org.eclipse.ui.workbench,3.6.0.I20100603-1100,"",1330636556088
activated,workbench,org.eclipse.ui.workbench,3.6.0.I20100603-1100,"",1330636602603
activated,view,org.eclipse.jdt.ui,3.6.0.v20100602-1600,"org.eclipse.jdt.ui.PackageExplorer",1330636604914
opened,editor,org.eclipse.jdt.ui,3.6.0.v20100602-1600,"org.eclipse.jdt.ui.CompilationUnitEditor",1330636607437
activated,editor,org.eclipse.jdt.ui,3.6.0.v20100602-1600,"org.eclipse.jdt.ui.CompilationUnitEditor",1330636607487
deactivated,workbench,org.eclipse.ui.workbench,3.6.0.I20100603-1100,"",1330636634897
activated,workbench,org.eclipse.ui.workbench,3.6.0.I20100603-1100,"",1330636657485
deactivated,workbench,org.eclipse.ui.workbench,3.6.0.I20100603-1100,"",1330636729067
activated,workbench,org.eclipse.ui.workbench,3.6.0.I20100603-1100,"",1330636730594
deactivated,workbench,org.eclipse.ui.workbench,3.6.0.I20100603-1100,"",1330636866604
activated,workbench,org.eclipse.ui.workbench,3.6.0.I20100603-1100,"",1330636867518
deactivated,workbench,org.eclipse.ui.workbench,3.6.0.I20100603-1100,"",1330636868186
activated,workbench,org.eclipse.ui.workbench,3.6.0.I20100603-1100,"",1330636873586
deactivated,workbench,org.eclipse.ui.workbench,3.6.0.I20100603-1100,"",1330636949189
activated,workbench,org.eclipse.ui.workbench,3.6.0.I20100603-1100,"",1330636949524
activated,view,org.eclipse.jdt.ui,3.6.0.v20100602-1600,"org.eclipse.jdt.ui.PackageExplorer",1330637004906
deactivated,workbench,org.eclipse.ui.workbench,3.6.0.I20100603-1100,"",1330637023347
activated,workbench,org.eclipse.ui.workbench,3.6.0.I20100603-1100,"",1330637033199
deactivated,workbench,org.eclipse.ui.workbench,3.6.0.I20100603-1100,"",1330637034451
activated,workbench,org.eclipse.ui.workbench,3.6.0.I20100603-1100,"",1330637099176
opened,editor,org.eclipse.jdt.ui,3.6.0.v20100602-1600,"org.eclipse.jdt.ui.CompilationUnitEditor",1330637104485
activated,editor,org.eclipse.jdt.ui,3.6.0.v20100602-1600,"org.eclipse.jdt.ui.CompilationUnitEditor",1330637104540
activated,editor,org.eclipse.jdt.ui,3.6.0.v20100602-1600,"org.eclipse.jdt.ui.CompilationUnitEditor",1330637106819
closed,editor,org.eclipse.jdt.ui,3.6.0.v20100602-1600,"org.eclipse.jdt.ui.CompilationUnitEditor",1330637106819
deactivated,workbench,org.eclipse.ui.workbench,3.6.0.I20100603-1100,"",1330637110604
activated,workbench,org.eclipse.ui.workbench,3.6.0.I20100603-1100,"",1330637123101
activated,view,org.eclipse.jdt.ui,3.6.0.v20100602-1600,"org.eclipse.jdt.ui.PackageExplorer",1330637125037
opened,editor,org.eclipse.jdt.ui,3.6.0.v20100602-1600,"org.eclipse.jdt.ui.CompilationUnitEditor",1330637127208
activated,editor,org.eclipse.jdt.ui,3.6.0.v20100602-1600,"org.eclipse.jdt.ui.CompilationUnitEditor",1330637127252
activated,editor,org.eclipse.jdt.ui,3.6.0.v20100602-1600,"org.eclipse.jdt.ui.CompilationUnitEditor",1330637130792
closed,editor,org.eclipse.jdt.ui,3.6.0.v20100602-1600,"org.eclipse.jdt.ui.CompilationUnitEditor",1330637130792
activated,view,org.eclipse.jdt.ui,3.6.0.v20100602-1600,"org.eclipse.jdt.ui.PackageExplorer",1330637132006
opened,editor,org.eclipse.jdt.ui,3.6.0.v20100602-1600,"org.eclipse.jdt.ui.CompilationUnitEditor",1330637133105
activated,editor,org.eclipse.jdt.ui,3.6.0.v20100602-1600,"org.eclipse.jdt.ui.CompilationUnitEditor",1330637133163
activated,editor,org.eclipse.jdt.ui,3.6.0.v20100602-1600,"org.eclipse.jdt.ui.CompilationUnitEditor",1330637134453
closed,editor,org.eclipse.jdt.ui,3.6.0.v20100602-1600,"org.eclipse.jdt.ui.CompilationUnitEditor",1330637134454
activated,view,org.eclipse.jdt.ui,3.6.0.v20100602-1600,"org.eclipse.jdt.ui.PackageExplorer",1330637135180
opened,editor,org.eclipse.jdt.ui,3.6.0.v20100602-1600,"org.eclipse.jdt.ui.CompilationUnitEditor",1330637135271
activated,editor,org.eclipse.jdt.ui,3.6.0.v20100602-1600,"org.eclipse.jdt.ui.CompilationUnitEditor",1330637135313
activated,editor,org.eclipse.jdt.ui,3.6.0.v20100602-1600,"org.eclipse.jdt.ui.CompilationUnitEditor",1330637136609
closed,editor,org.eclipse.jdt.ui,3.6.0.v20100602-1600,"org.eclipse.jdt.ui.CompilationUnitEditor",1330637136609
activated,view,org.eclipse.jdt.ui,3.6.0.v20100602-1600,"org.eclipse.jdt.ui.PackageExplorer",1330637140673
deactivated,workbench,org.eclipse.ui.workbench,3.6.0.I20100603-1100,"",1330637147772
activated,workbench,org.eclipse.ui.workbench,3.6.0.I20100603-1100,"",1330637148121
deactivated,workbench,org.eclipse.ui.workbench,3.6.0.I20100603-1100,"",1330637150542
activated,workbench,org.eclipse.ui.workbench,3.6.0.I20100603-1100,"",1330637170412
activated,editor,org.eclipse.jdt.ui,3.6.0.v20100602-1600,"org.eclipse.jdt.ui.CompilationUnitEditor",1330637173420
deactivated,workbench,org.eclipse.ui.workbench,3.6.0.I20100603-1100,"",1330637175484
