what,kind,bundleId,bundleVersion,description,time
executed,command,org.eclipse.ui,3.6.0.I20100603-1100,"org.eclipse.ui.edit.delete",1328631249956
executed,command,org.eclipse.ui,3.6.0.I20100603-1100,"org.eclipse.ui.edit.delete",1328631249988
executed,command,org.eclipse.ui,3.6.0.I20100603-1100,"org.eclipse.ui.edit.delete",1328631250021
executed,command,org.eclipse.ui,3.6.0.I20100603-1100,"org.eclipse.ui.edit.delete",1328631250054
executed,command,org.eclipse.ui,3.6.0.I20100603-1100,"org.eclipse.ui.edit.delete",1328631250087
executed,command,org.eclipse.ui,3.6.0.I20100603-1100,"org.eclipse.ui.edit.delete",1328631250120
executed,command,org.eclipse.ui,3.6.0.I20100603-1100,"org.eclipse.ui.edit.delete",1328631250153
executed,command,org.eclipse.ui,3.6.0.I20100603-1100,"org.eclipse.ui.edit.delete",1328631250187
executed,command,org.eclipse.ui,3.6.0.I20100603-1100,"org.eclipse.ui.edit.delete",1328631250220
executed,command,org.eclipse.ui,3.6.0.I20100603-1100,"org.eclipse.ui.edit.delete",1328631250253
executed,command,org.eclipse.ui,3.6.0.I20100603-1100,"org.eclipse.ui.edit.delete",1328631250286
executed,command,org.eclipse.ui,3.6.0.I20100603-1100,"org.eclipse.ui.edit.delete",1328631250489
executed,command,org.eclipse.ui,3.6.0.I20100603-1100,"org.eclipse.ui.edit.delete",1328631250682
executed,command,org.eclipse.ui,3.6.0.I20100603-1100,"org.eclipse.ui.edit.delete",1328631250914
executed,command,org.eclipse.ui,3.6.0.I20100603-1100,"org.eclipse.ui.edit.delete",1328631251138
executed,command,org.eclipse.ui,3.6.0.I20100603-1100,"org.eclipse.ui.edit.delete",1328631251339
executed,command,org.eclipse.ui,3.6.0.I20100603-1100,"org.eclipse.ui.edit.delete",1328631251555
executed,command,org.eclipse.ui,3.6.0.I20100603-1100,"org.eclipse.ui.edit.delete",1328631251738
executed,command,org.eclipse.ui,3.6.0.I20100603-1100,"org.eclipse.ui.edit.delete",1328631251987
executed,command,org.eclipse.ui,3.6.0.I20100603-1100,"org.eclipse.ui.edit.delete",1328631252282
executed,command,org.eclipse.ui,3.6.0.I20100603-1100,"org.eclipse.ui.edit.delete",1328631252562
executed,command,org.eclipse.ui,3.6.0.I20100603-1100,"org.eclipse.ui.edit.delete",1328631252802
executed,command,org.eclipse.ui,3.6.0.I20100603-1100,"org.eclipse.ui.edit.delete",1328631253210
executed,command,org.eclipse.ui,3.6.0.I20100603-1100,"org.eclipse.ui.edit.delete",1328631253738
executed,command,org.eclipse.ui,3.6.0.I20100603-1100,"org.eclipse.ui.edit.undo",1328631254837
executed,command,org.eclipse.ui,3.6.0.I20100603-1100,"org.eclipse.ui.edit.delete",1328631256559
executed,command,org.eclipse.ui,3.6.0.I20100603-1100,"org.eclipse.ui.edit.delete",1328631259658
executed,command,org.eclipse.ui,3.6.0.I20100603-1100,"org.eclipse.ui.edit.delete",1328631259834
executed,command,org.eclipse.ui,3.6.0.I20100603-1100,"org.eclipse.ui.edit.delete",1328631260066
executed,command,org.eclipse.ui,3.6.0.I20100603-1100,"org.eclipse.ui.edit.delete",1328631260285
executed,command,org.eclipse.ui,3.6.0.I20100603-1100,"org.eclipse.ui.edit.undo",1328631261315
executed,command,org.eclipse.ui,3.6.0.I20100603-1100,"org.eclipse.ui.edit.delete",1328631262970
executed,command,org.eclipse.ui,3.6.0.I20100603-1100,"org.eclipse.ui.edit.delete",1328631263129
executed,command,org.eclipse.ui,3.6.0.I20100603-1100,"org.eclipse.ui.edit.delete",1328631263626
executed,command,org.eclipse.ui,3.6.0.I20100603-1100,"org.eclipse.ui.edit.delete",1328631263813
executed,command,org.eclipse.ui,3.6.0.I20100603-1100,"org.eclipse.ui.edit.delete",1328631264290
executed,command,org.eclipse.ui,3.6.0.I20100603-1100,"org.eclipse.ui.edit.delete",1328631264425
executed,command,org.eclipse.ui,3.6.0.I20100603-1100,"org.eclipse.ui.edit.delete",1328631264682
executed,command,org.eclipse.ui,3.6.0.I20100603-1100,"org.eclipse.ui.edit.delete",1328631264853
executed,command,org.eclipse.ui,3.6.0.I20100603-1100,"org.eclipse.ui.edit.delete",1328631265154
executed,command,org.eclipse.ui,3.6.0.I20100603-1100,"org.eclipse.ui.edit.delete",1328631265322
executed,command,org.eclipse.ui,3.6.0.I20100603-1100,"org.eclipse.ui.edit.delete",1328631265602
executed,command,org.eclipse.ui,3.6.0.I20100603-1100,"org.eclipse.ui.edit.delete",1328631265770
executed,command,org.eclipse.ui,3.6.0.I20100603-1100,"org.eclipse.ui.edit.delete",1328631266030
executed,command,org.eclipse.ui,3.6.0.I20100603-1100,"org.eclipse.ui.edit.delete",1328631266242
executed,command,org.eclipse.ui,3.6.0.I20100603-1100,"org.eclipse.ui.edit.delete",1328631266682
executed,command,org.eclipse.ui,3.6.0.I20100603-1100,"org.eclipse.ui.edit.delete",1328631266854
executed,command,org.eclipse.ui,3.6.0.I20100603-1100,"org.eclipse.ui.edit.delete",1328631267386
executed,command,org.eclipse.ui,3.6.0.I20100603-1100,"org.eclipse.ui.edit.delete",1328631267554
executed,command,org.eclipse.ui,3.6.0.I20100603-1100,"org.eclipse.ui.edit.delete",1328631267850
executed,command,org.eclipse.ui,3.6.0.I20100603-1100,"org.eclipse.ui.edit.delete",1328631268129
executed,command,org.eclipse.ui,3.6.0.I20100603-1100,"org.eclipse.ui.edit.delete",1328631268482
executed,command,org.eclipse.ui,3.6.0.I20100603-1100,"org.eclipse.ui.edit.delete",1328631268729
executed,command,org.eclipse.ui,3.6.0.I20100603-1100,"org.eclipse.ui.edit.delete",1328631269148
executed,command,org.eclipse.ui,3.6.0.I20100603-1100,"org.eclipse.ui.edit.delete",1328631269369
executed,command,org.eclipse.ui,3.6.0.I20100603-1100,"org.eclipse.ui.edit.delete",1328631269690
executed,command,org.eclipse.ui,3.6.0.I20100603-1100,"org.eclipse.ui.edit.delete",1328631269946
executed,command,org.eclipse.ui,3.6.0.I20100603-1100,"org.eclipse.ui.edit.delete",1328631270430
executed,command,org.eclipse.ui,3.6.0.I20100603-1100,"org.eclipse.ui.edit.delete",1328631270701
executed,command,org.eclipse.ui,3.6.0.I20100603-1100,"org.eclipse.ui.edit.delete",1328631271058
executed,command,org.eclipse.ui,3.6.0.I20100603-1100,"org.eclipse.ui.edit.delete",1328631271289
executed,command,org.eclipse.ui,3.6.0.I20100603-1100,"org.eclipse.ui.edit.delete",1328631271787
executed,command,org.eclipse.ui,3.6.0.I20100603-1100,"org.eclipse.ui.edit.delete",1328631272249
executed,command,org.eclipse.ui,3.6.0.I20100603-1100,"org.eclipse.ui.edit.delete",1328631272713
executed,command,org.eclipse.ui,3.6.0.I20100603-1100,"org.eclipse.ui.file.save",1328631378504
activated,view,edu.rice.cs.drjava,0.9.8,"edu.rice.cs.drjava.InteractionsView",1328631379438
executed,command,org.eclipse.ui,3.6.0.I20100603-1100,"org.eclipse.ui.edit.copy",1328631544722
executed,command,org.eclipse.ui,3.6.0.I20100603-1100,"org.eclipse.ui.edit.paste",1328631545700
deactivated,workbench,org.eclipse.ui.workbench,3.6.0.I20100603-1100,"",1328631562760
activated,workbench,org.eclipse.ui.workbench,3.6.0.I20100603-1100,"",1328631588962
activated,view,org.eclipse.jdt.ui,3.6.0.v20100602-1600,"org.eclipse.jdt.ui.PackageExplorer",1328631589074
opened,editor,org.eclipse.ui.editors,3.6.0.v20100520-0800,"org.eclipse.ui.DefaultTextEditor",1328631589299
activated,editor,org.eclipse.ui.editors,3.6.0.v20100520-0800,"org.eclipse.ui.DefaultTextEditor",1328631589344
activated,view,org.eclipse.jdt.ui,3.6.0.v20100602-1600,"org.eclipse.jdt.ui.PackageExplorer",1328631606949
activated,editor,org.eclipse.jdt.ui,3.6.0.v20100602-1600,"org.eclipse.jdt.ui.CompilationUnitEditor",1328631607046
executed,command,org.eclipse.ui,3.6.0.I20100603-1100,"org.eclipse.ui.file.save",1328631622752
activated,view,edu.rice.cs.drjava,0.9.8,"edu.rice.cs.drjava.InteractionsView",1328631626280
deactivated,workbench,org.eclipse.ui.workbench,3.6.0.I20100603-1100,"",1328631627701
activated,workbench,org.eclipse.ui.workbench,3.6.0.I20100603-1100,"",1328631635229
activated,editor,org.eclipse.jdt.ui,3.6.0.v20100602-1600,"org.eclipse.jdt.ui.CompilationUnitEditor",1328631635277
deactivated,workbench,org.eclipse.ui.workbench,3.6.0.I20100603-1100,"",1328631637600
activated,workbench,org.eclipse.ui.workbench,3.6.0.I20100603-1100,"",1328631640414
deactivated,workbench,org.eclipse.ui.workbench,3.6.0.I20100603-1100,"",1328631640568
activated,workbench,org.eclipse.ui.workbench,3.6.0.I20100603-1100,"",1328631643576
activated,view,edu.rice.cs.drjava,0.9.8,"edu.rice.cs.drjava.InteractionsView",1328631646013
deactivated,workbench,org.eclipse.ui.workbench,3.6.0.I20100603-1100,"",1328631649577
activated,workbench,org.eclipse.ui.workbench,3.6.0.I20100603-1100,"",1328631656482
deactivated,workbench,org.eclipse.ui.workbench,3.6.0.I20100603-1100,"",1328631656573
activated,workbench,org.eclipse.ui.workbench,3.6.0.I20100603-1100,"",1328631657935
activated,editor,org.eclipse.ui.editors,3.6.0.v20100520-0800,"org.eclipse.ui.DefaultTextEditor",1328631659759
activated,editor,org.eclipse.ui.editors,3.6.0.v20100520-0800,"org.eclipse.ui.DefaultTextEditor",1328631661231
activated,editor,org.eclipse.jdt.ui,3.6.0.v20100602-1600,"org.eclipse.jdt.ui.CompilationUnitEditor",1328631667816
activated,editor,org.eclipse.ui.editors,3.6.0.v20100520-0800,"org.eclipse.ui.DefaultTextEditor",1328631699819
deactivated,workbench,org.eclipse.ui.workbench,3.6.0.I20100603-1100,"",1328631833174
activated,workbench,org.eclipse.ui.workbench,3.6.0.I20100603-1100,"",1328631840114
activated,view,org.eclipse.jdt.ui,3.6.0.v20100602-1600,"org.eclipse.jdt.ui.PackageExplorer",1328631840237
activated,editor,org.eclipse.ui.editors,3.6.0.v20100520-0800,"org.eclipse.ui.DefaultTextEditor",1328631841519
executed,command,org.eclipse.ui,3.6.0.I20100603-1100,"org.eclipse.ui.edit.copy",1328631912386
executed,command,org.eclipse.ui,3.6.0.I20100603-1100,"org.eclipse.ui.edit.paste",1328631914272
activated,editor,org.eclipse.jdt.ui,3.6.0.v20100602-1600,"org.eclipse.jdt.ui.CompilationUnitEditor",1328631948766
activated,editor,org.eclipse.ui.editors,3.6.0.v20100520-0800,"org.eclipse.ui.DefaultTextEditor",1328631950556
executed,command,org.eclipse.ui,3.6.0.I20100603-1100,"org.eclipse.ui.file.save",1328632316626
activated,view,org.eclipse.jdt.ui,3.6.0.v20100602-1600,"org.eclipse.jdt.ui.PackageExplorer",1328632322027
activated,editor,org.eclipse.jdt.ui,3.6.0.v20100602-1600,"org.eclipse.jdt.ui.CompilationUnitEditor",1328632325476
activated,editor,org.eclipse.ui.editors,3.6.0.v20100520-0800,"org.eclipse.ui.DefaultTextEditor",1328632328201
deactivated,workbench,org.eclipse.ui.workbench,3.6.0.I20100603-1100,"",1328632339845
activated,workbench,org.eclipse.ui.workbench,3.6.0.I20100603-1100,"",1328632351644
activated,view,org.eclipse.jdt.ui,3.6.0.v20100602-1600,"org.eclipse.jdt.ui.PackageExplorer",1328632351694
started,bundle,net.sf.webcat.eclipse.submitter.ui,1.3.0,"net.sf.webcat.eclipse.submitter.ui",1328632366749
started,bundle,net.sf.webcat.eclipse.submitter,1.3.0,"net.sf.webcat.eclipse.submitter",1328632366929
deactivated,workbench,org.eclipse.ui.workbench,3.6.0.I20100603-1100,"",1328632367049
activated,workbench,org.eclipse.ui.workbench,3.6.0.I20100603-1100,"",1328632368046
deactivated,workbench,org.eclipse.ui.workbench,3.6.0.I20100603-1100,"",1328632368098
activated,workbench,org.eclipse.ui.workbench,3.6.0.I20100603-1100,"",1328632413913
executed,command,org.eclipse.ui,3.6.0.I20100603-1100,"org.eclipse.ui.file.save",1328632416638
activated,editor,org.eclipse.jdt.ui,3.6.0.v20100602-1600,"org.eclipse.jdt.ui.CompilationUnitEditor",1328632418054
activated,editor,org.eclipse.ui.editors,3.6.0.v20100520-0800,"org.eclipse.ui.DefaultTextEditor",1328632424130
activated,editor,org.eclipse.ui.editors,3.6.0.v20100520-0800,"org.eclipse.ui.DefaultTextEditor",1328632424791
activated,editor,org.eclipse.jdt.ui,3.6.0.v20100602-1600,"org.eclipse.jdt.ui.CompilationUnitEditor",1328632431716
activated,view,org.eclipse.jdt.ui,3.6.0.v20100602-1600,"org.eclipse.jdt.ui.PackageExplorer",1328632433525
deactivated,workbench,org.eclipse.ui.workbench,3.6.0.I20100603-1100,"",1328632435261
activated,workbench,org.eclipse.ui.workbench,3.6.0.I20100603-1100,"",1328632435463
deactivated,workbench,org.eclipse.ui.workbench,3.6.0.I20100603-1100,"",1328632435499
opened,editor,net.sf.webcat.eclipse.submitter.ui,1.3.0,"net.sf.webcat.eclipse.submitter.ui.editors.BrowserEditor",1328632449450
activated,editor,net.sf.webcat.eclipse.submitter.ui,1.3.0,"net.sf.webcat.eclipse.submitter.ui.editors.BrowserEditor",1328632449460
activated,workbench,org.eclipse.ui.workbench,3.6.0.I20100603-1100,"",1328632449548
deactivated,workbench,org.eclipse.ui.workbench,3.6.0.I20100603-1100,"",1328632636959
closed,workbench,org.eclipse.ui.workbench,3.6.0.I20100603-1100,"",1328634480622
stopped,bundle,org.eclipse.mylyn.ide.ant,3.4.0.v20100608-0100-e3x,"org.eclipse.mylyn.ide.ant",1328634484546
stopped,bundle,org.eclipse.ant.ui,3.5.0.v20100427,"org.eclipse.ant.ui",1328634484546
stopped,bundle,org.eclipse.ant.launching,1.0.0.v20100427,"org.eclipse.ant.launching",1328634484546
stopped,bundle,org.eclipse.equinox.p2.ui.sdk,1.0.100.v20100513,"org.eclipse.equinox.p2.ui.sdk",1328634484552
stopped,bundle,org.eclipse.mylyn.java.tasks,3.4.0.v20100608-0100-e3x,"org.eclipse.mylyn.java.tasks",1328634484552
stopped,bundle,org.eclipse.mylyn.java.ui,3.4.0.v20100608-0100-e3x,"org.eclipse.mylyn.java.ui",1328634484553
stopped,bundle,edu.buffalo.cse.jive.launching,1.9.1.v20111117b,"edu.buffalo.cse.jive.launching",1328634484553
stopped,bundle,edu.buffalo.cse.jive.console,1.9.1.v20111117b,"edu.buffalo.cse.jive.console",1328634484553
stopped,bundle,edu.buffalo.cse.jive.ui,1.9.1.v20111117b,"edu.buffalo.cse.jive.ui",1328634484553
stopped,bundle,org.eclipse.jdt.junit,3.6.0.v20100526-0800,"org.eclipse.jdt.junit",1328634484553
stopped,bundle,org.eclipse.jdt.apt.ui,3.3.300.v20100513-0845,"org.eclipse.jdt.apt.ui",1328634484553
stopped,bundle,edu.rice.cs.drjava,0.9.8,"edu.rice.cs.drjava",1328634484553
stopped,bundle,oracle.eclipse.tools.envcheck,3.2.3.201107052022,"oracle.eclipse.tools.envcheck",1328634484553
stopped,bundle,org.eclipse.jdt.debug.ui,3.5.0.v20100602-0830,"org.eclipse.jdt.debug.ui",1328634484553
stopped,bundle,edu.buffalo.cse.green.relationship.association,3.5.0,"edu.buffalo.cse.green.relationship.association",1328634484554
stopped,bundle,edu.buffalo.cse.green.relationship.composition,3.5.0,"edu.buffalo.cse.green.relationship.composition",1328634484554
stopped,bundle,edu.buffalo.cse.green.relationship.dependency,3.5.0,"edu.buffalo.cse.green.relationship.dependency",1328634484554
stopped,bundle,edu.buffalo.cse.green.relationship.generalization,3.5.0,"edu.buffalo.cse.green.relationship.generalization",1328634484554
stopped,bundle,edu.buffalo.cse.green.relationship.realization,3.5.0,"edu.buffalo.cse.green.relationship.realization",1328634484554
stopped,bundle,edu.buffalo.cse.green.save.svg,3.5.0,"edu.buffalo.cse.green.save.svg",1328634484554
stopped,bundle,edu.buffalo.cse.green,3.5.0,"edu.buffalo.cse.green",1328634484554
stopped,bundle,org.eclipse.gmf.bridge,1.1.100.v20100309-2359,"org.eclipse.gmf.bridge",1328634484556
stopped,bundle,org.eclipse.gmf.codegen.edit,2.2.100.v20100309-2359,"org.eclipse.gmf.codegen.edit",1328634484556
stopped,bundle,org.eclipse.gmf.codegen,2.2.100.v20100518-2359,"org.eclipse.gmf.codegen",1328634484556
stopped,bundle,org.eclipse.gmf.graphdef.codegen,2.0.100.v20100421-2359,"org.eclipse.gmf.graphdef.codegen",1328634484556
stopped,bundle,org.eclipse.gmf.map.edit,2.2.100.v20100309-2359,"org.eclipse.gmf.map.edit",1328634484556
stopped,bundle,org.eclipse.gmf.graphdef.edit,2.0.200.v20090216-1925,"org.eclipse.gmf.graphdef.edit",1328634484556
stopped,bundle,org.eclipse.gmf.map,2.2.100.v20100309-2359,"org.eclipse.gmf.map",1328634484556
stopped,bundle,org.eclipse.gmf.tooldef.edit,2.0.100.v20090114-0940,"org.eclipse.gmf.tooldef.edit",1328634484556
stopped,bundle,org.eclipse.gmf.tooldef,2.0.0.v20090114-0940,"org.eclipse.gmf.tooldef",1328634484557
stopped,bundle,org.eclipse.gmf.common,1.2.0.v20100226-2359,"org.eclipse.gmf.common",1328634484558
stopped,bundle,com.collabnet.subversion.merge,2.1.0,"com.collabnet.subversion.merge",1328634484558
stopped,bundle,org.tigris.subversion.subclipse.graph,1.0.8,"org.tigris.subversion.subclipse.graph",1328634484558
stopped,bundle,org.tigris.subversion.subclipse.mylyn,3.0.0,"org.tigris.subversion.subclipse.mylyn",1328634484558
stopped,bundle,org.tigris.subversion.subclipse.ui,1.6.13,"org.tigris.subversion.subclipse.ui",1328634484673
stopped,bundle,com.python.pydev.codecompletion,2.1.0.2011052613,"com.python.pydev.codecompletion",1328634484673
stopped,bundle,com.python.pydev.refactoring,2.1.0.2011052613,"com.python.pydev.refactoring",1328634484673
stopped,bundle,org.eclipse.pde.runtime,3.4.200.v20100601,"org.eclipse.pde.runtime",1328634484673
stopped,bundle,com.python.pydev.analysis,2.1.0.2011052613,"com.python.pydev.analysis",1328634484673
stopped,bundle,com.python.pydev.debug,2.1.0.2011052613,"com.python.pydev.debug",1328634484674
stopped,bundle,com.python.pydev.fastparser,2.1.0.2011052613,"com.python.pydev.fastparser",1328634484674
stopped,bundle,com.python.pydev,2.1.0.2011052613,"com.python.pydev",1328634484674
stopped,bundle,org.python.pydev.django,2.1.0.2011052613,"org.python.pydev.django",1328634484674
stopped,bundle,org.python.pydev.customizations,2.1.0.2011052613,"org.python.pydev.customizations",1328634484674
stopped,bundle,org.python.pydev.red_core,2.1.0.2011052613,"org.python.pydev.red_core",1328634484674
stopped,bundle,org.python.pydev.debug,2.1.0.2011052613,"org.python.pydev.debug",1328634484674
stopped,bundle,org.python.pydev.refactoring,2.1.0.2011052613,"org.python.pydev.refactoring",1328634484674
stopped,bundle,org.python.pydev,2.1.0.2011052613,"org.python.pydev",1328634484674
stopped,bundle,org.springframework.ide.eclipse.beans.ui.refactoring,2.7.0.201107040453-RELEASE,"org.springframework.ide.eclipse.beans.ui.refactoring",1328634484674
stopped,bundle,org.springframework.ide.eclipse.beans.ui.editor,2.7.0.201107040453-RELEASE,"org.springframework.ide.eclipse.beans.ui.editor",1328634484674
stopped,bundle,org.springframework.ide.eclipse.beans.ui.graph,2.7.0.201107040453-RELEASE,"org.springframework.ide.eclipse.beans.ui.graph",1328634484674
stopped,bundle,org.springframework.ide.eclipse.beans.ui.search,2.7.0.201107040453-RELEASE,"org.springframework.ide.eclipse.beans.ui.search",1328634484674
stopped,bundle,org.springframework.ide.eclipse.beans.ui,2.7.0.201107040453-RELEASE,"org.springframework.ide.eclipse.beans.ui",1328634484674
stopped,bundle,org.springframework.ide.eclipse.ui,2.7.0.201107040453-RELEASE,"org.springframework.ide.eclipse.ui",1328634484674
stopped,bundle,org.eclipse.jdt.ui,3.6.0.v20100602-1600,"org.eclipse.jdt.ui",1328634484706
stopped,bundle,org.eclipse.wst.dtd.ui,1.0.500.v201004290328,"org.eclipse.wst.dtd.ui",1328634484706
stopped,bundle,org.eclipse.wst.xsd.ui,1.2.303.v201004290328,"org.eclipse.wst.xsd.ui",1328634484706
stopped,bundle,org.eclipse.wst.xml.ui,1.1.100.v201006030742,"org.eclipse.wst.xml.ui",1328634484706
stopped,bundle,org.eclipse.wst.common.ui,1.1.500.v200911190730,"org.eclipse.wst.common.ui",1328634484706
stopped,bundle,org.eclipse.wst.sse.ui,1.2.0.v201006030742,"org.eclipse.wst.sse.ui",1328634484706
stopped,bundle,org.eclipse.cdt.debug.ui.memory.search,1.2.0.201006141710,"org.eclipse.cdt.debug.ui.memory.search",1328634484706
stopped,bundle,org.eclipse.cdt.debug.ui.memory.traditional,1.2.0.201006141710,"org.eclipse.cdt.debug.ui.memory.traditional",1328634484706
stopped,bundle,org.eclipse.cdt.codan.checkers.ui,1.0.0.201006141710,"org.eclipse.cdt.codan.checkers.ui",1328634484706
stopped,bundle,org.eclipse.cdt.codan.ui.cxx,1.0.0.201006141710,"org.eclipse.cdt.codan.ui.cxx",1328634484706
stopped,bundle,org.eclipse.cdt.codan.ui,1.0.0.201006141710,"org.eclipse.cdt.codan.ui",1328634484706
stopped,bundle,org.eclipse.cdt.core.lrparser.xlc,1.0.0.201006141710,"org.eclipse.cdt.core.lrparser.xlc",1328634484706
stopped,bundle,org.eclipse.cdt.debug.edc.linux.x86,1.0.0.201006141710,"org.eclipse.cdt.debug.edc.linux.x86",1328634484706
stopped,bundle,org.eclipse.cdt.debug.edc.windows.ui,1.0.0.201006141710,"org.eclipse.cdt.debug.edc.windows.ui",1328634484706
stopped,bundle,org.eclipse.cdt.debug.edc.windows,1.0.0.201006141710,"org.eclipse.cdt.debug.edc.windows",1328634484706
stopped,bundle,org.eclipse.cdt.debug.edc.ui,1.0.0.201006141710,"org.eclipse.cdt.debug.edc.ui",1328634484707
stopped,bundle,org.eclipse.cdt.launch.remote,2.2.0.201006141710,"org.eclipse.cdt.launch.remote",1328634484707
stopped,bundle,org.eclipse.cdt.debug.mi.ui,6.1.0.201006141710,"org.eclipse.cdt.debug.mi.ui",1328634484707
stopped,bundle,org.eclipse.cdt.debug.ui.memory.memorybrowser,1.2.0.201006141710,"org.eclipse.cdt.debug.ui.memory.memorybrowser",1328634484707
stopped,bundle,org.eclipse.cdt.debug.gdbjtag.ui,7.0.0.201006141710,"org.eclipse.cdt.debug.gdbjtag.ui",1328634484707
stopped,bundle,org.eclipse.cdt.dsf.gdb.ui,2.1.0.201006141710,"org.eclipse.cdt.dsf.gdb.ui",1328634484708
stopped,bundle,org.eclipse.cdt.examples.dsf,2.1.0.201006141710,"org.eclipse.cdt.examples.dsf",1328634484708
stopped,bundle,org.eclipse.cdt.examples.dsf.pda.ui,2.1.0.201006141710,"org.eclipse.cdt.examples.dsf.pda.ui",1328634484708
stopped,bundle,org.eclipse.cdt.dsf.ui,2.1.0.201006141710,"org.eclipse.cdt.dsf.ui",1328634484708
stopped,bundle,org.eclipse.cdt.gdb.ui,7.0.0.201006141710,"org.eclipse.cdt.gdb.ui",1328634484708
stopped,bundle,org.eclipse.cdt.debug.edc.x86,1.0.0.201006141710,"org.eclipse.cdt.debug.edc.x86",1328634484710
stopped,bundle,org.eclipse.cdt.debug.edc,1.0.0.201006141710,"org.eclipse.cdt.debug.edc",1328634484710
stopped,bundle,org.eclipse.cdt.debug.gdbjtag.core,7.0.0.201006141710,"org.eclipse.cdt.debug.gdbjtag.core",1328634484711
stopped,bundle,org.eclipse.cdt.dsf.gdb,3.0.0.201006141710,"org.eclipse.cdt.dsf.gdb",1328634484711
stopped,bundle,org.eclipse.cdt.launch,6.1.0.201006141710,"org.eclipse.cdt.launch",1328634484711
stopped,bundle,org.eclipse.cdt.debug.ui,7.0.0.201006141710,"org.eclipse.cdt.debug.ui",1328634484711
stopped,bundle,org.eclipse.cdt.managedbuilder.ui.tests,7.0.0.201006141710,"org.eclipse.cdt.managedbuilder.ui.tests",1328634484711
stopped,bundle,org.eclipse.cdt.managedbuilder.xlupc.ui,1.1.0.201006141710,"org.eclipse.cdt.managedbuilder.xlupc.ui",1328634484711
stopped,bundle,org.eclipse.cdt.managedbuilder.xlc.ui,6.1.0.201006141710,"org.eclipse.cdt.managedbuilder.xlc.ui",1328634484712
stopped,bundle,org.eclipse.cdt.managedbuilder.ui,7.0.0.201006141710,"org.eclipse.cdt.managedbuilder.ui",1328634484712
stopped,bundle,org.eclipse.cdt.make.ui,7.0.0.201006141710,"org.eclipse.cdt.make.ui",1328634484712
stopped,bundle,org.eclipse.cdt.managedbuilder.bupc.ui,1.0.3.201006141710,"org.eclipse.cdt.managedbuilder.bupc.ui",1328634484712
stopped,bundle,org.eclipse.cdt.ui.tests,5.1.0.201006141710,"org.eclipse.cdt.ui.tests",1328634484712
stopped,bundle,org.eclipse.cdt.ui,5.2.0.201006141710,"org.eclipse.cdt.ui",1328634484712
stopped,bundle,org.eclipse.rse.files.ui,3.1.100.v201005221100,"org.eclipse.rse.files.ui",1328634484712
stopped,bundle,org.eclipse.search,3.6.0.v20100520-0800,"org.eclipse.search",1328634484712
stopped,bundle,org.eclipse.mylyn.team.ui,3.4.0.v20100608-0100-e3x,"org.eclipse.mylyn.team.ui",1328634484712
stopped,bundle,org.eclipse.gmf.ecore.editor,2.2.0.v20100315-2359,"org.eclipse.gmf.ecore.editor",1328634484712
stopped,bundle,org.eclipse.ui.navigator.resources,3.4.200.I20100601-0800,"org.eclipse.ui.navigator.resources",1328634484712
stopped,bundle,org.eclipse.ltk.ui.refactoring,3.5.0.v20100526-0800,"org.eclipse.ltk.ui.refactoring",1328634484712
stopped,bundle,org.eclipse.team.cvs.ui,3.3.300.I20100526-0800,"org.eclipse.team.cvs.ui",1328634485154
stopped,bundle,org.eclipse.team.ui,3.5.100.I20100527-0800,"org.eclipse.team.ui",1328634485155
stopped,bundle,org.eclipse.mylyn.bugzilla.ui,3.4.0.v20100730-0100-e3x,"org.eclipse.mylyn.bugzilla.ui",1328634485155
stopped,bundle,org.eclipse.mylyn.ide.ui,3.4.0.v20100608-0100-e3x,"org.eclipse.mylyn.ide.ui",1328634485155
stopped,bundle,org.eclipse.mylyn.resources.ui,3.4.0.v20100730-0100-e3x,"org.eclipse.mylyn.resources.ui",1328634485155
stopped,bundle,org.eclipse.mylyn.wikitext.tasks.ui,1.3.0.v20100608-0100-e3x,"org.eclipse.mylyn.wikitext.tasks.ui",1328634485155
stopped,bundle,org.eclipse.mylyn.context.ui,3.4.0.v20100730-0100-e3x,"org.eclipse.mylyn.context.ui",1328634485155
stopped,bundle,org.eclipse.mylyn.help.ui,3.4.0.v20100730-0100-e3x,"org.eclipse.mylyn.help.ui",1328634485155
stopped,bundle,org.eclipse.mylyn.tasks.bugs,3.4.0.v20100804-0100-e3x,"org.eclipse.mylyn.tasks.bugs",1328634485155
stopped,bundle,org.eclipse.mylyn.tasks.ui,3.4.1.v20100730-0100-e3x,"org.eclipse.mylyn.tasks.ui",1328634485155
stopped,bundle,org.eclipse.compare,3.5.100.I20100526-0800,"org.eclipse.compare",1328634485155
stopped,bundle,org.eclipse.ui.externaltools,3.2.0.v20100427,"org.eclipse.ui.externaltools",1328634485155
stopped,bundle,org.eclipse.cdt.debug.ui.memory.transport,2.1.0.201006141710,"org.eclipse.cdt.debug.ui.memory.transport",1328634485156
stopped,bundle,org.eclipse.debug.ui,3.6.0.v20100601-1530,"org.eclipse.debug.ui",1328634485156
stopped,bundle,org.eclipse.mylyn.wikitext.ui,1.3.0.v20100608-0100-e3x,"org.eclipse.mylyn.wikitext.ui",1328634485156
stopped,bundle,org.eclipse.gmf.runtime.diagram.ui.providers.ide,1.2.0.v20090403-1720,"org.eclipse.gmf.runtime.diagram.ui.providers.ide",1328634485156
