what,kind,bundleId,bundleVersion,description,time
deactivated,workbench,org.eclipse.ui.workbench,3.6.0.I20100603-1100,"",1328217032970
activated,workbench,org.eclipse.ui.workbench,3.6.0.I20100603-1100,"",1328217039340
deactivated,workbench,org.eclipse.ui.workbench,3.6.0.I20100603-1100,"",1328217067419
activated,workbench,org.eclipse.ui.workbench,3.6.0.I20100603-1100,"",1328217067879
deactivated,workbench,org.eclipse.ui.workbench,3.6.0.I20100603-1100,"",1328217068949
activated,workbench,org.eclipse.ui.workbench,3.6.0.I20100603-1100,"",1328217157841
deactivated,workbench,org.eclipse.ui.workbench,3.6.0.I20100603-1100,"",1328217305074
activated,perspective,org.eclipse.jdt.ui,3.6.0.v20100602-1600,"org.eclipse.jdt.ui.JavaPerspective",1328217307318
activated,view,org.eclipse.jdt.ui,3.6.0.v20100602-1600,"org.eclipse.jdt.ui.PackageExplorer",1328217307351
executed,command,org.eclipse.ui,3.6.0.I20100603-1100,"org.eclipse.ui.perspectives.showPerspective",1328217307358
executed,command,org.eclipse.ui,3.6.0.I20100603-1100,"org.eclipse.ui.perspectives.showPerspective",1328217307359
activated,workbench,org.eclipse.ui.workbench,3.6.0.I20100603-1100,"",1328217307371
started,bundle,org.eclipse.compare.core,3.5.100.I20100526-0800,"org.eclipse.compare.core",1328217309859
opened,editor,org.eclipse.jdt.ui,3.6.0.v20100602-1600,"org.eclipse.jdt.ui.CompilationUnitEditor",1328217309941
activated,editor,org.eclipse.jdt.ui,3.6.0.v20100602-1600,"org.eclipse.jdt.ui.CompilationUnitEditor",1328217310248
activated,view,org.eclipse.jdt.ui,3.6.0.v20100602-1600,"org.eclipse.jdt.ui.PackageExplorer",1328217310399
started,bundle,org.eclipse.jdt.apt.core,3.3.400.v20100513-0845,"org.eclipse.jdt.apt.core",1328217310698
started,bundle,org.eclipse.jdt.apt.pluggable.core,1.0.300.v20100513-0845,"org.eclipse.jdt.apt.pluggable.core",1328217310705
started,bundle,org.eclipse.core.variables,3.2.400.v20100505,"org.eclipse.core.variables",1328217310878
activated,editor,org.eclipse.jdt.ui,3.6.0.v20100602-1600,"org.eclipse.jdt.ui.CompilationUnitEditor",1328217315735
activated,view,org.eclipse.jdt.ui,3.6.0.v20100602-1600,"org.eclipse.jdt.ui.PackageExplorer",1328217323319
deactivated,workbench,org.eclipse.ui.workbench,3.6.0.I20100603-1100,"",1328217368728
activated,workbench,org.eclipse.ui.workbench,3.6.0.I20100603-1100,"",1328217372190
deactivated,workbench,org.eclipse.ui.workbench,3.6.0.I20100603-1100,"",1328217372790
activated,workbench,org.eclipse.ui.workbench,3.6.0.I20100603-1100,"",1328217379259
deactivated,workbench,org.eclipse.ui.workbench,3.6.0.I20100603-1100,"",1328217383884
activated,perspective,org.eclipse.team.cvs.ui,3.3.300.I20100526-0800,"org.eclipse.team.cvs.ui.cvsPerspective",1328217385310
activated,editor,org.eclipse.jdt.ui,3.6.0.v20100602-1600,"org.eclipse.jdt.ui.CompilationUnitEditor",1328217385358
executed,command,org.eclipse.ui,3.6.0.I20100603-1100,"org.eclipse.ui.perspectives.showPerspective",1328217385372
executed,command,org.eclipse.ui,3.6.0.I20100603-1100,"org.eclipse.ui.perspectives.showPerspective",1328217385372
activated,workbench,org.eclipse.ui.workbench,3.6.0.I20100603-1100,"",1328217385401
activated,view,org.eclipse.team.cvs.ui,3.3.300.I20100526-0800,"org.eclipse.team.ccvs.ui.RepositoriesView",1328217386848
opened,editor,org.eclipse.jdt.ui,3.6.0.v20100602-1600,"org.eclipse.jdt.ui.CompilationUnitEditor",1328217400323
activated,editor,org.eclipse.jdt.ui,3.6.0.v20100602-1600,"org.eclipse.jdt.ui.CompilationUnitEditor",1328217400433
activated,editor,org.eclipse.jdt.ui,3.6.0.v20100602-1600,"org.eclipse.jdt.ui.CompilationUnitEditor",1328217434230
closed,editor,org.eclipse.jdt.ui,3.6.0.v20100602-1600,"org.eclipse.jdt.ui.CompilationUnitEditor",1328217434231
activated,view,org.eclipse.team.cvs.ui,3.3.300.I20100526-0800,"org.eclipse.team.ccvs.ui.RepositoriesView",1328217436376
opened,editor,org.eclipse.jdt.ui,3.6.0.v20100602-1600,"org.eclipse.jdt.ui.CompilationUnitEditor",1328217441614
activated,editor,org.eclipse.jdt.ui,3.6.0.v20100602-1600,"org.eclipse.jdt.ui.CompilationUnitEditor",1328217441709
activated,editor,org.eclipse.jdt.ui,3.6.0.v20100602-1600,"org.eclipse.jdt.ui.CompilationUnitEditor",1328217448135
closed,editor,org.eclipse.jdt.ui,3.6.0.v20100602-1600,"org.eclipse.jdt.ui.CompilationUnitEditor",1328217448136
activated,view,org.eclipse.team.cvs.ui,3.3.300.I20100526-0800,"org.eclipse.team.ccvs.ui.RepositoriesView",1328217449993
opened,editor,org.eclipse.jdt.ui,3.6.0.v20100602-1600,"org.eclipse.jdt.ui.CompilationUnitEditor",1328217456924
activated,editor,org.eclipse.jdt.ui,3.6.0.v20100602-1600,"org.eclipse.jdt.ui.CompilationUnitEditor",1328217457013
activated,editor,org.eclipse.jdt.ui,3.6.0.v20100602-1600,"org.eclipse.jdt.ui.CompilationUnitEditor",1328217463392
closed,editor,org.eclipse.jdt.ui,3.6.0.v20100602-1600,"org.eclipse.jdt.ui.CompilationUnitEditor",1328217463393
activated,view,org.eclipse.team.cvs.ui,3.3.300.I20100526-0800,"org.eclipse.team.ccvs.ui.RepositoriesView",1328217464232
opened,editor,org.eclipse.jdt.ui,3.6.0.v20100602-1600,"org.eclipse.jdt.ui.CompilationUnitEditor",1328217466071
activated,editor,org.eclipse.jdt.ui,3.6.0.v20100602-1600,"org.eclipse.jdt.ui.CompilationUnitEditor",1328217466154
activated,editor,org.eclipse.jdt.ui,3.6.0.v20100602-1600,"org.eclipse.jdt.ui.CompilationUnitEditor",1328217479917
closed,editor,org.eclipse.jdt.ui,3.6.0.v20100602-1600,"org.eclipse.jdt.ui.CompilationUnitEditor",1328217479917
deactivated,workbench,org.eclipse.ui.workbench,3.6.0.I20100603-1100,"",1328217483820
activated,workbench,org.eclipse.ui.workbench,3.6.0.I20100603-1100,"",1328217570398
activated,view,org.eclipse.team.cvs.ui,3.3.300.I20100526-0800,"org.eclipse.team.ccvs.ui.RepositoriesView",1328217574554
opened,editor,org.eclipse.jdt.ui,3.6.0.v20100602-1600,"org.eclipse.jdt.ui.CompilationUnitEditor",1328217576844
activated,editor,org.eclipse.jdt.ui,3.6.0.v20100602-1600,"org.eclipse.jdt.ui.CompilationUnitEditor",1328217576927
activated,editor,org.eclipse.jdt.ui,3.6.0.v20100602-1600,"org.eclipse.jdt.ui.CompilationUnitEditor",1328217579220
closed,editor,org.eclipse.jdt.ui,3.6.0.v20100602-1600,"org.eclipse.jdt.ui.CompilationUnitEditor",1328217579220
activated,view,org.eclipse.team.cvs.ui,3.3.300.I20100526-0800,"org.eclipse.team.ccvs.ui.RepositoriesView",1328217580334
opened,editor,org.eclipse.jdt.ui,3.6.0.v20100602-1600,"org.eclipse.jdt.ui.CompilationUnitEditor",1328217582199
activated,editor,org.eclipse.jdt.ui,3.6.0.v20100602-1600,"org.eclipse.jdt.ui.CompilationUnitEditor",1328217582275
activated,editor,org.eclipse.jdt.ui,3.6.0.v20100602-1600,"org.eclipse.jdt.ui.CompilationUnitEditor",1328217597137
closed,editor,org.eclipse.jdt.ui,3.6.0.v20100602-1600,"org.eclipse.jdt.ui.CompilationUnitEditor",1328217597137
activated,view,org.eclipse.team.cvs.ui,3.3.300.I20100526-0800,"org.eclipse.team.ccvs.ui.RepositoriesView",1328217597826
opened,editor,org.eclipse.jdt.ui,3.6.0.v20100602-1600,"org.eclipse.jdt.ui.CompilationUnitEditor",1328217598102
activated,editor,org.eclipse.jdt.ui,3.6.0.v20100602-1600,"org.eclipse.jdt.ui.CompilationUnitEditor",1328217598183
activated,editor,org.eclipse.jdt.ui,3.6.0.v20100602-1600,"org.eclipse.jdt.ui.CompilationUnitEditor",1328217606828
closed,editor,org.eclipse.jdt.ui,3.6.0.v20100602-1600,"org.eclipse.jdt.ui.CompilationUnitEditor",1328217606828
deactivated,workbench,org.eclipse.ui.workbench,3.6.0.I20100603-1100,"",1328217607756
activated,workbench,org.eclipse.ui.workbench,3.6.0.I20100603-1100,"",1328217617374
activated,view,org.eclipse.team.cvs.ui,3.3.300.I20100526-0800,"org.eclipse.team.ccvs.ui.RepositoriesView",1328217621330
deactivated,workbench,org.eclipse.ui.workbench,3.6.0.I20100603-1100,"",1328217626119
activated,perspective,org.eclipse.jdt.ui,3.6.0.v20100602-1600,"org.eclipse.jdt.ui.JavaPerspective",1328217628417
activated,editor,org.eclipse.jdt.ui,3.6.0.v20100602-1600,"org.eclipse.jdt.ui.CompilationUnitEditor",1328217628437
executed,command,org.eclipse.ui,3.6.0.I20100603-1100,"org.eclipse.ui.perspectives.showPerspective",1328217628454
executed,command,org.eclipse.ui,3.6.0.I20100603-1100,"org.eclipse.ui.perspectives.showPerspective",1328217628454
activated,workbench,org.eclipse.ui.workbench,3.6.0.I20100603-1100,"",1328217628470
deactivated,workbench,org.eclipse.ui.workbench,3.6.0.I20100603-1100,"",1328217630631
closed,workbench,org.eclipse.ui.workbench,3.6.0.I20100603-1100,"",1328217632310
stopped,bundle,org.eclipse.mylyn.ide.ant,3.4.0.v20100608-0100-e3x,"org.eclipse.mylyn.ide.ant",1328217633433
stopped,bundle,org.eclipse.ant.ui,3.5.0.v20100427,"org.eclipse.ant.ui",1328217633435
stopped,bundle,org.eclipse.ant.launching,1.0.0.v20100427,"org.eclipse.ant.launching",1328217633436
stopped,bundle,org.eclipse.equinox.p2.ui.sdk,1.0.100.v20100513,"org.eclipse.equinox.p2.ui.sdk",1328217633437
stopped,bundle,org.eclipse.mylyn.java.tasks,3.4.0.v20100608-0100-e3x,"org.eclipse.mylyn.java.tasks",1328217633438
stopped,bundle,org.eclipse.mylyn.java.ui,3.4.0.v20100608-0100-e3x,"org.eclipse.mylyn.java.ui",1328217633439
stopped,bundle,edu.buffalo.cse.jive.launching,1.9.1.v20111117b,"edu.buffalo.cse.jive.launching",1328217633440
stopped,bundle,edu.buffalo.cse.jive.console,1.9.1.v20111117b,"edu.buffalo.cse.jive.console",1328217633440
stopped,bundle,edu.buffalo.cse.jive.ui,1.9.1.v20111117b,"edu.buffalo.cse.jive.ui",1328217633446
stopped,bundle,org.eclipse.jdt.junit,3.6.0.v20100526-0800,"org.eclipse.jdt.junit",1328217633446
stopped,bundle,org.eclipse.jdt.apt.ui,3.3.300.v20100513-0845,"org.eclipse.jdt.apt.ui",1328217633448
stopped,bundle,edu.rice.cs.drjava,0.9.8,"edu.rice.cs.drjava",1328217633449
stopped,bundle,org.eclipse.jdt.debug.ui,3.5.0.v20100602-0830,"org.eclipse.jdt.debug.ui",1328217633449
stopped,bundle,edu.buffalo.cse.green.relationship.association,3.5.0,"edu.buffalo.cse.green.relationship.association",1328217633452
stopped,bundle,edu.buffalo.cse.green.relationship.composition,3.5.0,"edu.buffalo.cse.green.relationship.composition",1328217633454
stopped,bundle,edu.buffalo.cse.green.relationship.dependency,3.5.0,"edu.buffalo.cse.green.relationship.dependency",1328217633456
stopped,bundle,edu.buffalo.cse.green.relationship.generalization,3.5.0,"edu.buffalo.cse.green.relationship.generalization",1328217633458
stopped,bundle,edu.buffalo.cse.green.relationship.realization,3.5.0,"edu.buffalo.cse.green.relationship.realization",1328217633460
stopped,bundle,edu.buffalo.cse.green.save.svg,3.5.0,"edu.buffalo.cse.green.save.svg",1328217633462
stopped,bundle,edu.buffalo.cse.green,3.5.0,"edu.buffalo.cse.green",1328217633464
stopped,bundle,org.eclipse.gmf.bridge,1.1.100.v20100309-2359,"org.eclipse.gmf.bridge",1328217633465
stopped,bundle,org.eclipse.gmf.codegen.edit,2.2.100.v20100309-2359,"org.eclipse.gmf.codegen.edit",1328217633468
stopped,bundle,org.eclipse.gmf.codegen,2.2.100.v20100518-2359,"org.eclipse.gmf.codegen",1328217633469
stopped,bundle,org.eclipse.gmf.graphdef.codegen,2.0.100.v20100421-2359,"org.eclipse.gmf.graphdef.codegen",1328217633470
stopped,bundle,org.eclipse.gmf.map.edit,2.2.100.v20100309-2359,"org.eclipse.gmf.map.edit",1328217633472
stopped,bundle,org.eclipse.gmf.graphdef.edit,2.0.200.v20090216-1925,"org.eclipse.gmf.graphdef.edit",1328217633474
stopped,bundle,org.eclipse.gmf.map,2.2.100.v20100309-2359,"org.eclipse.gmf.map",1328217633475
stopped,bundle,org.eclipse.gmf.tooldef.edit,2.0.100.v20090114-0940,"org.eclipse.gmf.tooldef.edit",1328217633476
stopped,bundle,org.eclipse.gmf.tooldef,2.0.0.v20090114-0940,"org.eclipse.gmf.tooldef",1328217633477
stopped,bundle,org.eclipse.gmf.common,1.2.0.v20100226-2359,"org.eclipse.gmf.common",1328217633478
stopped,bundle,com.collabnet.subversion.merge,2.1.0,"com.collabnet.subversion.merge",1328217633478
stopped,bundle,org.tigris.subversion.subclipse.graph,1.0.8,"org.tigris.subversion.subclipse.graph",1328217633479
stopped,bundle,org.tigris.subversion.subclipse.mylyn,3.0.0,"org.tigris.subversion.subclipse.mylyn",1328217633479
stopped,bundle,org.tigris.subversion.subclipse.ui,1.6.13,"org.tigris.subversion.subclipse.ui",1328217633479
stopped,bundle,org.eclipse.jdt.ui,3.6.0.v20100602-1600,"org.eclipse.jdt.ui",1328217633510
stopped,bundle,org.eclipse.wst.dtd.ui,1.0.500.v201004290328,"org.eclipse.wst.dtd.ui",1328217633512
stopped,bundle,org.eclipse.wst.xsd.ui,1.2.303.v201004290328,"org.eclipse.wst.xsd.ui",1328217633515
stopped,bundle,org.eclipse.wst.xml.ui,1.1.100.v201006030742,"org.eclipse.wst.xml.ui",1328217633516
stopped,bundle,org.eclipse.wst.common.ui,1.1.500.v200911190730,"org.eclipse.wst.common.ui",1328217633517
stopped,bundle,org.eclipse.wst.sse.ui,1.2.0.v201006030742,"org.eclipse.wst.sse.ui",1328217633519
stopped,bundle,org.eclipse.cdt.debug.ui.memory.search,1.2.0.201006141710,"org.eclipse.cdt.debug.ui.memory.search",1328217633520
stopped,bundle,org.eclipse.cdt.debug.ui.memory.traditional,1.2.0.201006141710,"org.eclipse.cdt.debug.ui.memory.traditional",1328217633521
stopped,bundle,org.eclipse.cdt.codan.checkers.ui,1.0.0.201006141710,"org.eclipse.cdt.codan.checkers.ui",1328217633522
stopped,bundle,org.eclipse.cdt.codan.ui.cxx,1.0.0.201006141710,"org.eclipse.cdt.codan.ui.cxx",1328217633522
stopped,bundle,org.eclipse.cdt.codan.ui,1.0.0.201006141710,"org.eclipse.cdt.codan.ui",1328217633523
stopped,bundle,org.eclipse.cdt.core.lrparser.xlc,1.0.0.201006141710,"org.eclipse.cdt.core.lrparser.xlc",1328217633524
stopped,bundle,org.eclipse.cdt.debug.edc.linux.x86,1.0.0.201006141710,"org.eclipse.cdt.debug.edc.linux.x86",1328217633526
stopped,bundle,org.eclipse.cdt.debug.edc.windows.ui,1.0.0.201006141710,"org.eclipse.cdt.debug.edc.windows.ui",1328217633527
stopped,bundle,org.eclipse.cdt.debug.edc.windows,1.0.0.201006141710,"org.eclipse.cdt.debug.edc.windows",1328217633529
stopped,bundle,org.eclipse.cdt.debug.edc.ui,1.0.0.201006141710,"org.eclipse.cdt.debug.edc.ui",1328217633530
stopped,bundle,org.eclipse.cdt.launch.remote,2.2.0.201006141710,"org.eclipse.cdt.launch.remote",1328217633531
stopped,bundle,org.eclipse.cdt.debug.mi.ui,6.1.0.201006141710,"org.eclipse.cdt.debug.mi.ui",1328217633532
stopped,bundle,org.eclipse.cdt.debug.ui.memory.memorybrowser,1.2.0.201006141710,"org.eclipse.cdt.debug.ui.memory.memorybrowser",1328217633533
stopped,bundle,org.eclipse.cdt.debug.gdbjtag.ui,7.0.0.201006141710,"org.eclipse.cdt.debug.gdbjtag.ui",1328217633535
stopped,bundle,org.eclipse.cdt.dsf.gdb.ui,2.1.0.201006141710,"org.eclipse.cdt.dsf.gdb.ui",1328217633536
stopped,bundle,org.eclipse.cdt.examples.dsf,2.1.0.201006141710,"org.eclipse.cdt.examples.dsf",1328217633537
stopped,bundle,org.eclipse.cdt.examples.dsf.pda.ui,2.1.0.201006141710,"org.eclipse.cdt.examples.dsf.pda.ui",1328217633538
stopped,bundle,org.eclipse.cdt.dsf.ui,2.1.0.201006141710,"org.eclipse.cdt.dsf.ui",1328217633539
stopped,bundle,org.eclipse.cdt.gdb.ui,7.0.0.201006141710,"org.eclipse.cdt.gdb.ui",1328217633540
stopped,bundle,org.eclipse.cdt.debug.edc.x86,1.0.0.201006141710,"org.eclipse.cdt.debug.edc.x86",1328217633541
stopped,bundle,org.eclipse.cdt.debug.edc,1.0.0.201006141710,"org.eclipse.cdt.debug.edc",1328217633543
stopped,bundle,org.eclipse.cdt.debug.gdbjtag.core,7.0.0.201006141710,"org.eclipse.cdt.debug.gdbjtag.core",1328217633544
stopped,bundle,org.eclipse.cdt.dsf.gdb,3.0.0.201006141710,"org.eclipse.cdt.dsf.gdb",1328217633545
stopped,bundle,org.eclipse.cdt.launch,6.1.0.201006141710,"org.eclipse.cdt.launch",1328217633546
stopped,bundle,org.eclipse.cdt.debug.ui,7.0.0.201006141710,"org.eclipse.cdt.debug.ui",1328217633548
stopped,bundle,org.eclipse.cdt.managedbuilder.ui.tests,7.0.0.201006141710,"org.eclipse.cdt.managedbuilder.ui.tests",1328217633550
stopped,bundle,org.eclipse.cdt.managedbuilder.xlupc.ui,1.1.0.201006141710,"org.eclipse.cdt.managedbuilder.xlupc.ui",1328217633551
stopped,bundle,org.eclipse.cdt.managedbuilder.xlc.ui,6.1.0.201006141710,"org.eclipse.cdt.managedbuilder.xlc.ui",1328217633553
stopped,bundle,org.eclipse.cdt.managedbuilder.ui,7.0.0.201006141710,"org.eclipse.cdt.managedbuilder.ui",1328217633554
stopped,bundle,org.eclipse.cdt.make.ui,7.0.0.201006141710,"org.eclipse.cdt.make.ui",1328217633554
stopped,bundle,org.eclipse.cdt.managedbuilder.bupc.ui,1.0.3.201006141710,"org.eclipse.cdt.managedbuilder.bupc.ui",1328217633560
stopped,bundle,org.eclipse.cdt.ui.tests,5.1.0.201006141710,"org.eclipse.cdt.ui.tests",1328217633560
stopped,bundle,org.eclipse.cdt.ui,5.2.0.201006141710,"org.eclipse.cdt.ui",1328217633560
stopped,bundle,org.eclipse.rse.files.ui,3.1.100.v201005221100,"org.eclipse.rse.files.ui",1328217633561
stopped,bundle,org.eclipse.search,3.6.0.v20100520-0800,"org.eclipse.search",1328217633561
stopped,bundle,org.eclipse.mylyn.team.ui,3.4.0.v20100608-0100-e3x,"org.eclipse.mylyn.team.ui",1328217633561
stopped,bundle,org.eclipse.gmf.ecore.editor,2.2.0.v20100315-2359,"org.eclipse.gmf.ecore.editor",1328217633563
stopped,bundle,org.eclipse.ui.navigator.resources,3.4.200.I20100601-0800,"org.eclipse.ui.navigator.resources",1328217633564
stopped,bundle,org.eclipse.ltk.ui.refactoring,3.5.0.v20100526-0800,"org.eclipse.ltk.ui.refactoring",1328217633564
stopped,bundle,org.eclipse.team.cvs.ui,3.3.300.I20100526-0800,"org.eclipse.team.cvs.ui",1328217633732
stopped,bundle,org.eclipse.team.ui,3.5.100.I20100527-0800,"org.eclipse.team.ui",1328217633733
stopped,bundle,org.eclipse.mylyn.bugzilla.ui,3.4.0.v20100730-0100-e3x,"org.eclipse.mylyn.bugzilla.ui",1328217633733
stopped,bundle,org.eclipse.mylyn.ide.ui,3.4.0.v20100608-0100-e3x,"org.eclipse.mylyn.ide.ui",1328217633735
stopped,bundle,org.eclipse.mylyn.resources.ui,3.4.0.v20100730-0100-e3x,"org.eclipse.mylyn.resources.ui",1328217633737
stopped,bundle,org.eclipse.mylyn.wikitext.tasks.ui,1.3.0.v20100608-0100-e3x,"org.eclipse.mylyn.wikitext.tasks.ui",1328217633739
stopped,bundle,org.eclipse.mylyn.context.ui,3.4.0.v20100730-0100-e3x,"org.eclipse.mylyn.context.ui",1328217633739
stopped,bundle,org.eclipse.mylyn.help.ui,3.4.0.v20100730-0100-e3x,"org.eclipse.mylyn.help.ui",1328217633740
stopped,bundle,org.eclipse.mylyn.tasks.bugs,3.4.0.v20100804-0100-e3x,"org.eclipse.mylyn.tasks.bugs",1328217633742
stopped,bundle,org.eclipse.mylyn.tasks.ui,3.4.1.v20100730-0100-e3x,"org.eclipse.mylyn.tasks.ui",1328217633742
stopped,bundle,org.eclipse.compare,3.5.100.I20100526-0800,"org.eclipse.compare",1328217633742
stopped,bundle,org.eclipse.ui.externaltools,3.2.0.v20100427,"org.eclipse.ui.externaltools",1328217633744
stopped,bundle,org.eclipse.cdt.debug.ui.memory.transport,2.1.0.201006141710,"org.eclipse.cdt.debug.ui.memory.transport",1328217633745
stopped,bundle,org.eclipse.debug.ui,3.6.0.v20100601-1530,"org.eclipse.debug.ui",1328217633748
stopped,bundle,org.eclipse.mylyn.wikitext.ui,1.3.0.v20100608-0100-e3x,"org.eclipse.mylyn.wikitext.ui",1328217633750
stopped,bundle,org.eclipse.gmf.runtime.diagram.ui.providers.ide,1.2.0.v20090403-1720,"org.eclipse.gmf.runtime.diagram.ui.providers.ide",1328217633751
stopped,bundle,org.eclipse.gmf.runtime.common.ui.action.ide,1.4.0.v20100223-2359,"org.eclipse.gmf.runtime.common.ui.action.ide",1328217633752
stopped,bundle,org.eclipse.gmf.runtime.diagram.ui.render,1.4.0.v20100511-1424,"org.eclipse.gmf.runtime.diagram.ui.render",1328217633753
stopped,bundle,org.eclipse.gmf.runtime.diagram.ui.printing.render,1.4.0.v20100423-2359,"org.eclipse.gmf.runtime.diagram.ui.printing.render",1328217633755
stopped,bundle,org.eclipse.gmf.runtime.diagram.ui.printing,1.4.0.v20100430-1518,"org.eclipse.gmf.runtime.diagram.ui.printing",1328217633756
stopped,bundle,org.eclipse.gmf.runtime.diagram.ui.providers,1.4.0.v20100430-1518,"org.eclipse.gmf.runtime.diagram.ui.providers",1328217633757
stopped,bundle,org.eclipse.gmf.runtime.diagram.ui.actions,1.4.0.v20100223-2359,"org.eclipse.gmf.runtime.diagram.ui.actions",1328217633759
stopped,bundle,org.eclipse.gmf.runtime.diagram.ui.resources.editor.ide,1.2.0.v20100423-2359,"org.eclipse.gmf.runtime.diagram.ui.resources.editor.ide",1328217633760
stopped,bundle,org.eclipse.gmf.runtime.diagram.ui.resources.editor,1.4.0.v20100531-2230,"org.eclipse.gmf.runtime.diagram.ui.resources.editor",1328217633761
stopped,bundle,org.eclipse.gmf.runtime.diagram.ui.properties,1.4.0.v20100430-1518,"org.eclipse.gmf.runtime.diagram.ui.properties",1328217633763
stopped,bundle,org.eclipse.gmf.runtime.diagram.ui,1.4.0.v20100528-2230,"org.eclipse.gmf.runtime.diagram.ui",1328217633765
stopped,bundle,org.eclipse.gmf.runtime.emf.ui.properties,1.4.0.v20100304-2359,"org.eclipse.gmf.runtime.emf.ui.properties",1328217633766
stopped,bundle,org.eclipse.gmf.runtime.emf.ui,1.2.0.v20090403-1720,"org.eclipse.gmf.runtime.emf.ui",1328217633767
stopped,bundle,org.eclipse.gmf.runtime.common.ui.action,1.2.0.v20090403-1720,"org.eclipse.gmf.runtime.common.ui.action",1328217633769
stopped,bundle,org.eclipse.gmf.runtime.common.ui.services.action,1.4.0.v20100430-1518,"org.eclipse.gmf.runtime.common.ui.services.action",1328217633770
stopped,bundle,org.eclipse.gmf.runtime.emf.type.ui,1.2.0.v20090403-1720,"org.eclipse.gmf.runtime.emf.type.ui",1328217633771
stopped,bundle,org.eclipse.gmf.runtime.common.ui.services,1.3.0.v20100423-2359,"org.eclipse.gmf.runtime.common.ui.services",1328217633783
stopped,bundle,org.eclipse.gmf.runtime.common.ui.services.dnd.ide,1.2.0.v20090403-1720,"org.eclipse.gmf.runtime.common.ui.services.dnd.ide",1328217633785
stopped,bundle,org.eclipse.gmf.runtime.common.ui.services.dnd,1.4.0.v20100423-2359,"org.eclipse.gmf.runtime.common.ui.services.dnd",1328217633786
stopped,bundle,org.eclipse.gmf.runtime.common.ui.services.properties,1.3.0.v20100115-2350,"org.eclipse.gmf.runtime.common.ui.services.properties",1328217633787
stopped,bundle,org.eclipse.gmf.runtime.draw2d.ui.render.awt,1.4.0.v20100430-1518,"org.eclipse.gmf.runtime.draw2d.ui.render.awt",1328217633788
stopped,bundle,org.eclipse.gmf.runtime.draw2d.ui.render,1.4.0.v20100430-1518,"org.eclipse.gmf.runtime.draw2d.ui.render",1328217633789
stopped,bundle,org.eclipse.gmf.runtime.gef.ui,1.4.0.v20100430-1518,"org.eclipse.gmf.runtime.gef.ui",1328217633790
stopped,bundle,org.eclipse.gmf.runtime.draw2d.ui,1.4.0.v20100514-1615,"org.eclipse.gmf.runtime.draw2d.ui",1328217633792
stopped,bundle,org.eclipse.gmf.runtime.common.ui,1.4.0.v20100518-2230,"org.eclipse.gmf.runtime.common.ui",1328217633793
stopped,bundle,org.eclipse.ui.console,3.5.0.v20100526,"org.eclipse.ui.console",1328217633793
stopped,bundle,org.eclipse.mylyn.commons.ui,3.4.0.v20100608-0100-e3x,"org.eclipse.mylyn.commons.ui",1328217633793
stopped,bundle,org.eclipse.gmf.xpand.editor,2.1.0.v20100428-2359,"org.eclipse.gmf.xpand.editor",1328217633794
stopped,bundle,org.eclipse.ui.editors,3.6.0.v20100520-0800,"org.eclipse.ui.editors",1328217633829
activated,perspective,org.eclipse.jdt.ui,,"org.eclipse.jdt.ui.JavaPerspective",1328289023486
started,bundle,org.eclipse.osgi,3.6.0.v20100517,"org.eclipse.osgi",1328289023487
started,bundle,org.eclipse.equinox.simpleconfigurator,1.0.200.v20100503,"org.eclipse.equinox.simpleconfigurator",1328289023488
started,bundle,com.ibm.icu,4.2.1.v20100412,"com.ibm.icu",1328289023488
started,bundle,org.eclipse.compare,3.5.100.I20100526-0800,"org.eclipse.compare",1328289023488
started,bundle,org.eclipse.compare.core,3.5.100.I20100526-0800,"org.eclipse.compare.core",1328289023489
started,bundle,org.eclipse.core.contenttype,3.4.100.v20100505-1235,"org.eclipse.core.contenttype",1328289023489
started,bundle,org.eclipse.core.databinding.observable,1.3.0.I20100601-0800,"org.eclipse.core.databinding.observable",1328289023490
started,bundle,org.eclipse.core.expressions,3.4.200.v20100505,"org.eclipse.core.expressions",1328289023490
started,bundle,org.eclipse.core.filebuffers,3.5.100.v20100520-0800,"org.eclipse.core.filebuffers",1328289023490
started,bundle,org.eclipse.core.filesystem,1.3.0.v20100526-0737,"org.eclipse.core.filesystem",1328289023490
started,bundle,org.eclipse.core.jobs,3.5.0.v20100515,"org.eclipse.core.jobs",1328289023490
started,bundle,org.eclipse.core.net,1.2.100.I20100511-0800,"org.eclipse.core.net",1328289023490
started,bundle,org.eclipse.core.resources,3.6.0.v20100526-0737,"org.eclipse.core.resources",1328289023490
started,bundle,org.eclipse.core.runtime,3.6.0.v20100505,"org.eclipse.core.runtime",1328289023491
started,bundle,org.eclipse.core.runtime.compatibility,3.2.100.v20100505,"org.eclipse.core.runtime.compatibility",1328289023491
started,bundle,org.eclipse.core.runtime.compatibility.auth,3.2.200.v20100517,"org.eclipse.core.runtime.compatibility.auth",1328289023492
started,bundle,org.eclipse.core.variables,3.2.400.v20100505,"org.eclipse.core.variables",1328289023492
started,bundle,org.eclipse.debug.core,3.6.0.v20100519,"org.eclipse.debug.core",1328289023492
started,bundle,org.eclipse.epp.usagedata.gathering,1.3.0.R201005261100,"org.eclipse.epp.usagedata.gathering",1328289023493
started,bundle,org.eclipse.epp.usagedata.recording,1.3.0.R201005261100,"org.eclipse.epp.usagedata.recording",1328289023493
started,bundle,org.eclipse.equinox.app,1.3.0.v20100512,"org.eclipse.equinox.app",1328289023493
started,bundle,org.eclipse.equinox.common,3.6.0.v20100503,"org.eclipse.equinox.common",1328289023493
started,bundle,org.eclipse.equinox.ds,1.2.0.v20100507,"org.eclipse.equinox.ds",1328289023494
started,bundle,org.eclipse.equinox.event,1.2.0.v20100503,"org.eclipse.equinox.event",1328289023496
