INDEX VERSION 1.126+/home/csdue/sergeime/workspace/.metadata/.plugins/org.eclipse.jdt.core
3306813691.index
1471718822.index
4254148103.index
416267917.index
1765539429.index
1570396496.index
2627832831.index
350090326.index
2880681607.index
2893046288.index
832379226.index
3751248753.index
3816898873.index
